EFFECTIVE PERIOD:
30-JUL-2030 00:00 THROUGH 23:59 GMT

NET INDICATOR:      M209GROUP
KEY LIST INDICATOR: NH
-------------------------------
NR LUGS  1  2  3  4  5  6
-------------------------------
01 1-0   -  -  A  A  -  A
02 1-0   B  B  -  B  B  B
03 1-0   -  C  -  C  -  C
04 2-0   -  D  -  D  D  -
05 2-0   -  E  E  -  -  -
06 2-0   -  -  -  F  F  -
07 2-0   G  G  G  G  -  G
08 2-0   H  H  H  H  H  -
09 2-0   I  -  -  I  -  -
10 2-0   -  J  -  -  -  -
11 2-0   K  -  K  -  -  K
12 0-4   L  -  -  -  -  L
13 0-6   M  -  M  -  -  -
14 0-6   N  N  -  N  N  N
15 0-6   -  O  O  O  O  -
16 0-6   P  -  P  P  P  -
17 0-6   -  Q  Q  -  -  Q
18 0-6   R  -  -  -  R   
19 0-6   -  -  -  S  S   
20 0-6   T  -  T  -      
21 0-6   -  U  -  -      
22 0-6   V  -  -         
23 0-6   -  -  -         
24 1-2   -  Y            
25 1-3   -  Z            
26 2-6   Z               
27 3-5                   
-------------------------------
26 LETTER CHECK

YOPOF ZAMLW PBOVM LCAYE WFGSA W
-------------------------------
