SECRET    SECRET    SECRET    SECRET    SECRET

NET INDICATOR M209GROUP

KEY LIST FOR MONTH OF FEB 2034

    01 FEB 2034  00:00-23:59 GMT:  USE KEY KP
    02 FEB 2034  00:00-23:59 GMT:  USE KEY KQ
    03 FEB 2034  00:00-23:59 GMT:  USE KEY KR
    04 FEB 2034  00:00-23:59 GMT:  USE KEY KS
    05 FEB 2034  00:00-23:59 GMT:  USE KEY KT
    06 FEB 2034  00:00-23:59 GMT:  USE KEY KU
    07 FEB 2034  00:00-23:59 GMT:  USE KEY KV
    08 FEB 2034  00:00-23:59 GMT:  USE KEY KW
    09 FEB 2034  00:00-23:59 GMT:  USE KEY KX
    10 FEB 2034  00:00-23:59 GMT:  USE KEY KY
    11 FEB 2034  00:00-23:59 GMT:  USE KEY KZ
    12 FEB 2034  00:00-23:59 GMT:  USE KEY LA
    13 FEB 2034  00:00-23:59 GMT:  USE KEY LB
    14 FEB 2034  00:00-23:59 GMT:  USE KEY LC
    15 FEB 2034  00:00-23:59 GMT:  USE KEY LD
    16 FEB 2034  00:00-23:59 GMT:  USE KEY LE
    17 FEB 2034  00:00-23:59 GMT:  USE KEY LF
    18 FEB 2034  00:00-23:59 GMT:  USE KEY LG
    19 FEB 2034  00:00-23:59 GMT:  USE KEY LH
    20 FEB 2034  00:00-23:59 GMT:  USE KEY LI
    21 FEB 2034  00:00-23:59 GMT:  USE KEY LJ
    22 FEB 2034  00:00-23:59 GMT:  USE KEY LK
    23 FEB 2034  00:00-23:59 GMT:  USE KEY LL
    24 FEB 2034  00:00-23:59 GMT:  USE KEY LM
    25 FEB 2034  00:00-23:59 GMT:  USE KEY LN
    26 FEB 2034  00:00-23:59 GMT:  USE KEY LO
    27 FEB 2034  00:00-23:59 GMT:  USE KEY LP
    28 FEB 2034  00:00-23:59 GMT:  USE KEY LQ

SECRET    SECRET    SECRET    SECRET    SECRET



SECRET    SECRET    SECRET    SECRET    SECRET



EFFECTIVE PERIOD:
01-FEB-2034 00:00 THROUGH 23:59 GMT

NET INDICATOR:      M209GROUP
KEY LIST INDICATOR: KP
-------------------------------
NR LUGS  1  2  3  4  5  6
-------------------------------
01 2-0   A  A  -  A  A  -
02 2-0   -  -  B  -  -  -
03 2-0   -  C  -  C  C  -
04 2-0   D  D  D  D  -  D
05 0-3   E  -  E  E  E  E
06 0-3   -  -  -  F  F  -
07 0-3   G  G  G  -  -  G
08 0-3   -  -  H  H  H  -
09 0-3   -  I  I  -  -  I
10 0-3   J  -  -  -  J  J
11 0-4   K  -  -  K  -  -
12 0-4   -  L  L  -  -  L
13 0-4   -  -  -  M  -  -
14 0-5   -  N  N  N  -  N
15 0-5   O  O  O  -  -  O
16 0-5   P  P  -  -  P  -
17 0-5   Q  -  Q  Q  -  -
18 1-2   -  -  R  R  R   
19 1-4   -  S  -  S  -   
20 2-4   -  -  -  -      
21 2-5   U  -  -  -      
22 2-5   V  V  V         
23 2-5   W  -  -         
24 2-5   X  Y            
25 2-6   Y  -            
26 3-4   -               
27 3-5                   
-------------------------------
26 LETTER CHECK

WWZIA GPLRP JWOAW LNXIP COPPS U
-------------------------------



SECRET    SECRET    SECRET    SECRET    SECRET

SECRET    SECRET    SECRET    SECRET    SECRET



EFFECTIVE PERIOD:
02-FEB-2034 00:00 THROUGH 23:59 GMT

NET INDICATOR:      M209GROUP
KEY LIST INDICATOR: KQ
-------------------------------
NR LUGS  1  2  3  4  5  6
-------------------------------
01 1-0   A  -  -  A  -  -
02 1-0   B  B  -  -  B  -
03 1-0   -  -  C  C  C  -
04 1-0   -  -  -  -  D  D
05 2-0   -  E  E  -  -  E
06 2-0   F  -  -  F  F  -
07 2-0   G  -  -  G  -  G
08 2-0   -  -  -  H  H  -
09 2-0   -  -  I  I  -  I
10 0-4   J  -  J  J  -  -
11 0-4   -  K  -  K  -  K
12 0-4   L  L  -  -  -  L
13 0-4   M  M  M  M  -  M
14 0-4   -  N  N  N  N  N
15 0-4   O  -  O  -  O  O
16 1-3   -  P  -  P  -  -
17 1-3   -  -  -  -  -  -
18 1-4   R  -  -  -  R   
19 1-4   S  -  S  -  S   
20 1-4   T  T  -  -      
21 1-4   -  -  U  U      
22 1-5   -  V  -         
23 1-5   -  X  X         
24 2-3   X  Y            
25 2-4   Y  -            
26 3-5   -               
27 5-6                   
-------------------------------
26 LETTER CHECK

PUNUM JDMYA DUTDO USTPP MUATT N
-------------------------------



SECRET    SECRET    SECRET    SECRET    SECRET

SECRET    SECRET    SECRET    SECRET    SECRET



EFFECTIVE PERIOD:
03-FEB-2034 00:00 THROUGH 23:59 GMT

NET INDICATOR:      M209GROUP
KEY LIST INDICATOR: KR
-------------------------------
NR LUGS  1  2  3  4  5  6
-------------------------------
01 1-0   -  -  A  -  -  -
02 1-0   B  B  B  B  -  B
03 1-0   C  C  C  -  -  -
04 1-0   -  D  D  D  D  D
05 1-0   E  -  E  -  -  -
06 1-0   -  -  -  F  -  -
07 1-0   -  G  -  G  G  G
08 2-0   -  H  H  -  H  -
09 2-0   I  -  I  I  I  I
10 2-0   J  J  -  J  J  J
11 2-0   K  -  -  -  K  -
12 2-0   -  -  -  -  -  -
13 2-0   -  -  -  -  M  M
14 2-0   -  -  N  N  -  -
15 2-0   O  -  O  O  -  -
16 2-0   -  P  -  P  P  P
17 2-0   -  -  Q  -  Q  Q
18 2-0   -  R  R  R  R   
19 0-3   -  -  -  -  -   
20 0-3   -  -  T  -      
21 0-4   U  -  -  U      
22 0-6   V  V  V         
23 0-6   -  -  -         
24 1-6   X  Y            
25 3-4   Y  -            
26 3-6   -               
27 4-5                   
-------------------------------
26 LETTER CHECK

DQGQE NOKPS IEYYQ NEQQK THGIF L
-------------------------------



SECRET    SECRET    SECRET    SECRET    SECRET

SECRET    SECRET    SECRET    SECRET    SECRET



EFFECTIVE PERIOD:
04-FEB-2034 00:00 THROUGH 23:59 GMT

NET INDICATOR:      M209GROUP
KEY LIST INDICATOR: KS
-------------------------------
NR LUGS  1  2  3  4  5  6
-------------------------------
01 0-3   -  A  A  -  A  -
02 0-3   B  -  -  -  -  B
03 0-3   -  -  C  C  -  C
04 0-3   D  D  -  D  -  -
05 0-3   E  -  -  E  E  E
06 0-4   F  F  -  F  F  -
07 0-4   G  G  G  -  -  -
08 0-4   H  -  H  H  H  -
09 0-4   I  -  I  -  -  I
10 0-4   -  -  J  -  J  J
11 0-4   -  -  K  K  -  K
12 0-5   -  L  -  L  L  L
13 0-5   -  -  -  M  M  M
14 0-5   -  -  -  -  -  -
15 0-5   O  O  -  O  -  -
16 1-2   P  -  -  -  -  -
17 1-5   -  -  -  -  -  Q
18 1-6   R  -  R  -  R   
19 3-4   -  S  S  S  S   
20 3-5   T  T  -  -      
21 3-6   -  U  U  -      
22 4-5   V  -  -         
23 4-5   W  X  X         
24 4-5   X  Y            
25 4-5   Y  Z            
26 5-6   -               
27 5-6                   
-------------------------------
26 LETTER CHECK

VNQZK IVUOM IPASN OWUMA YKAOZ O
-------------------------------



SECRET    SECRET    SECRET    SECRET    SECRET

SECRET    SECRET    SECRET    SECRET    SECRET



EFFECTIVE PERIOD:
05-FEB-2034 00:00 THROUGH 23:59 GMT

NET INDICATOR:      M209GROUP
KEY LIST INDICATOR: KT
-------------------------------
NR LUGS  1  2  3  4  5  6
-------------------------------
01 1-0   -  -  -  -  -  A
02 1-0   -  B  B  -  -  -
03 1-0   C  -  -  C  C  C
04 1-0   D  D  D  -  D  -
05 1-0   E  -  -  -  -  -
06 1-0   -  F  -  F  -  -
07 1-0   G  G  G  G  G  -
08 1-0   H  -  -  -  -  H
09 1-0   -  -  -  -  I  -
10 1-0   -  J  -  -  -  -
11 0-3   -  -  K  K  -  K
12 0-3   L  -  -  L  L  L
13 0-3   -  -  M  -  M  -
14 0-3   N  -  N  N  -  N
15 0-4   O  -  O  -  O  -
16 0-4   P  P  P  P  P  -
17 0-5   -  Q  -  -  -  Q
18 0-5   -  -  -  R  -   
19 0-5   -  S  -  -  -   
20 0-5   T  -  T  T      
21 0-5   U  U  -  U      
22 0-5   -  -  V         
23 0-5   -  -  -         
24 0-5   X  -            
25 0-6   Y  Z            
26 2-4   -               
27 3-4                   
-------------------------------
26 LETTER CHECK

XQFMS NGERK IPAOW NNLKL QZZNS O
-------------------------------



SECRET    SECRET    SECRET    SECRET    SECRET

SECRET    SECRET    SECRET    SECRET    SECRET



EFFECTIVE PERIOD:
06-FEB-2034 00:00 THROUGH 23:59 GMT

NET INDICATOR:      M209GROUP
KEY LIST INDICATOR: KU
-------------------------------
NR LUGS  1  2  3  4  5  6
-------------------------------
01 1-0   A  -  -  -  -  -
02 1-0   B  B  B  B  B  -
03 1-0   C  C  -  C  -  C
04 1-0   -  D  -  D  D  -
05 1-0   -  -  E  -  E  E
06 2-0   -  -  F  F  -  -
07 2-0   G  G  G  -  G  G
08 2-0   H  H  -  H  -  H
09 2-0   I  I  -  I  I  -
10 2-0   -  J  J  J  J  J
11 0-3   K  K  K  -  -  -
12 0-3   L  L  -  -  L  L
13 0-3   M  -  M  M  -  -
14 0-4   -  -  N  N  N  N
15 0-4   O  O  O  -  -  O
16 1-2   P  -  P  -  -  P
17 1-4   -  -  -  -  Q  -
18 1-4   -  R  -  R  R   
19 1-4   -  S  -  S  S   
20 1-4   T  -  -  -      
21 2-3   -  -  U  -      
22 3-4   V  -  -         
23 3-5   -  -  -         
24 4-5   -  -            
25 4-5   -  Z            
26 4-5   -               
27 5-6                   
-------------------------------
26 LETTER CHECK

APJHQ LRJZE QVXQV FPXWY MXAPJ Y
-------------------------------



SECRET    SECRET    SECRET    SECRET    SECRET

SECRET    SECRET    SECRET    SECRET    SECRET



EFFECTIVE PERIOD:
07-FEB-2034 00:00 THROUGH 23:59 GMT

NET INDICATOR:      M209GROUP
KEY LIST INDICATOR: KV
-------------------------------
NR LUGS  1  2  3  4  5  6
-------------------------------
01 1-0   -  A  -  A  A  -
02 1-0   -  B  -  B  B  B
03 1-0   C  C  C  -  C  C
04 1-0   -  -  -  -  -  -
05 1-0   -  E  E  E  -  E
06 2-0   F  -  -  F  -  -
07 2-0   -  G  -  G  G  G
08 2-0   H  -  H  -  -  -
09 2-0   -  -  I  -  -  -
10 2-0   -  J  -  -  J  J
11 2-0   K  K  -  K  K  K
12 0-3   L  -  -  -  L  L
13 0-3   -  -  M  -  -  M
14 0-3   N  N  -  -  -  N
15 0-3   O  O  -  -  O  O
16 1-2   P  P  -  -  -  -
17 1-3   Q  -  Q  -  Q  -
18 1-3   -  R  R  R  R   
19 1-3   -  -  S  -  S   
20 1-3   -  T  T  T      
21 2-3   U  -  U  U      
22 2-6   -  V  -         
23 3-5   -  -  X         
24 3-6   -  Y            
25 3-6   Y  Z            
26 4-5   Z               
27 5-6                   
-------------------------------
26 LETTER CHECK

WUDVN ANVFA ULTVN JNVUF LUTZU W
-------------------------------



SECRET    SECRET    SECRET    SECRET    SECRET

SECRET    SECRET    SECRET    SECRET    SECRET



EFFECTIVE PERIOD:
08-FEB-2034 00:00 THROUGH 23:59 GMT

NET INDICATOR:      M209GROUP
KEY LIST INDICATOR: KW
-------------------------------
NR LUGS  1  2  3  4  5  6
-------------------------------
01 1-0   -  A  -  -  -  -
02 2-0   -  -  -  -  B  B
03 2-0   C  C  -  C  -  -
04 2-0   -  D  -  D  D  D
05 2-0   E  E  -  E  E  E
06 0-4   F  -  F  -  -  F
07 0-4   G  G  -  -  -  -
08 0-4   H  -  H  H  H  H
09 0-4   I  I  I  -  -  -
10 0-4   J  -  J  -  J  -
11 0-4   -  K  K  K  -  -
12 0-4   L  -  -  L  -  -
13 0-4   -  -  M  -  -  -
14 0-5   -  N  N  -  N  N
15 0-5   -  O  O  -  O  O
16 0-5   -  P  P  -  -  P
17 0-6   Q  -  Q  -  -  Q
18 0-6   -  R  -  -  -   
19 0-6   -  S  -  S  S   
20 0-6   -  T  -  T      
21 0-6   U  -  -  U      
22 1-3   V  -  V         
23 1-5   -  X  -         
24 2-5   X  -            
25 2-6   Y  Z            
26 4-6   Z               
27 4-6                   
-------------------------------
26 LETTER CHECK

GIFRM PSOXG PYUSM LMLCS SQOIG N
-------------------------------



SECRET    SECRET    SECRET    SECRET    SECRET

SECRET    SECRET    SECRET    SECRET    SECRET



EFFECTIVE PERIOD:
09-FEB-2034 00:00 THROUGH 23:59 GMT

NET INDICATOR:      M209GROUP
KEY LIST INDICATOR: KX
-------------------------------
NR LUGS  1  2  3  4  5  6
-------------------------------
01 1-0   -  -  A  -  A  A
02 1-0   -  -  -  -  -  B
03 1-0   C  C  -  -  C  C
04 1-0   -  -  D  -  D  -
05 1-0   -  E  -  -  -  E
06 1-0   -  F  -  F  F  -
07 2-0   -  G  G  -  -  G
08 0-3   H  -  H  H  H  -
09 0-3   -  I  -  I  -  -
10 0-3   J  -  J  J  J  J
11 0-3   -  -  -  K  K  K
12 0-3   L  L  L  -  -  -
13 0-3   -  -  M  M  M  -
14 0-3   N  N  -  N  -  N
15 0-3   O  O  O  -  -  O
16 0-6   P  P  P  P  -  -
17 0-6   Q  -  -  Q  -  -
18 0-6   -  R  R  -  R   
19 0-6   S  -  S  -  S   
20 0-6   -  T  T  -      
21 0-6   -  -  U  U      
22 0-6   V  V  -         
23 0-6   -  -  -         
24 0-6   -  -            
25 0-6   Y  Z            
26 1-4   Z               
27 4-5                   
-------------------------------
26 LETTER CHECK

SQHST IPTLQ QKZAB BUUHK RTQZA A
-------------------------------



SECRET    SECRET    SECRET    SECRET    SECRET

SECRET    SECRET    SECRET    SECRET    SECRET



EFFECTIVE PERIOD:
10-FEB-2034 00:00 THROUGH 23:59 GMT

NET INDICATOR:      M209GROUP
KEY LIST INDICATOR: KY
-------------------------------
NR LUGS  1  2  3  4  5  6
-------------------------------
01 1-0   A  -  -  -  -  A
02 1-0   B  B  B  -  -  -
03 1-0   -  -  -  C  -  C
04 2-0   D  -  -  -  D  -
05 2-0   -  E  E  E  -  -
06 2-0   -  -  F  F  -  -
07 0-3   G  -  G  G  -  -
08 0-3   H  -  H  H  H  -
09 0-3   -  I  -  I  I  -
10 0-3   -  J  J  -  -  J
11 0-3   -  K  K  K  K  -
12 0-3   L  -  -  -  -  L
13 0-4   -  M  M  M  M  M
14 0-4   N  -  -  -  -  N
15 0-4   O  -  O  -  O  -
16 0-4   -  -  -  P  -  P
17 0-4   -  -  -  -  Q  -
18 1-3   R  -  -  R  R   
19 1-4   S  S  S  -  S   
20 1-5   T  T  -  T      
21 2-3   U  U  U  -      
22 2-3   -  -  V         
23 2-3   -  X  -         
24 2-3   X  Y            
25 2-4   -  -            
26 3-5   Z               
27 5-6                   
-------------------------------
26 LETTER CHECK

GNGNN AKUUI FXNGW XUWHW RNRHX H
-------------------------------



SECRET    SECRET    SECRET    SECRET    SECRET

SECRET    SECRET    SECRET    SECRET    SECRET



EFFECTIVE PERIOD:
11-FEB-2034 00:00 THROUGH 23:59 GMT

NET INDICATOR:      M209GROUP
KEY LIST INDICATOR: KZ
-------------------------------
NR LUGS  1  2  3  4  5  6
-------------------------------
01 1-0   -  -  A  -  A  A
02 1-0   B  -  B  B  B  -
03 1-0   C  -  C  C  -  C
04 1-0   D  -  -  D  -  D
05 2-0   E  E  -  -  -  -
06 0-3   -  -  -  F  F  -
07 0-4   -  G  -  G  -  G
08 0-5   H  -  -  H  -  H
09 0-5   I  I  I  -  -  -
10 0-5   -  J  J  -  J  -
11 0-5   -  K  -  K  -  -
12 0-5   L  -  L  -  L  L
13 0-5   M  -  -  M  -  -
14 0-5   -  -  N  -  N  N
15 0-5   O  -  O  -  O  -
16 0-5   -  P  -  -  -  -
17 0-5   Q  -  Q  -  Q  -
18 0-6   R  R  -  R  R   
19 0-6   -  S  S  S  -   
20 0-6   -  T  T  T      
21 0-6   U  U  -  U      
22 0-6   -  V  -         
23 0-6   -  -  -         
24 0-6   -  -            
25 0-6   Y  Z            
26 1-4   -               
27 3-4                   
-------------------------------
26 LETTER CHECK

NPOUA SOLMW MDHWO HCKOS IOOGT O
-------------------------------



SECRET    SECRET    SECRET    SECRET    SECRET

SECRET    SECRET    SECRET    SECRET    SECRET



EFFECTIVE PERIOD:
12-FEB-2034 00:00 THROUGH 23:59 GMT

NET INDICATOR:      M209GROUP
KEY LIST INDICATOR: LA
-------------------------------
NR LUGS  1  2  3  4  5  6
-------------------------------
01 2-0   A  A  -  A  A  A
02 2-0   -  B  B  -  B  -
03 2-0   -  C  C  -  C  -
04 2-0   D  D  -  D  -  D
05 2-0   E  E  E  -  -  E
06 0-3   -  -  -  F  -  -
07 0-3   -  G  G  G  G  G
08 0-3   H  H  -  -  H  -
09 0-3   I  I  -  I  -  -
10 0-4   -  J  J  -  J  -
11 0-5   K  -  K  -  -  -
12 0-5   -  L  -  -  -  -
13 0-5   M  -  M  -  -  -
14 0-5   -  -  -  N  N  N
15 0-5   -  O  -  -  -  O
16 1-3   P  -  P  P  -  P
17 1-3   -  -  Q  -  -  Q
18 1-4   -  -  -  R  R   
19 1-6   -  -  -  S  S   
20 2-3   -  T  -  -      
21 2-3   -  U  U  U      
22 2-3   -  -  -         
23 2-3   W  -  -         
24 2-5   -  -            
25 3-4   Y  Z            
26 3-4   Z               
27 4-5                   
-------------------------------
26 LETTER CHECK

NESPA PUUKN TTUKA WLTNT SKVDF X
-------------------------------



SECRET    SECRET    SECRET    SECRET    SECRET

SECRET    SECRET    SECRET    SECRET    SECRET



EFFECTIVE PERIOD:
13-FEB-2034 00:00 THROUGH 23:59 GMT

NET INDICATOR:      M209GROUP
KEY LIST INDICATOR: LB
-------------------------------
NR LUGS  1  2  3  4  5  6
-------------------------------
01 1-0   -  A  A  -  A  -
02 1-0   B  B  -  B  B  B
03 1-0   -  C  -  -  C  -
04 1-0   -  D  -  D  D  D
05 1-0   -  -  E  E  E  -
06 1-0   F  F  F  -  -  F
07 1-0   -  -  -  -  G  -
08 1-0   H  H  H  -  H  H
09 2-0   -  I  I  I  -  -
10 2-0   J  J  -  J  J  -
11 2-0   -  K  K  -  K  K
12 2-0   -  -  -  -  -  L
13 2-0   -  -  M  -  -  -
14 0-3   N  -  -  N  N  N
15 0-3   O  O  O  O  -  -
16 0-4   -  P  -  P  P  -
17 0-4   -  -  Q  -  -  Q
18 0-4   -  -  -  R  -   
19 0-4   S  -  -  S  -   
20 0-4   -  T  T  T      
21 0-4   U  -  -  -      
22 0-4   V  -  V         
23 0-4   -  -  X         
24 0-4   X  -            
25 0-5   -  Z            
26 2-3   Z               
27 3-6                   
-------------------------------
26 LETTER CHECK

GRJUA WUIME AGYOJ ENNAF QGMKU O
-------------------------------



SECRET    SECRET    SECRET    SECRET    SECRET

SECRET    SECRET    SECRET    SECRET    SECRET



EFFECTIVE PERIOD:
14-FEB-2034 00:00 THROUGH 23:59 GMT

NET INDICATOR:      M209GROUP
KEY LIST INDICATOR: LC
-------------------------------
NR LUGS  1  2  3  4  5  6
-------------------------------
01 1-0   A  A  -  A  A  -
02 2-0   -  B  -  -  B  -
03 2-0   -  C  C  C  -  C
04 2-0   D  -  -  -  D  -
05 2-0   E  -  E  -  -  E
06 0-3   -  -  F  -  -  F
07 0-3   -  G  G  G  G  G
08 0-3   -  H  H  -  H  H
09 0-3   I  I  -  I  -  I
10 0-3   -  J  J  J  J  -
11 0-4   -  K  K  -  K  K
12 0-5   -  -  -  -  L  L
13 0-5   M  -  -  -  -  M
14 0-5   N  -  N  -  N  -
15 0-6   O  -  -  -  -  -
16 0-6   -  -  P  -  -  -
17 0-6   -  Q  Q  Q  -  -
18 0-6   -  R  R  R  R   
19 0-6   -  S  -  S  -   
20 0-6   T  T  T  T      
21 0-6   U  -  -  U      
22 1-5   V  V  -         
23 2-3   W  X  -         
24 2-5   -  Y            
25 3-6   Y  -            
26 3-6   Z               
27 3-6                   
-------------------------------
26 LETTER CHECK

UJYNQ IPIKV BVUPV WIZUZ NJZKB P
-------------------------------



SECRET    SECRET    SECRET    SECRET    SECRET

SECRET    SECRET    SECRET    SECRET    SECRET



EFFECTIVE PERIOD:
15-FEB-2034 00:00 THROUGH 23:59 GMT

NET INDICATOR:      M209GROUP
KEY LIST INDICATOR: LD
-------------------------------
NR LUGS  1  2  3  4  5  6
-------------------------------
01 1-0   -  -  A  A  A  -
02 1-0   B  B  B  -  -  B
03 1-0   -  -  -  C  C  C
04 1-0   -  -  D  D  -  D
05 2-0   E  -  -  E  -  E
06 2-0   F  F  -  -  -  -
07 2-0   G  G  -  G  G  -
08 2-0   H  H  H  H  H  -
09 2-0   I  I  I  -  I  -
10 0-3   J  J  -  J  J  -
11 0-3   -  -  -  -  K  K
12 0-3   -  L  -  -  -  -
13 0-3   -  M  M  -  M  M
14 0-3   -  N  -  N  -  N
15 0-3   O  -  -  -  O  -
16 1-2   P  -  -  -  -  -
17 1-2   -  Q  Q  Q  Q  -
18 1-2   -  -  R  R  R   
19 1-2   -  -  -  -  -   
20 1-3   T  -  T  T      
21 1-4   U  -  -  U      
22 1-5   V  -  -         
23 1-5   -  -  X         
24 1-6   X  Y            
25 2-3   -  -            
26 3-5   -               
27 4-5                   
-------------------------------
26 LETTER CHECK

MEKMV OVBOU MLTKD OUAAS UZVJN O
-------------------------------



SECRET    SECRET    SECRET    SECRET    SECRET

SECRET    SECRET    SECRET    SECRET    SECRET



EFFECTIVE PERIOD:
16-FEB-2034 00:00 THROUGH 23:59 GMT

NET INDICATOR:      M209GROUP
KEY LIST INDICATOR: LE
-------------------------------
NR LUGS  1  2  3  4  5  6
-------------------------------
01 1-0   A  A  -  A  -  -
02 1-0   -  B  B  -  -  B
03 1-0   -  -  -  C  C  -
04 1-0   -  -  D  D  -  -
05 1-0   E  -  -  -  E  -
06 2-0   F  -  -  F  F  -
07 2-0   G  G  G  -  G  -
08 2-0   H  H  -  H  -  H
09 2-0   -  -  -  I  -  -
10 2-0   -  -  -  -  J  -
11 2-0   -  -  K  -  -  K
12 2-0   L  -  L  -  -  -
13 2-0   -  -  M  -  -  M
14 0-4   -  -  -  N  N  N
15 0-5   -  O  -  -  O  O
16 0-5   P  -  P  P  -  P
17 0-5   Q  Q  Q  -  Q  Q
18 0-6   -  -  R  -  -   
19 0-6   -  S  S  -  S   
20 0-6   T  T  T  T      
21 0-6   -  -  -  U      
22 0-6   V  -  -         
23 0-6   W  X  X         
24 0-6   -  Y            
25 0-6   -  Z            
26 3-4   -               
27 4-5                   
-------------------------------
26 LETTER CHECK

UHUNV UNKSK LPNEN EHAMH IMSHF Q
-------------------------------



SECRET    SECRET    SECRET    SECRET    SECRET

SECRET    SECRET    SECRET    SECRET    SECRET



EFFECTIVE PERIOD:
17-FEB-2034 00:00 THROUGH 23:59 GMT

NET INDICATOR:      M209GROUP
KEY LIST INDICATOR: LF
-------------------------------
NR LUGS  1  2  3  4  5  6
-------------------------------
01 1-0   A  -  A  A  A  -
02 1-0   B  -  B  B  -  B
03 1-0   -  C  -  -  -  C
04 1-0   -  D  D  -  -  D
05 1-0   -  E  E  E  -  E
06 1-0   -  F  -  -  F  -
07 1-0   -  G  -  -  G  -
08 1-0   -  -  -  -  -  -
09 1-0   I  I  I  -  I  -
10 1-0   -  -  J  J  -  J
11 1-0   K  -  K  K  K  K
12 1-0   L  -  -  -  L  L
13 1-0   M  M  M  -  M  M
14 0-3   -  -  N  -  -  -
15 0-4   -  -  -  O  -  -
16 0-4   P  P  P  -  P  -
17 0-5   -  Q  -  -  Q  Q
18 0-5   R  R  R  R  -   
19 0-6   S  S  -  -  S   
20 0-6   -  T  -  T      
21 0-6   -  -  -  U      
22 0-6   V  V  -         
23 0-6   W  X  X         
24 2-3   X  Y            
25 3-5   -  -            
26 4-5   -               
27 4-6                   
-------------------------------
26 LETTER CHECK

YKYNF HSUZL LVMIF AKGNA FMPAD I
-------------------------------



SECRET    SECRET    SECRET    SECRET    SECRET

SECRET    SECRET    SECRET    SECRET    SECRET



EFFECTIVE PERIOD:
18-FEB-2034 00:00 THROUGH 23:59 GMT

NET INDICATOR:      M209GROUP
KEY LIST INDICATOR: LG
-------------------------------
NR LUGS  1  2  3  4  5  6
-------------------------------
01 2-0   -  -  A  -  A  A
02 2-0   B  -  -  B  -  B
03 2-0   -  C  C  C  -  -
04 0-4   -  -  D  D  -  D
05 0-4   E  E  -  E  -  -
06 0-5   F  F  F  -  F  F
07 0-5   G  -  G  -  -  -
08 0-5   H  -  H  H  H  H
09 0-5   I  I  -  I  -  -
10 0-6   -  J  -  J  J  -
11 0-6   K  K  -  K  K  -
12 0-6   -  -  L  -  L  L
13 0-6   -  -  -  -  -  M
14 0-6   -  -  -  -  -  N
15 0-6   O  -  O  -  -  -
16 1-2   -  P  -  -  -  P
17 2-3   Q  -  -  Q  Q  -
18 2-4   -  -  -  -  -   
19 2-4   -  S  S  -  S   
20 2-4   -  T  -  T      
21 2-5   U  -  U  U      
22 2-5   -  V  V         
23 2-5   -  X  X         
24 2-5   X  Y            
25 3-4   Y  Z            
26 4-6   -               
27 5-6                   
-------------------------------
26 LETTER CHECK

IUHHP YZAAM WGPUH RPRWA TMHZR O
-------------------------------



SECRET    SECRET    SECRET    SECRET    SECRET

SECRET    SECRET    SECRET    SECRET    SECRET



EFFECTIVE PERIOD:
19-FEB-2034 00:00 THROUGH 23:59 GMT

NET INDICATOR:      M209GROUP
KEY LIST INDICATOR: LH
-------------------------------
NR LUGS  1  2  3  4  5  6
-------------------------------
01 1-0   A  A  -  -  A  A
02 1-0   B  -  B  -  -  -
03 1-0   C  C  C  C  -  C
04 1-0   D  -  -  D  -  -
05 1-0   -  -  E  -  E  E
06 1-0   F  F  -  -  F  -
07 1-0   -  G  G  G  G  -
08 1-0   H  H  H  H  -  H
09 1-0   -  -  I  I  I  I
10 1-0   J  J  J  -  -  -
11 1-0   K  K  -  -  -  -
12 2-0   -  L  -  L  -  L
13 2-0   -  -  M  M  M  M
14 0-3   -  -  -  N  -  -
15 0-4   O  O  O  -  O  O
16 0-4   -  -  P  -  -  -
17 0-4   -  -  -  Q  Q  -
18 0-4   R  -  R  -  R   
19 0-4   -  S  -  -  -   
20 0-4   -  T  -  -      
21 0-4   U  -  -  U      
22 0-4   V  V  -         
23 0-4   W  X  -         
24 0-4   -  Y            
25 0-6   Y  Z            
26 2-5   Z               
27 3-5                   
-------------------------------
26 LETTER CHECK

MNNBP OMONO NAXOO KZOQC YYOZD Z
-------------------------------



SECRET    SECRET    SECRET    SECRET    SECRET

SECRET    SECRET    SECRET    SECRET    SECRET



EFFECTIVE PERIOD:
20-FEB-2034 00:00 THROUGH 23:59 GMT

NET INDICATOR:      M209GROUP
KEY LIST INDICATOR: LI
-------------------------------
NR LUGS  1  2  3  4  5  6
-------------------------------
01 1-0   -  A  A  -  -  A
02 1-0   -  -  B  B  -  -
03 1-0   -  C  -  -  -  -
04 1-0   D  D  -  -  -  -
05 1-0   E  -  E  E  E  E
06 1-0   F  F  -  F  F  -
07 1-0   G  -  G  -  G  G
08 2-0   -  -  H  H  -  H
09 0-3   I  -  -  -  I  -
10 0-3   -  -  -  J  J  -
11 0-3   -  K  -  -  K  K
12 0-3   -  -  L  L  L  -
13 0-3   M  M  -  M  -  -
14 0-3   N  -  N  N  N  -
15 0-3   O  O  O  O  -  O
16 0-3   -  -  -  -  -  P
17 0-3   Q  Q  -  -  Q  Q
18 0-3   R  -  R  R  -   
19 0-3   -  -  S  -  S   
20 0-3   T  -  -  T      
21 0-3   -  U  -  U      
22 0-4   -  -  V         
23 0-4   W  -  -         
24 0-4   X  Y            
25 0-6   -  -            
26 4-5   Z               
27 5-6                   
-------------------------------
26 LETTER CHECK

TXMZV SCMXA XPBGA GZWEI DTFAW H
-------------------------------



SECRET    SECRET    SECRET    SECRET    SECRET

SECRET    SECRET    SECRET    SECRET    SECRET



EFFECTIVE PERIOD:
21-FEB-2034 00:00 THROUGH 23:59 GMT

NET INDICATOR:      M209GROUP
KEY LIST INDICATOR: LJ
-------------------------------
NR LUGS  1  2  3  4  5  6
-------------------------------
01 1-0   -  -  A  -  A  A
02 1-0   B  B  B  B  B  B
03 1-0   C  C  -  -  -  -
04 1-0   D  -  -  -  D  D
05 1-0   -  -  E  -  -  -
06 1-0   F  -  -  -  -  F
07 1-0   -  G  G  G  -  -
08 2-0   -  -  H  H  H  -
09 2-0   -  I  -  -  I  -
10 2-0   -  -  J  J  J  -
11 2-0   -  -  -  -  -  K
12 2-0   L  -  L  L  L  L
13 2-0   -  M  M  M  M  M
14 2-0   -  N  -  -  -  -
15 0-3   O  -  -  -  -  -
16 0-3   -  -  P  P  P  -
17 0-5   -  -  -  -  -  Q
18 1-2   R  R  R  R  -   
19 1-2   -  -  S  S  S   
20 1-2   T  -  T  T      
21 1-2   -  U  -  -      
22 1-3   V  -  -         
23 2-4   W  X  X         
24 2-5   X  Y            
25 3-5   Y  Z            
26 4-5   -               
27 4-6                   
-------------------------------
26 LETTER CHECK

FEPOR GZRYZ SGVUO FTTCT FGOQO P
-------------------------------



SECRET    SECRET    SECRET    SECRET    SECRET

SECRET    SECRET    SECRET    SECRET    SECRET



EFFECTIVE PERIOD:
22-FEB-2034 00:00 THROUGH 23:59 GMT

NET INDICATOR:      M209GROUP
KEY LIST INDICATOR: LK
-------------------------------
NR LUGS  1  2  3  4  5  6
-------------------------------
01 1-0   A  A  A  A  A  -
02 1-0   B  B  -  B  -  -
03 1-0   -  C  -  -  -  C
04 1-0   -  D  -  D  D  D
05 1-0   E  E  E  E  -  -
06 1-0   -  -  -  -  F  F
07 1-0   -  -  -  -  G  -
08 1-0   H  H  H  H  -  -
09 1-0   -  -  -  -  -  I
10 1-0   -  J  J  J  -  J
11 1-0   K  K  -  K  K  -
12 1-0   -  L  L  -  L  -
13 1-0   M  M  M  M  M  -
14 0-3   N  N  -  N  N  -
15 0-3   O  -  O  -  -  O
16 0-3   -  -  P  -  P  -
17 0-3   -  -  -  Q  -  Q
18 0-3   -  -  -  -  R   
19 0-3   -  S  S  S  -   
20 0-4   -  -  -  T      
21 0-4   U  U  -  -      
22 0-4   V  -  V         
23 0-4   -  -  X         
24 0-5   -  -            
25 0-6   -  Z            
26 2-4   Z               
27 2-6                   
-------------------------------
26 LETTER CHECK

FLGZH SUEGM ZPTGI PGFTL CALQU Y
-------------------------------



SECRET    SECRET    SECRET    SECRET    SECRET

SECRET    SECRET    SECRET    SECRET    SECRET



EFFECTIVE PERIOD:
23-FEB-2034 00:00 THROUGH 23:59 GMT

NET INDICATOR:      M209GROUP
KEY LIST INDICATOR: LL
-------------------------------
NR LUGS  1  2  3  4  5  6
-------------------------------
01 1-0   -  A  -  A  -  -
02 2-0   -  -  B  B  B  -
03 2-0   C  -  C  C  C  C
04 2-0   -  D  -  -  -  D
05 2-0   -  E  E  E  E  E
06 2-0   -  -  F  -  F  -
07 0-3   G  G  G  -  G  G
08 0-3   H  H  H  -  -  -
09 0-3   -  -  -  I  I  -
10 0-3   J  -  J  -  J  J
11 0-3   K  -  -  -  K  K
12 0-3   -  L  -  -  L  L
13 0-3   M  -  -  -  -  M
14 0-3   -  N  N  -  -  -
15 0-3   -  O  -  -  O  O
16 0-3   P  -  P  P  -  -
17 0-3   Q  -  Q  Q  -  -
18 0-4   -  -  R  -  R   
19 0-4   S  -  S  S  -   
20 0-4   T  T  -  -      
21 0-4   -  -  -  U      
22 0-5   V  -  -         
23 0-6   -  X  -         
24 2-3   X  Y            
25 2-4   Y  -            
26 4-6   -               
27 5-6                   
-------------------------------
26 LETTER CHECK

WDOUU RIZMP IYNJT RPALP ADIML Y
-------------------------------



SECRET    SECRET    SECRET    SECRET    SECRET

SECRET    SECRET    SECRET    SECRET    SECRET



EFFECTIVE PERIOD:
24-FEB-2034 00:00 THROUGH 23:59 GMT

NET INDICATOR:      M209GROUP
KEY LIST INDICATOR: LM
-------------------------------
NR LUGS  1  2  3  4  5  6
-------------------------------
01 1-0   -  -  A  A  A  A
02 1-0   B  -  -  -  -  B
03 1-0   -  -  C  -  -  C
04 2-0   D  D  D  D  D  D
05 2-0   -  -  -  -  E  E
06 2-0   F  -  -  F  F  -
07 2-0   -  G  -  G  G  -
08 2-0   -  -  H  -  H  H
09 0-3   I  I  I  I  I  I
10 0-5   J  -  -  J  -  -
11 0-5   K  -  K  -  -  K
12 0-5   -  -  -  L  L  -
13 0-5   M  M  -  M  M  -
14 0-5   -  N  N  -  -  N
15 0-5   -  O  -  -  -  -
16 1-2   P  -  P  P  -  P
17 1-2   Q  -  -  -  Q  -
18 1-2   -  -  R  R  R   
19 1-2   -  S  -  S  -   
20 1-3   T  -  T  T      
21 1-3   U  U  U  -      
22 1-3   -  V  V         
23 1-6   -  X  X         
24 2-5   X  -            
25 3-5   -  -            
26 3-6   -               
27 4-6                   
-------------------------------
26 LETTER CHECK

ASFCT UWRAH HKVMZ KSRGX VLCTT X
-------------------------------



SECRET    SECRET    SECRET    SECRET    SECRET

SECRET    SECRET    SECRET    SECRET    SECRET



EFFECTIVE PERIOD:
25-FEB-2034 00:00 THROUGH 23:59 GMT

NET INDICATOR:      M209GROUP
KEY LIST INDICATOR: LN
-------------------------------
NR LUGS  1  2  3  4  5  6
-------------------------------
01 1-0   -  -  -  A  A  -
02 1-0   B  -  -  B  B  -
03 1-0   -  -  -  C  C  C
04 1-0   D  -  D  D  D  D
05 1-0   E  -  E  -  E  E
06 1-0   F  F  F  -  -  F
07 1-0   -  -  -  G  -  -
08 1-0   -  H  -  -  H  -
09 2-0   I  I  -  -  I  -
10 0-3   J  J  J  J  -  J
11 0-3   -  K  -  -  K  -
12 0-3   L  L  L  L  -  -
13 0-3   -  -  -  -  M  M
14 0-3   -  N  N  N  -  -
15 0-3   -  O  -  -  -  -
16 0-3   P  P  P  -  P  P
17 0-3   Q  -  -  -  -  -
18 0-3   R  R  -  R  R   
19 0-3   -  -  S  S  -   
20 0-3   T  T  T  T      
21 0-3   U  U  -  -      
22 0-4   -  V  -         
23 0-4   -  -  X         
24 0-4   -  Y            
25 0-5   -  Z            
26 2-4   -               
27 2-6                   
-------------------------------
26 LETTER CHECK

WOUCI ZSFAS GFNLT YLZGW OONMC P
-------------------------------



SECRET    SECRET    SECRET    SECRET    SECRET

SECRET    SECRET    SECRET    SECRET    SECRET



EFFECTIVE PERIOD:
26-FEB-2034 00:00 THROUGH 23:59 GMT

NET INDICATOR:      M209GROUP
KEY LIST INDICATOR: LO
-------------------------------
NR LUGS  1  2  3  4  5  6
-------------------------------
01 2-0   A  A  A  -  -  A
02 2-0   B  -  -  -  B  B
03 2-0   C  -  -  C  -  C
04 0-5   D  D  D  -  -  -
05 0-5   -  -  E  E  -  -
06 0-5   F  -  F  F  -  F
07 0-5   G  -  G  G  -  -
08 0-5   -  -  -  -  H  H
09 0-5   I  I  -  -  -  I
10 0-6   -  J  J  J  -  J
11 0-6   -  -  K  K  K  K
12 0-6   L  -  L  -  L  L
13 0-6   M  -  M  M  -  M
14 0-6   N  N  -  N  N  -
15 0-6   -  O  -  O  O  -
16 1-2   -  -  -  P  -  -
17 1-2   -  -  Q  -  Q  -
18 1-2   R  R  -  -  -   
19 1-4   S  S  -  -  S   
20 1-5   T  -  -  T      
21 2-3   -  -  -  U      
22 2-4   V  V  V         
23 2-6   -  X  -         
24 2-6   -  Y            
25 2-6   Y  Z            
26 2-6   -               
27 5-6                   
-------------------------------
26 LETTER CHECK

AMWUN HEATA LNPGU UQPTA LKNFA S
-------------------------------



SECRET    SECRET    SECRET    SECRET    SECRET

SECRET    SECRET    SECRET    SECRET    SECRET



EFFECTIVE PERIOD:
27-FEB-2034 00:00 THROUGH 23:59 GMT

NET INDICATOR:      M209GROUP
KEY LIST INDICATOR: LP
-------------------------------
NR LUGS  1  2  3  4  5  6
-------------------------------
01 2-0   A  -  -  -  -  -
02 2-0   -  -  -  B  -  -
03 2-0   -  C  C  -  C  C
04 2-0   D  -  D  -  D  -
05 2-0   E  E  E  E  E  -
06 0-3   -  -  F  -  F  -
07 0-3   -  -  -  G  -  -
08 0-4   H  -  H  H  -  H
09 0-5   -  I  I  I  I  -
10 0-5   -  -  -  -  J  J
11 0-5   K  K  -  -  K  -
12 0-5   L  -  -  -  -  L
13 0-5   M  M  M  -  -  M
14 0-5   N  N  -  N  -  -
15 0-5   -  -  O  O  O  O
16 0-5   -  -  P  P  -  P
17 0-5   Q  -  Q  Q  Q  Q
18 0-5   R  R  -  -  -   
19 0-5   S  S  -  -  -   
20 0-5   -  T  -  T      
21 0-6   -  U  -  -      
22 0-6   V  -  -         
23 0-6   -  X  X         
24 1-4   X  -            
25 2-6   Y  Z            
26 3-4   -               
27 3-6                   
-------------------------------
26 LETTER CHECK

ZJJXM VKCGI UMPXI LTRUJ ZKVMX F
-------------------------------



SECRET    SECRET    SECRET    SECRET    SECRET

SECRET    SECRET    SECRET    SECRET    SECRET



EFFECTIVE PERIOD:
28-FEB-2034 00:00 THROUGH 23:59 GMT

NET INDICATOR:      M209GROUP
KEY LIST INDICATOR: LQ
-------------------------------
NR LUGS  1  2  3  4  5  6
-------------------------------
01 1-0   -  A  -  -  A  A
02 0-3   -  B  B  -  -  B
03 0-3   -  -  -  -  -  -
04 0-3   D  D  -  D  D  D
05 0-3   E  -  -  -  -  -
06 0-3   F  -  -  F  F  F
07 0-3   G  G  -  -  -  G
08 0-5   H  -  -  H  -  -
09 0-5   I  I  I  I  I  I
10 0-5   -  -  J  -  -  J
11 0-5   -  K  K  K  K  -
12 0-5   -  L  -  -  L  -
13 0-6   M  -  -  -  -  -
14 0-6   -  N  -  -  -  N
15 0-6   -  -  O  O  -  -
16 1-3   -  -  P  P  -  P
17 1-4   Q  -  Q  -  -  Q
18 1-6   -  R  -  -  R   
19 1-6   -  S  S  S  S   
20 1-6   T  T  T  T      
21 1-6   -  U  U  U      
22 2-6   -  V  V         
23 3-5   W  -  -         
24 5-6   -  -            
25 5-6   Y  Z            
26 5-6   Z               
27 5-6                   
-------------------------------
26 LETTER CHECK

JNIUH TZAZG ORMRH OUHWX TALOU Y
-------------------------------



SECRET    SECRET    SECRET    SECRET    SECRET
