EFFECTIVE PERIOD:
25-MAR-2031 00:00 THROUGH 23:59 GMT

NET INDICATOR:      M209GROUP
KEY LIST INDICATOR: WL
-------------------------------
NR LUGS  1  2  3  4  5  6
-------------------------------
01 0-3   -  A  A  -  -  -
02 0-3   B  -  B  B  -  -
03 0-3   -  -  -  C  -  -
04 0-3   D  -  -  -  D  D
05 0-3   E  E  E  E  E  E
06 0-3   -  F  F  F  F  -
07 0-3   -  -  -  G  G  G
08 0-3   -  H  H  -  H  -
09 0-4   -  -  -  -  -  I
10 0-4   J  -  -  -  J  -
11 0-4   K  K  -  K  -  K
12 0-4   -  L  -  -  -  -
13 0-4   -  M  M  -  M  M
14 0-4   -  -  N  -  N  N
15 0-4   -  O  O  O  -  -
16 0-4   P  P  P  P  P  -
17 0-4   -  Q  Q  -  -  -
18 0-4   R  -  -  R  -   
19 0-4   S  S  -  -  -   
20 0-5   T  -  T  T      
21 0-6   -  U  U  U      
22 0-6   -  V  -         
23 0-6   W  -  X         
24 0-6   X  -            
25 0-6   Y  Z            
26 1-2   Z               
27 2-6                   
-------------------------------
26 LETTER CHECK

OKAZC KJULI ZABRU ABOBQ HCJVS J
-------------------------------
