EFFECTIVE PERIOD:
04-MAY-2027 00:00 THROUGH 23:59 GMT

NET INDICATOR:      M209GROUP
KEY LIST INDICATOR: TU
-------------------------------
NR LUGS  1  2  3  4  5  6
-------------------------------
01 1-0   A  -  A  -  A  -
02 1-0   -  -  B  B  B  B
03 1-0   -  -  C  -  -  -
04 1-0   -  D  D  D  D  D
05 1-0   E  E  -  -  -  E
06 1-0   F  -  F  F  -  -
07 1-0   -  -  -  G  G  G
08 1-0   -  H  -  -  -  H
09 1-0   -  I  -  -  -  -
10 1-0   J  -  J  J  -  -
11 1-0   -  K  -  K  K  K
12 2-0   L  L  L  L  -  -
13 0-3   M  -  M  -  M  -
14 0-4   -  N  -  N  N  N
15 0-4   O  -  O  -  -  -
16 0-5   P  -  P  -  -  -
17 0-5   Q  -  -  -  -  Q
18 0-5   -  R  R  R  R   
19 0-5   -  S  S  S  S   
20 0-5   -  T  -  T      
21 0-5   -  -  U  U      
22 0-5   V  -  -         
23 0-6   W  X  -         
24 1-5   -  -            
25 2-3   Y  Z            
26 2-4   -               
27 4-5                   
-------------------------------
26 LETTER CHECK

MYKDD GXYOT HWFCO SLANG XMSMD W
-------------------------------
