EFFECTIVE PERIOD:
09-MAR-2022 00:00 THROUGH 23:59 GMT

NET INDICATOR:      M209GROUP
KEY LIST INDICATOR: ZK
-------------------------------
NR LUGS  1  2  3  4  5  6
-------------------------------
01 1-0   A  A  -  A  A  -
02 2-0   B  B  -  -  -  -
03 2-0   C  C  -  -  C  C
04 2-0   -  -  -  D  D  -
05 2-0   E  E  -  E  E  E
06 0-3   -  -  -  -  F  F
07 0-3   G  G  G  -  G  G
08 0-3   -  -  -  H  -  -
09 0-5   -  -  I  I  -  -
10 0-5   -  J  -  -  J  -
11 0-5   K  -  K  K  K  -
12 0-5   -  L  L  L  -  L
13 0-5   -  -  -  M  -  M
14 0-6   -  N  N  N  N  -
15 0-6   -  -  O  -  -  O
16 0-6   P  P  -  -  -  P
17 0-6   Q  -  Q  -  Q  Q
18 0-6   R  -  -  -  R   
19 0-6   -  S  S  S  -   
20 1-3   T  T  -  T      
21 2-5   -  -  U  -      
22 2-5   V  -  V         
23 2-5   W  -  X         
24 2-5   X  Y            
25 2-6   -  Z            
26 3-6   Z               
27 4-5                   
-------------------------------
26 LETTER CHECK

GVTER ZTGPU QXXXJ KFQVI OWQLT J
-------------------------------
