EFFECTIVE PERIOD:
12-JUN-2032 00:00 THROUGH 23:59 GMT

NET INDICATOR:      M209GROUP
KEY LIST INDICATOR: NO
-------------------------------
NR LUGS  1  2  3  4  5  6
-------------------------------
01 0-3   A  -  A  A  A  A
02 0-3   -  -  B  -  B  B
03 0-3   C  C  -  -  -  -
04 0-3   D  -  D  D  D  -
05 0-3   -  E  -  -  -  E
06 0-3   -  F  F  -  -  -
07 0-4   -  G  -  G  G  -
08 0-5   -  H  H  H  H  H
09 0-5   -  I  -  -  I  -
10 0-5   -  -  -  J  J  J
11 0-5   K  K  K  K  -  K
12 0-5   -  L  L  L  -  -
13 0-5   M  M  -  -  -  -
14 0-5   N  -  -  N  N  N
15 0-5   O  -  -  -  O  O
16 0-6   P  -  -  P  P  -
17 0-6   Q  Q  -  Q  -  Q
18 0-6   -  R  R  -  -   
19 0-6   S  S  -  -  S   
20 0-6   -  T  T  -      
21 0-6   U  U  -  -      
22 1-2   V  -  V         
23 1-3   -  -  -         
24 3-6   -  Y            
25 5-6   Y  -            
26 5-6   -               
27 5-6                   
-------------------------------
26 LETTER CHECK

LCLUA BRRYN HZAIT UTZBB RZMTM M
-------------------------------
