EFFECTIVE PERIOD:
16-SEP-2030 00:00 THROUGH 23:59 GMT

NET INDICATOR:      M209GROUP
KEY LIST INDICATOR: PD
-------------------------------
NR LUGS  1  2  3  4  5  6
-------------------------------
01 1-0   A  A  A  -  -  -
02 2-0   B  -  -  -  B  B
03 2-0   C  C  -  -  C  -
04 2-0   D  -  -  -  D  -
05 2-0   E  -  E  E  E  E
06 2-0   -  F  -  F  -  -
07 2-0   G  -  -  G  G  -
08 2-0   H  H  H  H  -  -
09 0-3   -  I  -  -  -  I
10 0-4   J  -  J  -  J  -
11 0-5   -  K  K  -  K  K
12 0-5   -  -  -  -  -  L
13 0-5   -  -  -  -  -  -
14 0-5   N  -  N  N  -  -
15 0-6   -  -  O  O  O  -
16 0-6   -  P  P  -  P  P
17 0-6   -  -  -  Q  Q  Q
18 0-6   R  -  R  R  -   
19 0-6   S  S  -  -  -   
20 0-6   -  -  T  T      
21 0-6   U  -  -  U      
22 0-6   -  V  V         
23 0-6   -  X  X         
24 2-5   -  -            
25 2-6   Y  Z            
26 3-4   -               
27 4-5                   
-------------------------------
26 LETTER CHECK

LVEGQ SLLVI PXGMJ NLSXK CIRSI N
-------------------------------
