EFFECTIVE PERIOD:
29-SEP-2034 00:00 THROUGH 23:59 GMT

NET INDICATOR:      M209GROUP
KEY LIST INDICATOR: TV
-------------------------------
NR LUGS  1  2  3  4  5  6
-------------------------------
01 1-0   A  -  A  -  A  -
02 2-0   -  B  -  -  B  B
03 0-3   C  C  C  C  -  -
04 0-3   D  D  D  -  D  D
05 0-3   E  -  E  -  -  E
06 0-3   F  -  -  -  -  F
07 0-3   G  -  G  G  -  -
08 0-3   -  H  -  -  -  -
09 0-4   I  -  I  I  -  -
10 0-4   -  -  J  J  J  -
11 0-4   -  -  K  K  K  K
12 0-4   -  -  L  L  -  -
13 0-4   -  -  -  M  M  -
14 0-4   -  N  -  -  N  N
15 0-4   -  O  O  O  -  -
16 0-5   P  -  -  -  -  P
17 0-5   -  -  Q  -  Q  Q
18 0-5   R  R  -  -  R   
19 0-5   S  S  -  -  -   
20 1-2   T  T  T  -      
21 2-3   U  U  -  U      
22 3-5   V  -  -         
23 4-5   W  X  X         
24 4-5   -  -            
25 4-5   Y  -            
26 4-5   -               
27 4-6                   
-------------------------------
26 LETTER CHECK

PPSLD NTBTR ISKKK NJSZV XXALR M
-------------------------------
