EFFECTIVE PERIOD:
28-NOV-2025 00:00 THROUGH 23:59 GMT

NET INDICATOR:      M209GROUP
KEY LIST INDICATOR: ZS
-------------------------------
NR LUGS  1  2  3  4  5  6
-------------------------------
01 2-0   A  -  -  -  -  -
02 0-3   B  -  -  -  -  -
03 0-3   C  C  -  C  -  C
04 0-3   -  -  D  D  D  -
05 0-3   -  E  E  -  E  E
06 0-3   -  F  F  -  F  -
07 0-3   -  -  -  G  -  G
08 0-3   -  -  H  -  -  -
09 0-3   -  I  -  I  -  I
10 0-3   J  J  -  J  J  J
11 0-4   K  -  -  -  -  K
12 0-4   -  L  L  -  -  -
13 0-5   -  -  M  -  -  -
14 0-5   N  -  N  -  -  -
15 0-5   -  -  O  O  O  O
16 0-5   P  P  P  P  -  -
17 0-6   -  Q  -  -  Q  -
18 0-6   -  R  -  -  R   
19 0-6   -  -  S  S  S   
20 0-6   T  T  T  T      
21 0-6   U  -  U  U      
22 0-6   V  V  -         
23 0-6   W  -  -         
24 1-4   X  Y            
25 3-6   -  -            
26 4-5   Z               
27 5-6                   
-------------------------------
26 LETTER CHECK

SKOJJ RSTDJ AQIYJ WJZDA BSQNS P
-------------------------------
