EFFECTIVE PERIOD:
12-APR-2022 00:00 THROUGH 23:59 GMT

NET INDICATOR:      M209GROUP
KEY LIST INDICATOR: AS
-------------------------------
NR LUGS  1  2  3  4  5  6
-------------------------------
01 1-0   -  A  -  A  A  A
02 1-0   B  B  -  -  -  -
03 1-0   C  -  C  -  -  C
04 1-0   D  -  D  -  D  -
05 1-0   -  -  -  E  E  E
06 2-0   F  F  F  F  -  -
07 0-3   G  G  G  -  -  -
08 0-4   -  H  -  H  H  -
09 0-4   I  -  -  I  -  I
10 0-4   -  -  J  J  J  J
11 0-4   K  K  -  -  -  K
12 0-4   L  -  L  L  -  L
13 0-4   M  -  M  -  M  -
14 0-5   N  N  -  N  N  -
15 0-6   O  -  O  O  -  O
16 0-6   -  -  P  -  -  P
17 0-6   -  -  -  -  Q  -
18 0-6   -  R  R  R  -   
19 0-6   -  -  -  S  -   
20 0-6   T  -  T  T      
21 0-6   -  U  U  -      
22 0-6   -  V  -         
23 0-6   W  -  -         
24 0-6   X  -            
25 0-6   -  -            
26 1-2   Z               
27 2-5                   
-------------------------------
26 LETTER CHECK

KTICR SJZHQ FOJML NZZTG HUXLU G
-------------------------------
