EFFECTIVE PERIOD:
11-OCT-2031 00:00 THROUGH 23:59 GMT

NET INDICATOR:      M209GROUP
KEY LIST INDICATOR: ED
-------------------------------
NR LUGS  1  2  3  4  5  6
-------------------------------
01 1-0   -  -  -  A  A  -
02 1-0   B  -  -  B  -  -
03 1-0   C  C  -  -  C  -
04 2-0   D  -  D  -  D  D
05 2-0   E  E  E  E  -  E
06 2-0   -  F  -  F  -  -
07 2-0   -  -  G  -  G  G
08 2-0   H  H  -  -  H  H
09 2-0   -  I  I  -  I  -
10 2-0   -  -  J  -  J  J
11 2-0   K  -  K  K  K  K
12 0-4   L  L  L  -  L  -
13 0-5   M  M  M  -  -  M
14 0-5   N  -  N  -  -  N
15 0-5   O  O  -  O  O  -
16 0-5   P  P  P  P  -  -
17 0-5   -  -  -  Q  -  Q
18 0-6   -  -  R  -  -   
19 0-6   -  -  S  S  S   
20 1-2   T  -  -  T      
21 1-2   -  U  U  U      
22 1-2   -  V  -         
23 1-2   -  -  -         
24 1-5   X  -            
25 3-4   Y  -            
26 4-6   -               
27 5-6                   
-------------------------------
26 LETTER CHECK

ZLFLK ARVQK LJHVS VWJWX EIWVK S
-------------------------------
