EFFECTIVE PERIOD:
28-AUG-2036 00:00 THROUGH 23:59 GMT

NET INDICATOR:      M209GROUP
KEY LIST INDICATOR: US
-------------------------------
NR LUGS  1  2  3  4  5  6
-------------------------------
01 1-0   -  -  A  A  -  A
02 2-0   -  -  -  -  -  -
03 2-0   -  C  -  -  -  -
04 2-0   D  D  -  D  -  -
05 0-3   -  -  -  E  E  -
06 0-3   -  F  F  F  F  F
07 0-3   G  -  G  -  G  -
08 0-3   H  H  H  H  -  H
09 0-3   -  -  -  I  -  I
10 0-3   -  -  -  J  -  -
11 0-3   K  -  K  -  K  -
12 0-3   -  L  L  -  L  -
13 0-3   M  -  -  M  -  M
14 0-5   N  -  -  N  N  N
15 0-5   -  O  -  O  O  -
16 0-5   -  P  -  -  P  P
17 0-5   Q  Q  Q  -  Q  Q
18 0-5   -  -  R  R  -   
19 0-5   -  -  S  S  -   
20 0-6   T  -  T  -      
21 0-6   U  U  -  -      
22 2-5   V  -  -         
23 2-6   -  X  -         
24 3-5   X  Y            
25 3-5   -  Z            
26 3-5   Z               
27 4-6                   
-------------------------------
26 LETTER CHECK

OGQWT XUDFF RZNOR PRNPN PUQOO E
-------------------------------
