EFFECTIVE PERIOD:
08-OCT-2025 00:00 THROUGH 23:59 GMT

NET INDICATOR:      M209GROUP
KEY LIST INDICATOR: XT
-------------------------------
NR LUGS  1  2  3  4  5  6
-------------------------------
01 1-0   -  -  A  -  A  -
02 2-0   B  -  -  -  -  -
03 2-0   -  -  C  C  -  -
04 2-0   D  D  D  -  -  -
05 2-0   E  E  E  E  -  E
06 0-3   F  -  F  F  -  -
07 0-3   G  G  G  -  G  G
08 0-3   -  -  -  -  H  H
09 0-3   I  I  I  I  I  I
10 0-3   -  -  -  -  -  -
11 0-3   K  -  -  K  K  K
12 0-3   -  -  -  -  L  L
13 0-4   M  M  -  M  -  M
14 0-5   -  -  N  N  -  -
15 0-6   -  -  -  O  -  O
16 0-6   -  P  P  P  P  P
17 0-6   -  -  Q  -  Q  Q
18 0-6   -  -  -  -  -   
19 0-6   -  -  -  S  -   
20 0-6   T  T  -  T      
21 0-6   U  U  U  U      
22 0-6   -  -  -         
23 0-6   W  X  X         
24 1-2   -  Y            
25 1-5   -  Z            
26 2-3   -               
27 3-6                   
-------------------------------
26 LETTER CHECK

UQSJN SQMIN NKLSA ZMSTT ZNKAC I
-------------------------------
