EFFECTIVE PERIOD:
16-APR-2037 00:00 THROUGH 23:59 GMT

NET INDICATOR:      M209GROUP
KEY LIST INDICATOR: DP
-------------------------------
NR LUGS  1  2  3  4  5  6
-------------------------------
01 1-0   -  -  A  -  -  -
02 1-0   -  B  -  -  -  B
03 1-0   C  C  -  -  -  C
04 1-0   -  -  -  -  D  -
05 1-0   E  E  E  E  E  -
06 2-0   -  F  -  -  F  -
07 2-0   -  -  G  G  -  G
08 2-0   -  -  -  H  -  H
09 2-0   -  I  I  I  I  -
10 2-0   J  -  J  J  -  J
11 0-3   K  -  -  -  K  K
12 0-3   L  -  -  L  -  L
13 0-3   M  M  -  M  M  -
14 0-3   N  -  -  N  N  -
15 0-3   -  O  -  O  O  -
16 0-3   P  -  P  P  -  P
17 0-3   -  Q  Q  -  Q  -
18 1-2   -  R  -  -  R   
19 1-2   -  S  S  S  -   
20 1-2   -  T  -  T      
21 1-2   U  U  -  -      
22 1-4   -  -  V         
23 1-5   W  X  X         
24 1-6   -  -            
25 2-3   Y  Z            
26 3-6   Z               
27 4-6                   
-------------------------------
26 LETTER CHECK

TEUUJ AMMTV ZAKTK SVDMR MMNSM U
-------------------------------
