EFFECTIVE PERIOD:
02-MAR-2035 00:00 THROUGH 23:59 GMT

NET INDICATOR:      M209GROUP
KEY LIST INDICATOR: ZT
-------------------------------
NR LUGS  1  2  3  4  5  6
-------------------------------
01 1-0   A  -  -  -  A  -
02 1-0   -  -  -  -  B  B
03 1-0   -  -  C  C  -  -
04 1-0   D  -  D  -  D  -
05 2-0   E  E  -  -  -  E
06 2-0   F  F  F  F  F  -
07 0-3   G  G  G  G  G  G
08 0-4   -  H  -  H  H  -
09 0-4   -  -  -  -  I  -
10 0-4   J  J  J  J  -  -
11 0-4   K  -  K  K  K  -
12 0-5   -  -  -  L  -  -
13 0-5   -  -  -  -  M  M
14 0-5   -  N  -  -  N  N
15 0-5   O  -  -  O  -  O
16 0-5   P  P  P  -  -  P
17 0-5   -  Q  -  -  -  Q
18 0-5   -  -  R  -  R   
19 0-5   -  S  S  S  -   
20 0-5   -  -  -  T      
21 0-5   U  -  -  U      
22 1-2   -  -  V         
23 1-4   W  -  -         
24 2-6   X  Y            
25 4-5   -  Z            
26 4-5   -               
27 4-5                   
-------------------------------
26 LETTER CHECK

FQWAE HSMYQ DXAOW AAIVJ ATAID U
-------------------------------
