EFFECTIVE PERIOD:
14-MAR-2027 00:00 THROUGH 23:59 GMT

NET INDICATOR:      M209GROUP
KEY LIST INDICATOR: RV
-------------------------------
NR LUGS  1  2  3  4  5  6
-------------------------------
01 1-0   -  A  -  -  A  A
02 1-0   B  -  B  -  -  B
03 1-0   C  -  C  C  C  C
04 1-0   -  -  -  D  -  -
05 1-0   -  -  -  -  E  E
06 1-0   F  F  -  F  -  F
07 1-0   -  G  -  G  -  G
08 2-0   H  H  -  -  H  -
09 2-0   I  -  -  -  -  -
10 2-0   J  -  J  J  -  -
11 0-3   -  -  -  -  K  K
12 0-4   L  L  L  -  -  L
13 0-4   -  M  M  -  M  M
14 0-4   N  N  N  N  N  N
15 0-5   -  O  O  O  O  -
16 0-5   P  P  P  -  -  -
17 0-5   -  Q  -  -  Q  -
18 0-5   -  -  -  R  R   
19 0-5   -  -  S  S  S   
20 1-5   -  -  -  T      
21 1-5   U  -  U  -      
22 1-5   V  V  -         
23 1-5   -  X  -         
24 1-6   -  Y            
25 2-3   -  Z            
26 2-4   -               
27 4-5                   
-------------------------------
26 LETTER CHECK

RTTKZ XVTPF OKXLE NQFZN RLAJX Q
-------------------------------
