EFFECTIVE PERIOD:
15-APR-2032 00:00 THROUGH 23:59 GMT

NET INDICATOR:      M209GROUP
KEY LIST INDICATOR: LI
-------------------------------
NR LUGS  1  2  3  4  5  6
-------------------------------
01 1-0   A  -  -  A  A  -
02 1-0   -  -  B  -  B  B
03 1-0   -  -  C  C  C  C
04 1-0   -  D  -  -  -  D
05 1-0   E  -  -  -  -  E
06 2-0   F  -  F  F  F  F
07 2-0   -  G  G  G  -  -
08 2-0   -  -  H  -  H  H
09 2-0   I  -  -  -  I  -
10 2-0   J  J  J  -  J  -
11 2-0   K  -  -  -  K  K
12 2-0   L  L  -  L  -  L
13 0-3   -  -  -  M  M  -
14 0-3   N  N  -  -  N  N
15 0-3   -  O  -  -  -  -
16 0-4   -  -  P  P  -  -
17 0-5   Q  -  Q  Q  Q  Q
18 0-6   -  -  -  -  -   
19 0-6   S  S  S  S  -   
20 0-6   -  T  -  -      
21 0-6   -  -  -  U      
22 0-6   V  -  V         
23 0-6   W  X  X         
24 1-3   -  -            
25 1-6   -  Z            
26 2-6   Z               
27 3-5                   
-------------------------------
26 LETTER CHECK

PPFSI NOGVO WSMBP MLUJK XJOHR U
-------------------------------
