EFFECTIVE PERIOD:
09-FEB-2038 00:00 THROUGH 23:59 GMT

NET INDICATOR:      M209GROUP
KEY LIST INDICATOR: PC
-------------------------------
NR LUGS  1  2  3  4  5  6
-------------------------------
01 1-0   A  -  -  A  A  -
02 2-0   -  -  B  -  B  B
03 2-0   -  C  C  -  C  C
04 2-0   -  -  -  -  -  -
05 2-0   E  -  -  -  E  -
06 0-3   F  F  -  -  F  F
07 0-3   G  G  -  -  -  -
08 0-3   -  H  H  H  -  H
09 0-3   -  -  -  -  -  I
10 0-3   -  J  -  J  -  J
11 0-3   -  K  -  K  K  -
12 0-3   -  L  L  -  -  -
13 0-3   -  -  M  M  -  M
14 0-3   N  -  N  N  N  N
15 0-3   O  -  -  -  -  -
16 0-4   -  P  P  -  P  P
17 0-4   Q  -  Q  -  -  -
18 0-4   R  R  -  R  -   
19 0-5   S  S  S  S  S   
20 0-5   T  -  -  -      
21 0-5   U  U  U  U      
22 0-5   V  -  V         
23 0-5   -  -  X         
24 1-4   X  Y            
25 1-6   Y  -            
26 2-4   -               
27 2-5                   
-------------------------------
26 LETTER CHECK

OLSSN QLPWA FMQKA CLSOF GYUPC M
-------------------------------
