EFFECTIVE PERIOD:
28-JAN-2032 00:00 THROUGH 23:59 GMT

NET INDICATOR:      M209GROUP
KEY LIST INDICATOR: II
-------------------------------
NR LUGS  1  2  3  4  5  6
-------------------------------
01 1-0   A  -  -  -  A  A
02 1-0   -  B  B  -  -  -
03 1-0   C  -  -  -  C  -
04 1-0   -  D  -  D  -  -
05 1-0   -  -  E  -  -  -
06 1-0   F  F  F  -  F  F
07 1-0   G  -  -  -  G  G
08 1-0   H  -  -  H  H  H
09 1-0   I  I  -  I  I  -
10 1-0   -  J  -  J  -  -
11 2-0   -  -  -  -  -  -
12 2-0   L  -  -  L  L  L
13 2-0   M  -  M  M  M  -
14 2-0   -  -  N  N  -  N
15 2-0   -  O  O  O  -  O
16 2-0   P  -  -  -  P  -
17 2-0   -  -  Q  Q  Q  -
18 2-0   -  -  -  -  -   
19 0-3   S  S  S  -  -   
20 0-4   -  T  -  T      
21 0-6   -  U  U  -      
22 0-6   -  V  V         
23 0-6   W  X  -         
24 0-6   -  -            
25 0-6   Y  Z            
26 3-5   -               
27 3-6                   
-------------------------------
26 LETTER CHECK

VIARP KHAKJ IMOQP CTKQS PGNNH I
-------------------------------
