EFFECTIVE PERIOD:
27-MAR-2030 00:00 THROUGH 23:59 GMT

NET INDICATOR:      M209GROUP
KEY LIST INDICATOR: IM
-------------------------------
NR LUGS  1  2  3  4  5  6
-------------------------------
01 1-0   A  A  A  -  A  A
02 1-0   -  -  B  -  B  B
03 1-0   C  C  C  C  C  -
04 1-0   -  D  D  -  -  -
05 1-0   -  E  -  -  -  E
06 1-0   -  -  -  F  F  -
07 1-0   G  G  -  G  G  -
08 1-0   -  H  H  H  -  H
09 2-0   I  I  I  -  -  -
10 0-3   -  -  -  J  J  J
11 0-3   -  -  K  -  K  -
12 0-3   -  -  L  -  -  L
13 0-3   M  -  M  -  -  -
14 0-3   -  -  N  N  -  -
15 0-3   -  O  O  O  O  O
16 0-3   -  -  -  P  -  -
17 0-3   Q  Q  -  Q  -  Q
18 0-3   R  R  -  -  -   
19 0-3   -  -  -  S  -   
20 0-4   -  -  T  T      
21 0-4   U  -  -  U      
22 0-5   V  V  V         
23 0-6   W  X  -         
24 1-3   -  Y            
25 1-4   Y  -            
26 2-4   -               
27 2-6                   
-------------------------------
26 LETTER CHECK

NYOGF JYPSN LZKXH FFXSM KMPYQ G
-------------------------------
