EFFECTIVE PERIOD:
25-NOV-2016 00:00 THROUGH 23:59 GMT

NET INDICATOR:      M209GROUP
KEY LIST INDICATOR: DE
-------------------------------
NR LUGS  1  2  3  4  5  6
-------------------------------
01 1-0   A  -  A  A  -  A
02 2-0   B  -  B  B  -  -
03 2-0   C  -  C  -  C  -
04 2-0   D  D  -  -  -  D
05 2-0   -  -  -  E  E  -
06 0-3   F  -  F  -  F  -
07 0-3   -  G  -  G  -  G
08 0-3   H  -  -  H  H  -
09 0-3   I  I  I  I  I  I
10 0-3   J  -  -  -  J  -
11 0-4   -  K  K  -  -  K
12 0-4   -  L  -  L  -  -
13 0-4   -  -  -  M  M  -
14 0-4   N  N  -  -  N  N
15 0-4   -  -  -  -  O  O
16 0-4   P  P  P  -  -  P
17 0-4   Q  -  Q  Q  -  Q
18 1-2   -  -  -  R  R   
19 1-4   S  S  S  -  S   
20 1-5   -  -  -  -      
21 2-3   U  U  U  -      
22 3-4   -  V  -         
23 3-4   W  X  X         
24 3-4   X  -            
25 3-4   -  -            
26 4-5   -               
27 5-6                   
-------------------------------
26 LETTER CHECK

QKMPT WITIS UNPQI UQUNI WUIAJ U
-------------------------------
