EFFECTIVE PERIOD:
24-SEP-2019 00:00 THROUGH 23:59 GMT

NET INDICATOR:      M209GROUP
KEY LIST INDICATOR: QX
-------------------------------
NR LUGS  1  2  3  4  5  6
-------------------------------
01 1-0   -  A  -  A  A  -
02 2-0   B  B  -  B  B  B
03 0-4   -  -  C  C  C  -
04 0-4   -  D  -  -  -  -
05 0-4   E  E  E  -  E  E
06 0-4   F  -  F  -  F  -
07 0-4   G  G  -  -  G  -
08 0-5   H  H  -  H  -  H
09 0-5   -  -  -  -  -  I
10 0-5   -  J  -  J  -  J
11 0-5   -  -  K  -  K  -
12 0-5   L  -  L  -  -  L
13 0-6   M  -  -  M  -  -
14 0-6   -  N  N  -  -  N
15 0-6   -  O  -  O  O  O
16 0-6   -  -  -  P  -  -
17 0-6   -  -  Q  Q  -  Q
18 0-6   R  -  R  R  R   
19 0-6   -  S  -  S  -   
20 1-2   T  -  T  -      
21 2-4   -  -  U  -      
22 3-6   V  -  V         
23 4-5   W  -  X         
24 5-6   X  Y            
25 5-6   -  -            
26 5-6   -               
27 5-6                   
-------------------------------
26 LETTER CHECK

JLIXV GZCTS PUOJU PUDAZ OSLUI Z
-------------------------------
