SECRET    SECRET    SECRET    SECRET    SECRET

NET INDICATOR M209GROUP

KEY LIST FOR MONTH OF JUL 2027

    01 JUL 2027  00:00-23:59 GMT:  USE KEY WA
    02 JUL 2027  00:00-23:59 GMT:  USE KEY WB
    03 JUL 2027  00:00-23:59 GMT:  USE KEY WC
    04 JUL 2027  00:00-23:59 GMT:  USE KEY WD
    05 JUL 2027  00:00-23:59 GMT:  USE KEY WE
    06 JUL 2027  00:00-23:59 GMT:  USE KEY WF
    07 JUL 2027  00:00-23:59 GMT:  USE KEY WG
    08 JUL 2027  00:00-23:59 GMT:  USE KEY WH
    09 JUL 2027  00:00-23:59 GMT:  USE KEY WI
    10 JUL 2027  00:00-23:59 GMT:  USE KEY WJ
    11 JUL 2027  00:00-23:59 GMT:  USE KEY WK
    12 JUL 2027  00:00-23:59 GMT:  USE KEY WL
    13 JUL 2027  00:00-23:59 GMT:  USE KEY WM
    14 JUL 2027  00:00-23:59 GMT:  USE KEY WN
    15 JUL 2027  00:00-23:59 GMT:  USE KEY WO
    16 JUL 2027  00:00-23:59 GMT:  USE KEY WP
    17 JUL 2027  00:00-23:59 GMT:  USE KEY WQ
    18 JUL 2027  00:00-23:59 GMT:  USE KEY WR
    19 JUL 2027  00:00-23:59 GMT:  USE KEY WS
    20 JUL 2027  00:00-23:59 GMT:  USE KEY WT
    21 JUL 2027  00:00-23:59 GMT:  USE KEY WU
    22 JUL 2027  00:00-23:59 GMT:  USE KEY WV
    23 JUL 2027  00:00-23:59 GMT:  USE KEY WW
    24 JUL 2027  00:00-23:59 GMT:  USE KEY WX
    25 JUL 2027  00:00-23:59 GMT:  USE KEY WY
    26 JUL 2027  00:00-23:59 GMT:  USE KEY WZ
    27 JUL 2027  00:00-23:59 GMT:  USE KEY XA
    28 JUL 2027  00:00-23:59 GMT:  USE KEY XB
    29 JUL 2027  00:00-23:59 GMT:  USE KEY XC
    30 JUL 2027  00:00-23:59 GMT:  USE KEY XD
    31 JUL 2027  00:00-23:59 GMT:  USE KEY XE

SECRET    SECRET    SECRET    SECRET    SECRET



SECRET    SECRET    SECRET    SECRET    SECRET



EFFECTIVE PERIOD:
01-JUL-2027 00:00 THROUGH 23:59 GMT

NET INDICATOR:      M209GROUP
KEY LIST INDICATOR: WA
-------------------------------
NR LUGS  1  2  3  4  5  6
-------------------------------
01 2-0   -  -  -  A  A  A
02 2-0   B  -  -  B  -  -
03 2-0   C  C  C  C  -  -
04 2-0   -  -  -  -  D  -
05 2-0   -  -  E  -  E  -
06 2-0   F  -  F  F  -  F
07 0-3   -  -  G  -  -  -
08 0-3   H  -  -  -  -  -
09 0-4   I  -  I  -  I  I
10 0-5   J  J  -  -  -  J
11 0-5   K  K  -  K  -  K
12 0-5   -  -  L  -  L  -
13 0-6   -  M  -  -  M  M
14 0-6   N  N  -  -  -  N
15 0-6   O  -  O  O  O  O
16 0-6   -  P  P  -  -  -
17 0-6   -  Q  -  Q  -  -
18 0-6   R  R  R  R  R   
19 0-6   S  -  S  S  -   
20 1-6   -  T  T  T      
21 2-5   -  U  U  -      
22 2-6   V  V  -         
23 2-6   -  -  X         
24 2-6   X  Y            
25 2-6   Y  -            
26 3-4   Z               
27 3-5                   
-------------------------------
26 LETTER CHECK

QRXWQ PTXFQ CGTLE PTLES WWEMW J
-------------------------------



SECRET    SECRET    SECRET    SECRET    SECRET

SECRET    SECRET    SECRET    SECRET    SECRET



EFFECTIVE PERIOD:
02-JUL-2027 00:00 THROUGH 23:59 GMT

NET INDICATOR:      M209GROUP
KEY LIST INDICATOR: WB
-------------------------------
NR LUGS  1  2  3  4  5  6
-------------------------------
01 2-0   A  A  -  A  A  -
02 2-0   -  -  -  -  -  -
03 2-0   -  -  -  C  -  C
04 2-0   D  D  D  D  -  D
05 0-3   -  E  E  E  E  E
06 0-3   -  -  -  -  F  -
07 0-3   G  -  -  -  G  -
08 0-3   -  H  -  H  -  -
09 0-3   I  -  -  I  I  I
10 0-3   -  -  J  -  J  -
11 0-4   K  K  -  K  -  -
12 0-4   -  L  L  -  -  L
13 0-4   -  -  -  -  M  M
14 0-4   N  N  -  N  N  -
15 0-4   -  O  O  O  O  -
16 1-6   P  -  P  -  P  P
17 2-3   -  -  Q  Q  Q  Q
18 2-3   -  R  -  -  -   
19 2-3   S  S  S  S  -   
20 2-3   -  T  T  -      
21 2-4   -  U  U  U      
22 2-5   -  -  V         
23 2-5   -  X  X         
24 2-6   X  Y            
25 3-4   Y  Z            
26 4-5   Z               
27 5-6                   
-------------------------------
26 LETTER CHECK

MWWVT VAKAA NUKUV NKLNU DVUMV Y
-------------------------------



SECRET    SECRET    SECRET    SECRET    SECRET

SECRET    SECRET    SECRET    SECRET    SECRET



EFFECTIVE PERIOD:
03-JUL-2027 00:00 THROUGH 23:59 GMT

NET INDICATOR:      M209GROUP
KEY LIST INDICATOR: WC
-------------------------------
NR LUGS  1  2  3  4  5  6
-------------------------------
01 1-0   A  A  -  A  -  A
02 1-0   B  -  B  -  B  -
03 1-0   -  -  C  -  C  C
04 1-0   D  D  -  -  D  D
05 1-0   E  -  E  -  E  E
06 1-0   F  F  -  F  -  -
07 1-0   G  G  -  G  G  -
08 1-0   H  -  H  -  -  H
09 1-0   -  -  -  -  I  I
10 1-0   -  -  -  J  J  J
11 2-0   -  K  -  K  -  -
12 2-0   -  L  L  L  -  -
13 0-3   -  M  -  -  -  M
14 0-4   N  N  N  -  -  N
15 0-4   -  -  -  O  O  -
16 0-4   P  -  P  P  -  -
17 0-5   -  Q  Q  -  Q  -
18 0-6   -  R  -  R  R   
19 0-6   S  S  S  -  S   
20 0-6   -  T  T  T      
21 0-6   U  -  -  U      
22 1-4   -  V  -         
23 1-4   -  X  X         
24 1-4   X  -            
25 2-3   Y  Z            
26 2-6   Z               
27 4-6                   
-------------------------------
26 LETTER CHECK

OZPAD WCPUY WXPZA VWSQL LEELZ C
-------------------------------



SECRET    SECRET    SECRET    SECRET    SECRET

SECRET    SECRET    SECRET    SECRET    SECRET



EFFECTIVE PERIOD:
04-JUL-2027 00:00 THROUGH 23:59 GMT

NET INDICATOR:      M209GROUP
KEY LIST INDICATOR: WD
-------------------------------
NR LUGS  1  2  3  4  5  6
-------------------------------
01 1-0   -  A  -  A  A  -
02 1-0   -  B  B  -  -  B
03 1-0   -  -  C  -  -  -
04 1-0   D  D  -  D  D  D
05 2-0   E  E  -  E  -  -
06 2-0   F  F  F  F  -  F
07 0-3   G  G  -  G  G  -
08 0-3   -  -  H  H  H  H
09 0-3   I  I  -  I  -  I
10 0-3   -  J  -  -  -  -
11 0-3   K  -  -  -  K  -
12 0-4   -  -  -  L  -  -
13 0-4   -  M  M  -  -  -
14 0-4   N  N  -  N  N  N
15 0-4   O  O  -  -  O  -
16 0-4   P  -  -  -  P  P
17 0-4   Q  Q  -  Q  -  -
18 1-3   R  -  -  -  -   
19 1-3   S  S  S  S  S   
20 1-3   -  -  T  -      
21 1-3   U  -  U  U      
22 1-4   V  V  V         
23 2-3   W  -  X         
24 2-3   -  -            
25 2-4   -  Z            
26 2-5   -               
27 3-6                   
-------------------------------
26 LETTER CHECK

OPOKM QXUUT GPWHV AUAAO NJUFO V
-------------------------------



SECRET    SECRET    SECRET    SECRET    SECRET

SECRET    SECRET    SECRET    SECRET    SECRET



EFFECTIVE PERIOD:
05-JUL-2027 00:00 THROUGH 23:59 GMT

NET INDICATOR:      M209GROUP
KEY LIST INDICATOR: WE
-------------------------------
NR LUGS  1  2  3  4  5  6
-------------------------------
01 1-0   A  A  -  -  -  -
02 1-0   -  -  -  B  -  -
03 1-0   C  C  -  C  C  -
04 1-0   D  D  D  D  -  -
05 1-0   E  -  E  -  E  E
06 0-3   F  -  -  -  -  F
07 0-3   -  G  -  -  -  -
08 0-3   H  -  -  H  H  -
09 0-3   -  -  -  -  I  I
10 0-3   -  J  J  J  -  -
11 0-3   K  -  K  K  -  K
12 0-5   -  -  L  L  -  -
13 0-5   -  -  -  -  M  M
14 0-5   N  -  -  -  N  N
15 0-5   -  -  -  -  O  -
16 0-5   -  P  -  -  P  P
17 0-5   -  -  Q  Q  Q  -
18 1-3   -  -  R  R  -   
19 1-5   S  S  S  -  S   
20 1-5   -  T  -  T      
21 1-5   U  -  U  -      
22 1-5   -  -  V         
23 2-4   -  X  -         
24 2-5   X  -            
25 3-4   -  Z            
26 4-5   -               
27 5-6                   
-------------------------------
26 LETTER CHECK

ANMZV AZVSZ OOOSS SUCMK VZMMS C
-------------------------------



SECRET    SECRET    SECRET    SECRET    SECRET

SECRET    SECRET    SECRET    SECRET    SECRET



EFFECTIVE PERIOD:
06-JUL-2027 00:00 THROUGH 23:59 GMT

NET INDICATOR:      M209GROUP
KEY LIST INDICATOR: WF
-------------------------------
NR LUGS  1  2  3  4  5  6
-------------------------------
01 2-0   -  A  -  A  A  A
02 2-0   -  B  -  B  B  -
03 2-0   -  C  -  C  C  C
04 2-0   D  -  D  -  -  -
05 2-0   -  -  E  E  -  -
06 2-0   F  F  F  -  -  -
07 0-3   G  G  G  G  -  G
08 0-3   -  -  H  H  H  -
09 0-3   I  I  I  I  -  I
10 0-3   J  -  -  -  J  J
11 0-4   -  K  -  K  -  K
12 0-5   L  -  L  L  -  L
13 0-5   -  -  -  -  M  -
14 0-5   N  -  N  -  N  N
15 0-5   O  -  O  O  O  -
16 0-5   -  -  -  P  P  -
17 0-5   -  -  -  -  Q  -
18 0-6   R  R  R  R  R   
19 0-6   S  -  -  -  -   
20 1-2   -  -  -  -      
21 2-5   U  U  -  -      
22 2-5   -  -  V         
23 2-5   W  -  X         
24 2-5   -  Y            
25 3-5   -  -            
26 3-6   Z               
27 4-6                   
-------------------------------
26 LETTER CHECK

ISNWP NREPA NMKUG TUAIM QWLRU L
-------------------------------



SECRET    SECRET    SECRET    SECRET    SECRET

SECRET    SECRET    SECRET    SECRET    SECRET



EFFECTIVE PERIOD:
07-JUL-2027 00:00 THROUGH 23:59 GMT

NET INDICATOR:      M209GROUP
KEY LIST INDICATOR: WG
-------------------------------
NR LUGS  1  2  3  4  5  6
-------------------------------
01 1-0   A  -  -  A  A  A
02 1-0   B  B  -  B  B  B
03 1-0   -  -  -  -  -  -
04 1-0   D  -  -  D  -  -
05 1-0   -  -  -  E  -  -
06 2-0   F  -  -  F  F  F
07 0-5   -  G  G  -  G  -
08 0-5   -  H  H  H  H  -
09 0-5   I  I  -  -  -  I
10 0-5   -  J  J  -  J  J
11 0-6   K  K  K  K  -  K
12 0-6   -  -  -  -  L  -
13 0-6   -  M  M  M  -  -
14 0-6   -  N  N  N  N  N
15 0-6   -  -  -  -  O  O
16 1-5   -  P  P  P  -  -
17 1-5   -  -  Q  -  -  -
18 1-5   R  R  R  R  R   
19 1-5   S  -  S  -  S   
20 1-6   T  T  T  -      
21 2-4   U  -  -  -      
22 2-5   -  V  V         
23 2-5   -  X  X         
24 2-6   X  Y            
25 3-4   Y  Z            
26 4-5   Z               
27 4-5                   
-------------------------------
26 LETTER CHECK

UHSAQ RMUAV RJWNT STVEV LANFN T
-------------------------------



SECRET    SECRET    SECRET    SECRET    SECRET

SECRET    SECRET    SECRET    SECRET    SECRET



EFFECTIVE PERIOD:
08-JUL-2027 00:00 THROUGH 23:59 GMT

NET INDICATOR:      M209GROUP
KEY LIST INDICATOR: WH
-------------------------------
NR LUGS  1  2  3  4  5  6
-------------------------------
01 1-0   A  -  A  A  -  -
02 1-0   B  B  B  -  B  -
03 1-0   C  -  C  C  C  -
04 1-0   -  -  D  D  -  D
05 1-0   E  -  -  -  -  E
06 1-0   -  F  -  -  F  -
07 2-0   -  -  -  G  -  G
08 2-0   -  -  -  H  H  H
09 2-0   -  I  I  I  I  I
10 2-0   -  -  -  -  J  -
11 2-0   K  -  -  -  -  K
12 0-4   L  -  -  -  L  -
13 0-4   M  M  M  M  -  -
14 0-4   -  N  N  N  N  N
15 0-5   -  O  O  -  O  -
16 0-5   P  P  -  -  -  P
17 0-5   -  Q  -  -  -  Q
18 1-5   R  -  -  R  -   
19 1-5   -  -  S  -  S   
20 1-5   T  -  -  T      
21 1-5   U  -  U  -      
22 1-6   -  V  -         
23 1-6   W  -  X         
24 2-4   -  Y            
25 2-5   -  Z            
26 3-6   -               
27 4-6                   
-------------------------------
26 LETTER CHECK

ALVLL RDAZS RRXRD VRPAN DUVUH G
-------------------------------



SECRET    SECRET    SECRET    SECRET    SECRET

SECRET    SECRET    SECRET    SECRET    SECRET



EFFECTIVE PERIOD:
09-JUL-2027 00:00 THROUGH 23:59 GMT

NET INDICATOR:      M209GROUP
KEY LIST INDICATOR: WI
-------------------------------
NR LUGS  1  2  3  4  5  6
-------------------------------
01 1-0   -  A  -  A  A  -
02 1-0   -  -  -  B  B  B
03 2-0   -  -  C  -  -  C
04 2-0   D  D  -  D  -  -
05 2-0   E  E  E  E  E  -
06 2-0   F  -  -  -  -  F
07 2-0   -  G  G  -  G  G
08 2-0   H  H  H  -  H  -
09 0-3   I  I  -  I  I  -
10 0-3   J  J  -  J  -  J
11 0-3   K  -  -  -  -  -
12 0-3   L  L  L  -  -  L
13 0-3   -  M  M  -  -  -
14 0-3   N  -  -  N  N  -
15 0-3   -  -  -  -  -  O
16 0-3   -  -  P  P  P  P
17 0-4   -  -  -  Q  Q  -
18 0-4   -  R  R  -  R   
19 0-4   -  -  S  -  S   
20 0-4   T  -  -  T      
21 0-5   U  U  -  U      
22 1-4   V  V  V         
23 1-5   W  -  X         
24 2-3   -  -            
25 2-3   -  -            
26 2-4   Z               
27 5-6                   
-------------------------------
26 LETTER CHECK

ZGMNU POSSS IISGW OPVRM MPZLK S
-------------------------------



SECRET    SECRET    SECRET    SECRET    SECRET

SECRET    SECRET    SECRET    SECRET    SECRET



EFFECTIVE PERIOD:
10-JUL-2027 00:00 THROUGH 23:59 GMT

NET INDICATOR:      M209GROUP
KEY LIST INDICATOR: WJ
-------------------------------
NR LUGS  1  2  3  4  5  6
-------------------------------
01 2-0   -  A  -  -  -  A
02 2-0   -  B  B  B  B  B
03 0-3   C  -  C  -  C  -
04 0-3   D  D  -  D  D  -
05 0-3   E  E  E  E  E  E
06 0-3   F  -  -  F  -  F
07 0-3   G  G  G  G  -  G
08 0-4   -  H  -  -  -  H
09 0-4   I  -  I  -  -  -
10 0-4   J  J  -  -  J  -
11 0-4   -  K  -  -  K  -
12 0-4   L  L  L  L  -  L
13 0-4   -  -  -  -  -  M
14 0-4   -  N  N  N  N  N
15 0-4   O  O  -  -  O  O
16 1-2   -  -  -  -  -  -
17 2-3   Q  Q  Q  Q  Q  -
18 2-3   -  R  R  R  -   
19 2-3   S  S  S  -  S   
20 2-3   -  -  -  T      
21 2-5   -  U  U  U      
22 2-6   V  -  V         
23 2-6   W  -  -         
24 2-6   X  -            
25 3-4   -  -            
26 4-6   Z               
27 5-6                   
-------------------------------
26 LETTER CHECK

QOMSA UKYXB MSAOA UKLSF VSVJM V
-------------------------------



SECRET    SECRET    SECRET    SECRET    SECRET

SECRET    SECRET    SECRET    SECRET    SECRET



EFFECTIVE PERIOD:
11-JUL-2027 00:00 THROUGH 23:59 GMT

NET INDICATOR:      M209GROUP
KEY LIST INDICATOR: WK
-------------------------------
NR LUGS  1  2  3  4  5  6
-------------------------------
01 1-0   -  -  A  A  A  -
02 1-0   B  -  -  B  B  -
03 1-0   -  -  C  C  -  C
04 1-0   -  -  -  D  D  D
05 1-0   -  E  -  -  -  E
06 1-0   F  F  F  -  F  -
07 1-0   G  -  -  G  G  -
08 1-0   -  -  H  H  -  H
09 1-0   -  -  I  -  I  -
10 1-0   J  -  J  J  J  -
11 1-0   K  K  -  K  -  K
12 1-0   -  L  L  -  L  -
13 1-0   -  M  -  -  M  -
14 2-0   N  -  -  N  -  -
15 0-3   -  O  -  -  -  O
16 0-3   -  -  -  P  P  -
17 0-3   -  Q  -  -  -  Q
18 0-3   -  -  R  R  R   
19 0-3   S  S  S  -  -   
20 0-4   T  -  -  -      
21 0-4   U  U  U  -      
22 0-6   -  V  -         
23 0-6   W  X  X         
24 2-5   -  -            
25 2-6   -  Z            
26 3-4   Z               
27 4-6                   
-------------------------------
26 LETTER CHECK

FECQY VFVCM AHVAE LTXIJ NYGFQ C
-------------------------------



SECRET    SECRET    SECRET    SECRET    SECRET

SECRET    SECRET    SECRET    SECRET    SECRET



EFFECTIVE PERIOD:
12-JUL-2027 00:00 THROUGH 23:59 GMT

NET INDICATOR:      M209GROUP
KEY LIST INDICATOR: WL
-------------------------------
NR LUGS  1  2  3  4  5  6
-------------------------------
01 1-0   A  A  A  A  A  A
02 1-0   B  B  B  B  -  B
03 2-0   -  C  -  -  -  -
04 2-0   D  D  -  -  -  -
05 2-0   E  -  -  E  E  -
06 0-3   F  F  F  -  -  -
07 0-3   -  G  G  -  G  G
08 0-3   H  H  -  -  -  H
09 0-3   -  I  I  I  -  -
10 0-3   J  J  -  J  -  -
11 0-4   K  -  K  K  K  K
12 0-4   L  L  -  -  L  L
13 0-4   -  M  M  M  M  -
14 0-4   -  -  N  -  N  -
15 0-4   -  -  -  O  -  O
16 0-4   P  P  P  P  -  -
17 0-4   -  -  Q  Q  Q  -
18 0-4   -  -  R  R  -   
19 0-6   S  S  -  -  S   
20 1-2   -  -  T  -      
21 1-6   -  -  -  U      
22 2-3   -  V  V         
23 3-4   W  -  -         
24 3-4   -  -            
25 3-4   Y  Z            
26 3-4   -               
27 5-6                   
-------------------------------
26 LETTER CHECK

XHSVY MJJUP VQITJ NQTAR RRQVO U
-------------------------------



SECRET    SECRET    SECRET    SECRET    SECRET

SECRET    SECRET    SECRET    SECRET    SECRET



EFFECTIVE PERIOD:
13-JUL-2027 00:00 THROUGH 23:59 GMT

NET INDICATOR:      M209GROUP
KEY LIST INDICATOR: WM
-------------------------------
NR LUGS  1  2  3  4  5  6
-------------------------------
01 1-0   A  A  -  A  -  -
02 2-0   B  -  B  B  B  -
03 2-0   C  C  C  -  -  C
04 2-0   D  -  -  D  D  -
05 2-0   -  -  E  -  E  -
06 2-0   F  -  -  -  F  -
07 2-0   -  G  -  -  -  G
08 2-0   -  -  -  -  -  -
09 0-3   -  -  I  I  -  I
10 0-3   -  J  J  J  J  -
11 0-3   K  -  -  K  K  K
12 0-3   -  -  L  -  L  L
13 0-3   M  -  -  M  -  -
14 0-3   -  -  N  N  -  N
15 0-3   -  -  -  O  -  -
16 0-3   P  P  P  P  -  -
17 0-3   -  Q  Q  Q  -  Q
18 0-3   R  -  R  R  R   
19 0-4   S  -  -  -  -   
20 0-5   T  T  T  -      
21 0-6   U  U  U  -      
22 0-6   -  -  -         
23 0-6   -  X  -         
24 0-6   -  -            
25 0-6   Y  Z            
26 4-5   -               
27 4-6                   
-------------------------------
26 LETTER CHECK

TOUSN KYJGJ JTOPK FAPSN MNCSC N
-------------------------------



SECRET    SECRET    SECRET    SECRET    SECRET

SECRET    SECRET    SECRET    SECRET    SECRET



EFFECTIVE PERIOD:
14-JUL-2027 00:00 THROUGH 23:59 GMT

NET INDICATOR:      M209GROUP
KEY LIST INDICATOR: WN
-------------------------------
NR LUGS  1  2  3  4  5  6
-------------------------------
01 1-0   -  -  A  -  -  -
02 1-0   -  B  -  -  B  B
03 1-0   -  C  C  C  C  -
04 2-0   D  D  -  D  -  D
05 2-0   E  E  -  -  -  -
06 2-0   -  -  F  F  -  F
07 2-0   -  G  G  G  -  G
08 2-0   -  H  -  H  H  -
09 2-0   -  -  I  I  I  I
10 2-0   -  J  -  -  J  J
11 2-0   K  -  K  -  K  K
12 2-0   -  -  L  -  L  L
13 2-0   M  -  M  M  M  M
14 2-0   N  N  -  N  -  -
15 0-4   O  O  -  -  -  O
16 0-4   P  -  P  -  P  -
17 0-4   Q  -  Q  -  -  -
18 0-4   R  -  R  -  -   
19 0-4   -  S  S  S  -   
20 0-4   -  -  T  -      
21 0-5   U  -  -  U      
22 0-5   -  V  -         
23 0-5   -  X  -         
24 0-5   X  -            
25 0-6   -  Z            
26 1-6   -               
27 3-6                   
-------------------------------
26 LETTER CHECK

APFAR EGKWD RFTNU AMXRG PLGHO Q
-------------------------------



SECRET    SECRET    SECRET    SECRET    SECRET

SECRET    SECRET    SECRET    SECRET    SECRET



EFFECTIVE PERIOD:
15-JUL-2027 00:00 THROUGH 23:59 GMT

NET INDICATOR:      M209GROUP
KEY LIST INDICATOR: WO
-------------------------------
NR LUGS  1  2  3  4  5  6
-------------------------------
01 1-0   -  A  A  A  -  -
02 1-0   -  B  -  -  B  B
03 1-0   C  C  -  -  C  C
04 2-0   -  -  D  -  -  D
05 2-0   E  E  E  -  -  -
06 2-0   -  F  -  -  F  F
07 2-0   -  G  G  G  -  -
08 2-0   H  H  -  H  H  -
09 2-0   I  -  I  I  I  -
10 0-3   -  J  -  -  -  -
11 0-4   -  -  K  K  -  K
12 0-5   -  -  -  L  -  -
13 0-6   -  -  M  M  M  -
14 0-6   -  N  -  N  N  N
15 0-6   O  -  O  O  O  -
16 0-6   P  P  P  P  -  -
17 0-6   -  Q  Q  -  -  Q
18 0-6   R  -  -  -  -   
19 0-6   -  -  -  S  -   
20 0-6   -  -  -  -      
21 0-6   -  U  U  U      
22 1-2   V  V  V         
23 1-3   W  -  -         
24 2-6   -  -            
25 2-6   Y  Z            
26 2-6   Z               
27 3-4                   
-------------------------------
26 LETTER CHECK

SORQZ ZYPPT ZJSQC QOUPG XCENN S
-------------------------------



SECRET    SECRET    SECRET    SECRET    SECRET

SECRET    SECRET    SECRET    SECRET    SECRET



EFFECTIVE PERIOD:
16-JUL-2027 00:00 THROUGH 23:59 GMT

NET INDICATOR:      M209GROUP
KEY LIST INDICATOR: WP
-------------------------------
NR LUGS  1  2  3  4  5  6
-------------------------------
01 2-0   A  -  -  -  -  A
02 0-3   B  B  -  -  B  -
03 0-3   C  C  -  C  -  C
04 0-3   D  -  -  D  D  -
05 0-3   -  E  -  E  E  -
06 0-3   F  -  F  -  F  -
07 0-4   G  G  G  -  G  -
08 0-5   -  H  H  H  H  H
09 0-5   I  -  -  I  I  I
10 0-5   J  J  J  J  -  -
11 0-5   -  -  K  -  K  K
12 0-5   -  L  L  L  -  L
13 0-5   M  -  M  -  -  M
14 0-6   N  -  -  N  N  N
15 0-6   -  O  -  -  O  O
16 0-6   -  P  P  -  -  -
17 0-6   -  Q  Q  Q  Q  -
18 0-6   R  R  -  -  -   
19 0-6   S  S  S  S  -   
20 0-6   -  T  T  -      
21 0-6   -  -  -  -      
22 1-2   V  -  V         
23 1-3   -  X  -         
24 3-5   X  -            
25 5-6   -  Z            
26 5-6   -               
27 5-6                   
-------------------------------
26 LETTER CHECK

MNZZN RIKIR BMNNT ZRUUS UXSBT J
-------------------------------



SECRET    SECRET    SECRET    SECRET    SECRET

SECRET    SECRET    SECRET    SECRET    SECRET



EFFECTIVE PERIOD:
17-JUL-2027 00:00 THROUGH 23:59 GMT

NET INDICATOR:      M209GROUP
KEY LIST INDICATOR: WQ
-------------------------------
NR LUGS  1  2  3  4  5  6
-------------------------------
01 0-3   A  A  A  A  -  -
02 0-3   -  -  B  -  B  -
03 0-3   -  C  C  C  C  -
04 0-3   D  -  D  D  -  D
05 0-3   E  -  E  -  E  E
06 0-4   F  -  -  F  F  F
07 0-4   -  -  G  G  G  -
08 0-4   -  H  H  H  -  H
09 0-4   I  -  I  I  -  -
10 0-4   -  J  -  -  J  J
11 0-4   -  K  K  K  -  K
12 0-4   L  -  -  -  L  L
13 0-6   -  M  -  -  M  -
14 0-6   -  N  N  N  N  N
15 0-6   -  O  -  -  -  -
16 1-6   P  -  P  P  -  P
17 2-5   -  -  -  Q  -  -
18 3-4   R  -  R  -  R   
19 3-6   -  -  -  -  -   
20 3-6   -  T  -  -      
21 3-6   -  U  -  U      
22 3-6   V  V  V         
23 4-5   -  X  -         
24 5-6   X  -            
25 5-6   -  -            
26 5-6   Z               
27 5-6                   
-------------------------------
26 LETTER CHECK

TVQUR MGATN TAAPA JZASO TFUKJ W
-------------------------------



SECRET    SECRET    SECRET    SECRET    SECRET

SECRET    SECRET    SECRET    SECRET    SECRET



EFFECTIVE PERIOD:
18-JUL-2027 00:00 THROUGH 23:59 GMT

NET INDICATOR:      M209GROUP
KEY LIST INDICATOR: WR
-------------------------------
NR LUGS  1  2  3  4  5  6
-------------------------------
01 1-0   -  A  A  A  -  A
02 1-0   B  B  B  -  -  -
03 1-0   C  C  C  -  -  C
04 1-0   -  -  -  -  -  -
05 1-0   E  E  -  E  -  -
06 1-0   F  F  -  F  F  F
07 1-0   -  -  G  -  G  -
08 1-0   -  H  H  H  -  H
09 1-0   -  I  I  I  -  -
10 1-0   J  -  J  -  J  J
11 1-0   K  K  -  K  -  -
12 1-0   -  L  L  L  L  L
13 0-4   -  M  -  M  M  -
14 0-4   N  -  N  N  N  -
15 0-4   -  -  O  -  O  O
16 0-5   -  P  -  P  -  P
17 0-6   -  Q  Q  -  -  Q
18 0-6   R  R  -  -  R   
19 0-6   S  -  -  -  -   
20 0-6   -  -  -  T      
21 0-6   -  -  -  U      
22 0-6   -  -  V         
23 0-6   W  X  X         
24 0-6   -  -            
25 0-6   Y  Z            
26 2-3   -               
27 3-4                   
-------------------------------
26 LETTER CHECK

FONRI IJYEZ BBWRN MZFKF QAOKZ A
-------------------------------



SECRET    SECRET    SECRET    SECRET    SECRET

SECRET    SECRET    SECRET    SECRET    SECRET



EFFECTIVE PERIOD:
19-JUL-2027 00:00 THROUGH 23:59 GMT

NET INDICATOR:      M209GROUP
KEY LIST INDICATOR: WS
-------------------------------
NR LUGS  1  2  3  4  5  6
-------------------------------
01 1-0   A  -  -  A  -  -
02 1-0   B  -  -  B  B  -
03 1-0   C  -  C  -  C  C
04 2-0   -  -  D  D  -  -
05 2-0   -  E  -  E  E  E
06 2-0   -  -  -  -  -  F
07 2-0   G  G  -  -  G  G
08 2-0   -  -  H  H  H  H
09 2-0   -  I  -  I  I  I
10 0-3   -  J  J  -  J  -
11 0-3   K  K  K  K  -  -
12 0-4   L  L  L  L  -  -
13 0-4   M  M  -  M  M  -
14 0-4   -  -  N  -  N  N
15 0-4   -  O  -  -  O  O
16 0-4   P  P  -  P  -  -
17 0-4   Q  -  -  -  -  Q
18 0-4   -  -  R  -  -   
19 0-4   S  S  -  -  S   
20 0-4   T  T  -  T      
21 0-5   U  U  U  U      
22 1-2   -  -  V         
23 1-3   -  -  X         
24 2-4   -  Y            
25 2-4   Y  -            
26 2-4   Z               
27 3-6                   
-------------------------------
26 LETTER CHECK

ZOASQ NKQPA RFUTB LMAZW XAOQL J
-------------------------------



SECRET    SECRET    SECRET    SECRET    SECRET

SECRET    SECRET    SECRET    SECRET    SECRET



EFFECTIVE PERIOD:
20-JUL-2027 00:00 THROUGH 23:59 GMT

NET INDICATOR:      M209GROUP
KEY LIST INDICATOR: WT
-------------------------------
NR LUGS  1  2  3  4  5  6
-------------------------------
01 1-0   -  -  -  -  -  -
02 2-0   -  B  -  -  B  -
03 0-3   C  -  C  C  C  C
04 0-3   -  -  -  D  D  -
05 0-3   -  -  E  -  E  E
06 0-3   F  -  F  F  F  F
07 0-3   G  G  -  -  -  -
08 0-3   -  H  -  H  H  -
09 0-3   I  I  -  -  -  I
10 0-4   -  J  -  J  J  -
11 0-4   K  -  -  -  -  -
12 0-4   L  -  L  -  -  -
13 0-4   -  -  M  -  -  -
14 0-4   N  N  -  N  N  N
15 0-4   -  O  -  -  -  O
16 0-4   -  P  P  -  P  P
17 0-4   -  Q  Q  -  Q  Q
18 0-4   R  -  -  R  -   
19 0-5   S  S  S  -  -   
20 0-6   -  T  -  T      
21 0-6   -  -  -  U      
22 1-2   -  -  V         
23 1-6   W  X  X         
24 3-4   -  -            
25 3-4   Y  -            
26 3-4   Z               
27 3-6                   
-------------------------------
26 LETTER CHECK

BNPPG ZDOVQ DQZDT OOEND FQYEE M
-------------------------------



SECRET    SECRET    SECRET    SECRET    SECRET

SECRET    SECRET    SECRET    SECRET    SECRET



EFFECTIVE PERIOD:
21-JUL-2027 00:00 THROUGH 23:59 GMT

NET INDICATOR:      M209GROUP
KEY LIST INDICATOR: WU
-------------------------------
NR LUGS  1  2  3  4  5  6
-------------------------------
01 1-0   A  -  A  A  -  -
02 1-0   B  -  B  -  B  B
03 1-0   -  C  -  C  -  -
04 1-0   -  -  D  -  -  D
05 1-0   -  -  -  -  -  E
06 1-0   -  F  F  F  F  -
07 1-0   G  -  G  -  G  -
08 1-0   H  H  H  -  -  H
09 1-0   I  I  I  -  I  I
10 1-0   J  J  -  J  -  -
11 1-0   -  -  -  -  K  K
12 1-0   L  L  L  L  -  -
13 1-0   M  -  M  -  -  M
14 2-0   -  N  -  N  N  -
15 0-3   O  -  O  O  O  O
16 0-4   P  -  -  -  -  P
17 0-4   Q  Q  Q  -  Q  Q
18 0-4   -  -  -  R  R   
19 0-5   S  -  -  S  -   
20 0-5   T  T  -  T      
21 0-5   U  U  -  -      
22 0-5   -  V  V         
23 0-5   W  X  X         
24 0-5   -  Y            
25 0-6   -  -            
26 3-6   -               
27 4-6                   
-------------------------------
26 LETTER CHECK

PSMUP ZMREM DTMIL DIQZQ RJASI V
-------------------------------



SECRET    SECRET    SECRET    SECRET    SECRET

SECRET    SECRET    SECRET    SECRET    SECRET



EFFECTIVE PERIOD:
22-JUL-2027 00:00 THROUGH 23:59 GMT

NET INDICATOR:      M209GROUP
KEY LIST INDICATOR: WV
-------------------------------
NR LUGS  1  2  3  4  5  6
-------------------------------
01 1-0   -  -  A  -  A  -
02 1-0   B  B  B  B  -  -
03 1-0   C  C  C  C  C  C
04 1-0   D  D  -  D  D  -
05 1-0   -  -  E  -  E  E
06 1-0   F  -  -  F  F  -
07 1-0   -  G  -  G  -  -
08 1-0   -  H  H  -  H  -
09 1-0   I  -  -  -  -  I
10 1-0   J  J  J  J  J  -
11 1-0   K  -  K  K  -  -
12 1-0   -  -  -  -  -  L
13 1-0   -  M  M  -  -  M
14 2-0   -  N  N  N  -  N
15 0-3   -  -  O  O  O  O
16 0-4   -  P  -  P  -  P
17 0-4   Q  -  Q  Q  Q  Q
18 0-4   R  -  R  -  -   
19 0-4   S  S  S  -  -   
20 0-4   T  -  -  -      
21 0-4   -  -  -  -      
22 0-5   V  -  -         
23 0-5   W  -  -         
24 0-5   X  Y            
25 0-6   -  -            
26 3-5   Z               
27 3-6                   
-------------------------------
26 LETTER CHECK

CXUZX GOMQC YMZRW LMGIW ROMKM F
-------------------------------



SECRET    SECRET    SECRET    SECRET    SECRET

SECRET    SECRET    SECRET    SECRET    SECRET



EFFECTIVE PERIOD:
23-JUL-2027 00:00 THROUGH 23:59 GMT

NET INDICATOR:      M209GROUP
KEY LIST INDICATOR: WW
-------------------------------
NR LUGS  1  2  3  4  5  6
-------------------------------
01 0-3   -  A  -  -  -  -
02 0-3   B  -  B  B  B  B
03 0-3   -  -  -  -  C  -
04 0-3   -  -  D  D  -  -
05 0-5   E  -  E  E  E  -
06 0-5   F  F  F  -  -  F
07 0-5   -  -  G  -  G  G
08 0-5   H  -  H  H  H  H
09 0-5   -  -  -  -  -  -
10 0-6   -  -  J  -  J  J
11 0-6   K  K  -  K  K  -
12 0-6   -  -  -  -  L  -
13 0-6   M  M  M  -  -  -
14 0-6   N  -  -  -  -  N
15 0-6   O  O  -  O  O  O
16 1-3   -  P  -  P  -  P
17 1-4   Q  -  Q  -  -  Q
18 2-3   R  -  R  R  R   
19 3-4   S  S  -  S  S   
20 3-4   -  -  T  T      
21 3-4   -  U  U  U      
22 3-5   -  V  -         
23 3-5   W  X  X         
24 3-5   -  -            
25 3-5   -  Z            
26 4-6   Z               
27 5-6                   
-------------------------------
26 LETTER CHECK

KCFAU LAUMS QMVVZ TVSLU HKZNF T
-------------------------------



SECRET    SECRET    SECRET    SECRET    SECRET

SECRET    SECRET    SECRET    SECRET    SECRET



EFFECTIVE PERIOD:
24-JUL-2027 00:00 THROUGH 23:59 GMT

NET INDICATOR:      M209GROUP
KEY LIST INDICATOR: WX
-------------------------------
NR LUGS  1  2  3  4  5  6
-------------------------------
01 2-0   -  A  -  A  A  -
02 2-0   -  -  B  -  -  -
03 0-3   C  -  C  C  C  -
04 0-3   D  D  -  D  D  D
05 0-3   -  -  -  E  E  E
06 0-3   -  -  F  -  F  F
07 0-4   -  -  G  G  -  G
08 0-4   H  -  H  H  H  H
09 0-4   -  -  -  -  -  -
10 0-4   -  J  -  -  J  -
11 0-5   K  K  K  -  K  K
12 0-5   -  L  -  -  -  -
13 0-5   M  M  -  M  M  -
14 0-5   -  -  -  N  -  N
15 0-5   -  O  -  -  O  -
16 1-6   P  P  P  P  -  -
17 2-4   -  Q  Q  -  Q  -
18 2-4   -  -  -  R  -   
19 2-4   S  -  S  -  -   
20 2-4   T  T  -  -      
21 2-6   U  U  -  -      
22 2-6   -  -  V         
23 2-6   -  -  -         
24 2-6   X  -            
25 3-5   -  -            
26 3-6   Z               
27 4-5                   
-------------------------------
26 LETTER CHECK

QUPYA AJZMI MAYUL TOQHZ WPUKO P
-------------------------------



SECRET    SECRET    SECRET    SECRET    SECRET

SECRET    SECRET    SECRET    SECRET    SECRET



EFFECTIVE PERIOD:
25-JUL-2027 00:00 THROUGH 23:59 GMT

NET INDICATOR:      M209GROUP
KEY LIST INDICATOR: WY
-------------------------------
NR LUGS  1  2  3  4  5  6
-------------------------------
01 1-0   A  -  A  A  A  -
02 1-0   -  -  -  -  -  B
03 1-0   C  C  C  C  -  C
04 1-0   D  D  D  -  -  -
05 1-0   -  E  E  -  -  E
06 1-0   -  F  -  F  -  -
07 2-0   -  -  G  G  G  G
08 2-0   -  H  H  H  -  -
09 2-0   I  -  I  I  I  -
10 2-0   -  J  -  -  J  J
11 0-3   -  -  -  -  -  -
12 0-3   L  -  -  L  L  L
13 0-3   -  M  -  M  -  M
14 0-3   N  -  -  -  N  N
15 0-4   O  O  O  -  -  O
16 0-5   P  -  P  -  P  P
17 0-6   -  Q  Q  Q  -  -
18 0-6   R  -  -  R  -   
19 0-6   S  -  -  -  S   
20 0-6   T  T  -  -      
21 0-6   -  U  -  U      
22 1-2   V  V  -         
23 1-2   W  -  -         
24 1-2   -  -            
25 2-6   Y  Z            
26 3-4   -               
27 3-6                   
-------------------------------
26 LETTER CHECK

QLZUS PNOJR NRFYV JUHSQ PJPIO Z
-------------------------------



SECRET    SECRET    SECRET    SECRET    SECRET

SECRET    SECRET    SECRET    SECRET    SECRET



EFFECTIVE PERIOD:
26-JUL-2027 00:00 THROUGH 23:59 GMT

NET INDICATOR:      M209GROUP
KEY LIST INDICATOR: WZ
-------------------------------
NR LUGS  1  2  3  4  5  6
-------------------------------
01 2-0   A  -  -  A  -  A
02 2-0   B  B  -  B  -  -
03 2-0   C  C  C  C  C  -
04 2-0   -  -  D  -  -  D
05 2-0   E  E  -  E  E  E
06 2-0   -  -  F  F  -  -
07 2-0   G  G  -  -  G  G
08 0-4   H  H  H  -  H  -
09 0-4   I  I  I  I  -  I
10 0-4   J  -  J  J  J  -
11 0-5   -  K  K  -  -  -
12 0-5   -  L  L  -  L  L
13 0-5   -  M  M  -  -  M
14 0-5   N  N  -  -  N  -
15 0-6   -  -  -  -  O  -
16 0-6   -  -  -  P  -  P
17 0-6   Q  -  Q  -  Q  -
18 1-4   R  R  -  -  R   
19 1-6   S  S  -  -  S   
20 2-4   -  -  -  T      
21 2-5   U  U  -  -      
22 3-6   -  V  -         
23 4-6   W  X  X         
24 5-6   -  -            
25 5-6   Y  -            
26 5-6   -               
27 5-6                   
-------------------------------
26 LETTER CHECK

IKPXI PQAIH TOTWO XZXWX CRWIA I
-------------------------------



SECRET    SECRET    SECRET    SECRET    SECRET

SECRET    SECRET    SECRET    SECRET    SECRET



EFFECTIVE PERIOD:
27-JUL-2027 00:00 THROUGH 23:59 GMT

NET INDICATOR:      M209GROUP
KEY LIST INDICATOR: XA
-------------------------------
NR LUGS  1  2  3  4  5  6
-------------------------------
01 1-0   A  A  A  -  A  A
02 1-0   -  B  -  B  -  -
03 1-0   -  -  C  -  -  -
04 1-0   D  -  -  -  D  D
05 1-0   E  -  E  E  E  E
06 1-0   F  F  F  -  -  -
07 1-0   -  G  -  -  G  G
08 1-0   H  H  -  H  -  -
09 0-3   I  -  I  I  I  -
10 0-4   -  -  J  J  J  -
11 0-4   -  K  K  K  -  K
12 0-4   -  -  L  L  -  L
13 0-4   -  -  -  -  -  -
14 0-4   N  N  N  N  N  N
15 0-4   O  -  O  O  -  O
16 0-5   P  P  -  -  -  -
17 0-5   -  Q  -  -  Q  Q
18 0-5   -  -  R  R  -   
19 0-5   S  -  -  -  -   
20 0-6   -  -  T  -      
21 0-6   -  U  U  U      
22 0-6   -  -  -         
23 0-6   -  -  -         
24 2-3   X  Y            
25 3-5   Y  -            
26 4-6   -               
27 5-6                   
-------------------------------
26 LETTER CHECK

QONNI MIIUI OTHLP KVRWR OMGOU H
-------------------------------



SECRET    SECRET    SECRET    SECRET    SECRET

SECRET    SECRET    SECRET    SECRET    SECRET



EFFECTIVE PERIOD:
28-JUL-2027 00:00 THROUGH 23:59 GMT

NET INDICATOR:      M209GROUP
KEY LIST INDICATOR: XB
-------------------------------
NR LUGS  1  2  3  4  5  6
-------------------------------
01 1-0   -  A  A  A  A  -
02 1-0   -  -  B  B  -  B
03 1-0   C  C  -  -  C  C
04 2-0   D  -  -  D  -  D
05 0-3   E  -  -  E  -  E
06 0-3   F  -  F  -  F  F
07 0-3   -  -  -  G  -  G
08 0-3   H  -  H  -  H  -
09 0-4   -  I  -  I  -  -
10 0-4   -  J  J  -  -  -
11 0-4   K  -  K  -  -  K
12 0-4   -  -  L  -  L  -
13 0-4   M  -  M  M  -  -
14 0-4   N  N  N  -  N  N
15 0-5   -  -  -  -  -  O
16 0-5   -  -  -  P  P  -
17 0-5   -  -  Q  Q  Q  Q
18 0-5   R  R  -  -  R   
19 0-5   -  S  -  -  -   
20 0-5   T  -  T  T      
21 0-6   U  U  U  -      
22 1-2   -  V  V         
23 1-4   -  X  -         
24 3-4   X  -            
25 3-5   Y  -            
26 3-5   Z               
27 3-5                   
-------------------------------
26 LETTER CHECK

VZNRW NQQUM ZKIWE YEPEP KZHTV R
-------------------------------



SECRET    SECRET    SECRET    SECRET    SECRET

SECRET    SECRET    SECRET    SECRET    SECRET



EFFECTIVE PERIOD:
29-JUL-2027 00:00 THROUGH 23:59 GMT

NET INDICATOR:      M209GROUP
KEY LIST INDICATOR: XC
-------------------------------
NR LUGS  1  2  3  4  5  6
-------------------------------
01 1-0   A  A  -  -  -  A
02 1-0   B  B  B  B  B  B
03 1-0   C  C  -  C  C  C
04 1-0   -  -  -  D  D  D
05 1-0   E  -  E  E  -  -
06 1-0   -  -  F  -  -  F
07 1-0   -  G  -  G  G  -
08 1-0   -  H  -  H  -  H
09 2-0   I  I  I  -  I  I
10 2-0   -  -  -  J  -  J
11 2-0   K  K  K  K  -  -
12 2-0   L  -  -  L  L  L
13 2-0   -  M  -  -  M  -
14 0-3   N  -  N  N  -  N
15 0-3   -  -  O  O  O  -
16 0-4   P  -  -  -  -  -
17 0-4   Q  -  Q  -  -  -
18 0-4   R  -  R  -  R   
19 0-6   S  S  -  -  -   
20 1-4   -  T  -  -      
21 1-4   -  U  -  U      
22 1-4   -  V  -         
23 1-4   W  X  X         
24 1-5   X  -            
25 2-3   Y  -            
26 2-4   -               
27 3-6                   
-------------------------------
26 LETTER CHECK

QVQRJ GHVYR KZYWF VKGRW NTQQR C
-------------------------------



SECRET    SECRET    SECRET    SECRET    SECRET

SECRET    SECRET    SECRET    SECRET    SECRET



EFFECTIVE PERIOD:
30-JUL-2027 00:00 THROUGH 23:59 GMT

NET INDICATOR:      M209GROUP
KEY LIST INDICATOR: XD
-------------------------------
NR LUGS  1  2  3  4  5  6
-------------------------------
01 1-0   A  -  -  -  -  A
02 1-0   B  B  -  -  B  B
03 1-0   -  -  C  -  -  -
04 1-0   -  D  -  -  D  D
05 1-0   E  E  E  E  -  -
06 0-3   -  F  F  F  F  F
07 0-3   G  -  G  -  -  G
08 0-3   H  H  H  H  -  -
09 0-3   -  -  -  -  I  I
10 0-4   J  -  -  -  J  -
11 0-4   K  -  K  -  -  -
12 0-5   -  -  -  L  -  -
13 0-5   -  -  -  -  M  -
14 0-5   -  N  N  N  N  -
15 0-5   O  -  O  -  O  O
16 1-3   P  P  P  -  -  P
17 1-3   -  Q  Q  Q  Q  -
18 1-3   -  R  R  -  R   
19 1-3   S  S  -  S  -   
20 1-5   T  T  -  T      
21 2-3   -  -  -  U      
22 2-3   -  V  V         
23 2-3   -  X  X         
24 2-4   -  Y            
25 2-6   Y  -            
26 3-4   Z               
27 4-5                   
-------------------------------
26 LETTER CHECK

RVTYW KJIQY KOTKQ TVWOZ ZPKLT A
-------------------------------



SECRET    SECRET    SECRET    SECRET    SECRET

SECRET    SECRET    SECRET    SECRET    SECRET



EFFECTIVE PERIOD:
31-JUL-2027 00:00 THROUGH 23:59 GMT

NET INDICATOR:      M209GROUP
KEY LIST INDICATOR: XE
-------------------------------
NR LUGS  1  2  3  4  5  6
-------------------------------
01 0-3   A  A  A  A  -  -
02 0-3   B  -  B  -  -  B
03 0-3   -  -  C  -  C  C
04 0-3   -  -  D  -  D  D
05 0-4   E  E  E  E  E  E
06 0-4   F  -  -  -  -  F
07 0-4   G  -  -  -  G  -
08 0-4   -  -  -  -  -  -
09 0-5   I  -  I  I  I  -
10 0-5   J  J  -  J  -  J
11 0-5   -  -  -  K  -  -
12 0-6   -  L  -  L  -  -
13 0-6   M  -  -  M  M  M
14 0-6   N  -  N  -  -  -
15 0-6   O  O  -  -  -  -
16 0-6   -  -  -  P  -  P
17 0-6   -  Q  Q  Q  Q  -
18 1-2   -  -  R  R  R   
19 1-3   S  S  -  -  -   
20 1-5   T  T  -  -      
21 3-4   U  -  -  U      
22 3-4   -  -  V         
23 3-4   -  X  -         
24 3-4   -  Y            
25 3-5   -  -            
26 4-6   Z               
27 5-6                   
-------------------------------
26 LETTER CHECK

PFIQQ WFZWQ WWWOO COLOS QIILQ W
-------------------------------



SECRET    SECRET    SECRET    SECRET    SECRET
