SECRET    SECRET    SECRET    SECRET    SECRET

NET INDICATOR M209GROUP

KEY LIST FOR MONTH OF JUN 2037

    01 JUN 2037  00:00-23:59 GMT:  USE KEY FJ
    02 JUN 2037  00:00-23:59 GMT:  USE KEY FK
    03 JUN 2037  00:00-23:59 GMT:  USE KEY FL
    04 JUN 2037  00:00-23:59 GMT:  USE KEY FM
    05 JUN 2037  00:00-23:59 GMT:  USE KEY FN
    06 JUN 2037  00:00-23:59 GMT:  USE KEY FO
    07 JUN 2037  00:00-23:59 GMT:  USE KEY FP
    08 JUN 2037  00:00-23:59 GMT:  USE KEY FQ
    09 JUN 2037  00:00-23:59 GMT:  USE KEY FR
    10 JUN 2037  00:00-23:59 GMT:  USE KEY FS
    11 JUN 2037  00:00-23:59 GMT:  USE KEY FT
    12 JUN 2037  00:00-23:59 GMT:  USE KEY FU
    13 JUN 2037  00:00-23:59 GMT:  USE KEY FV
    14 JUN 2037  00:00-23:59 GMT:  USE KEY FW
    15 JUN 2037  00:00-23:59 GMT:  USE KEY FX
    16 JUN 2037  00:00-23:59 GMT:  USE KEY FY
    17 JUN 2037  00:00-23:59 GMT:  USE KEY FZ
    18 JUN 2037  00:00-23:59 GMT:  USE KEY GA
    19 JUN 2037  00:00-23:59 GMT:  USE KEY GB
    20 JUN 2037  00:00-23:59 GMT:  USE KEY GC
    21 JUN 2037  00:00-23:59 GMT:  USE KEY GD
    22 JUN 2037  00:00-23:59 GMT:  USE KEY GE
    23 JUN 2037  00:00-23:59 GMT:  USE KEY GF
    24 JUN 2037  00:00-23:59 GMT:  USE KEY GG
    25 JUN 2037  00:00-23:59 GMT:  USE KEY GH
    26 JUN 2037  00:00-23:59 GMT:  USE KEY GI
    27 JUN 2037  00:00-23:59 GMT:  USE KEY GJ
    28 JUN 2037  00:00-23:59 GMT:  USE KEY GK
    29 JUN 2037  00:00-23:59 GMT:  USE KEY GL
    30 JUN 2037  00:00-23:59 GMT:  USE KEY GM

SECRET    SECRET    SECRET    SECRET    SECRET



SECRET    SECRET    SECRET    SECRET    SECRET



EFFECTIVE PERIOD:
01-JUN-2037 00:00 THROUGH 23:59 GMT

NET INDICATOR:      M209GROUP
KEY LIST INDICATOR: FJ
-------------------------------
NR LUGS  1  2  3  4  5  6
-------------------------------
01 2-0   A  A  A  A  A  A
02 2-0   -  B  -  B  -  B
03 2-0   -  -  C  C  C  -
04 2-0   D  D  -  -  -  -
05 2-0   -  E  E  -  E  -
06 0-3   F  -  F  -  F  -
07 0-4   G  -  G  -  -  G
08 0-4   -  -  H  H  H  H
09 0-4   -  I  -  -  -  -
10 0-4   J  J  J  J  J  J
11 0-5   K  -  -  -  -  -
12 0-5   -  -  -  -  -  -
13 0-5   M  M  -  -  -  -
14 0-5   N  N  -  N  N  -
15 0-5   -  O  O  -  O  O
16 0-5   -  P  P  P  P  -
17 0-5   Q  Q  -  Q  -  Q
18 1-4   R  R  R  R  -   
19 2-4   S  -  -  -  -   
20 2-4   -  -  -  T      
21 2-4   -  U  U  -      
22 2-4   -  -  V         
23 2-5   W  -  -         
24 3-4   -  -            
25 3-5   Y  -            
26 3-6   Z               
27 4-6                   
-------------------------------
26 LETTER CHECK

JTVYV KLNMK VQUKP UNMKN KLTUT T
-------------------------------



SECRET    SECRET    SECRET    SECRET    SECRET

SECRET    SECRET    SECRET    SECRET    SECRET



EFFECTIVE PERIOD:
02-JUN-2037 00:00 THROUGH 23:59 GMT

NET INDICATOR:      M209GROUP
KEY LIST INDICATOR: FK
-------------------------------
NR LUGS  1  2  3  4  5  6
-------------------------------
01 1-0   -  -  -  A  A  A
02 1-0   -  -  -  B  B  -
03 1-0   -  C  C  -  -  C
04 1-0   D  -  D  -  D  -
05 1-0   -  E  -  E  E  -
06 1-0   -  -  -  F  F  F
07 1-0   G  G  G  -  -  -
08 1-0   -  -  -  H  H  H
09 2-0   I  I  -  -  -  -
10 0-3   J  J  -  J  -  -
11 0-3   -  K  K  K  -  -
12 0-3   -  L  -  L  -  -
13 0-3   -  -  M  M  M  M
14 0-5   -  -  N  -  -  -
15 0-5   -  O  -  -  O  -
16 0-5   P  P  P  P  P  P
17 0-5   Q  Q  Q  -  -  Q
18 0-6   -  R  R  -  R   
19 0-6   S  S  S  S  S   
20 1-3   T  -  -  -      
21 1-3   U  U  -  U      
22 1-3   -  -  -         
23 1-3   W  -  X         
24 1-4   -  -            
25 2-6   Y  -            
26 3-5   Z               
27 5-6                   
-------------------------------
26 LETTER CHECK

TUNYY VKVGZ MFQQQ HJOAR YCRQE P
-------------------------------



SECRET    SECRET    SECRET    SECRET    SECRET

SECRET    SECRET    SECRET    SECRET    SECRET



EFFECTIVE PERIOD:
03-JUN-2037 00:00 THROUGH 23:59 GMT

NET INDICATOR:      M209GROUP
KEY LIST INDICATOR: FL
-------------------------------
NR LUGS  1  2  3  4  5  6
-------------------------------
01 2-0   A  -  A  A  A  -
02 2-0   B  B  B  -  B  -
03 2-0   C  -  -  C  -  -
04 2-0   -  D  -  -  -  -
05 0-3   -  -  -  E  -  -
06 0-3   F  -  -  F  F  F
07 0-3   -  -  G  G  -  G
08 0-3   H  H  -  H  H  -
09 0-3   -  -  I  -  -  -
10 0-3   -  -  J  -  J  J
11 0-6   K  -  -  K  -  -
12 0-6   L  L  -  -  -  L
13 0-6   M  M  -  -  -  M
14 0-6   N  N  -  N  N  N
15 0-6   O  O  -  -  O  O
16 0-6   -  P  P  -  -  P
17 0-6   -  -  Q  -  Q  -
18 1-3   R  -  -  R  -   
19 1-5   -  -  S  S  S   
20 2-5   T  -  T  -      
21 2-6   U  U  U  -      
22 3-4   -  V  V         
23 3-5   W  X  -         
24 3-6   X  -            
25 3-6   -  -            
26 3-6   -               
27 3-6                   
-------------------------------
26 LETTER CHECK

FRWWN WSTTD MNSQG DVCAU LPUHI T
-------------------------------



SECRET    SECRET    SECRET    SECRET    SECRET

SECRET    SECRET    SECRET    SECRET    SECRET



EFFECTIVE PERIOD:
04-JUN-2037 00:00 THROUGH 23:59 GMT

NET INDICATOR:      M209GROUP
KEY LIST INDICATOR: FM
-------------------------------
NR LUGS  1  2  3  4  5  6
-------------------------------
01 1-0   -  A  A  -  A  -
02 1-0   B  B  -  -  -  B
03 1-0   C  -  C  C  -  -
04 1-0   -  D  D  -  -  D
05 1-0   E  E  -  E  -  E
06 1-0   F  F  -  -  F  -
07 1-0   -  G  G  G  G  G
08 1-0   H  -  H  -  H  H
09 1-0   I  I  I  -  -  -
10 0-3   -  -  J  J  J  J
11 0-3   -  K  K  K  K  -
12 0-4   -  -  L  -  L  -
13 0-5   M  -  -  M  -  -
14 0-5   N  N  -  N  -  N
15 0-5   O  O  -  -  O  -
16 0-5   -  -  P  -  -  P
17 0-5   Q  -  -  -  -  -
18 0-5   -  -  R  R  R   
19 0-6   S  S  -  -  -   
20 0-6   -  -  T  T      
21 0-6   U  -  -  -      
22 1-5   -  -  -         
23 1-5   -  -  X         
24 1-5   -  -            
25 2-3   Y  Z            
26 3-6   -               
27 5-6                   
-------------------------------
26 LETTER CHECK

LMDWD RNANP HGPAO UTNXX HEOLM Z
-------------------------------



SECRET    SECRET    SECRET    SECRET    SECRET

SECRET    SECRET    SECRET    SECRET    SECRET



EFFECTIVE PERIOD:
05-JUN-2037 00:00 THROUGH 23:59 GMT

NET INDICATOR:      M209GROUP
KEY LIST INDICATOR: FN
-------------------------------
NR LUGS  1  2  3  4  5  6
-------------------------------
01 1-0   -  -  -  -  -  A
02 1-0   B  B  B  -  B  -
03 1-0   C  -  C  C  C  -
04 1-0   -  D  -  D  -  D
05 1-0   -  -  E  -  E  E
06 1-0   F  -  F  -  F  F
07 2-0   G  -  G  -  G  -
08 0-3   -  -  -  H  -  -
09 0-3   I  I  I  -  -  -
10 0-3   J  -  -  J  -  -
11 0-3   -  K  -  -  K  -
12 0-3   -  L  L  L  -  L
13 0-3   -  M  M  M  -  -
14 0-4   N  N  N  N  N  N
15 0-4   -  O  O  O  O  O
16 0-4   -  P  -  -  -  P
17 0-4   Q  -  -  -  -  -
18 0-4   -  R  -  R  R   
19 0-4   S  S  S  -  -   
20 0-4   T  T  T  T      
21 0-4   U  -  -  -      
22 1-3   V  -  -         
23 1-5   -  X  X         
24 3-4   X  Y            
25 3-4   -  -            
26 3-4   Z               
27 5-6                   
-------------------------------
26 LETTER CHECK

SAMJJ ARLIM ISAIM JYHTI TUUSS C
-------------------------------



SECRET    SECRET    SECRET    SECRET    SECRET

SECRET    SECRET    SECRET    SECRET    SECRET



EFFECTIVE PERIOD:
06-JUN-2037 00:00 THROUGH 23:59 GMT

NET INDICATOR:      M209GROUP
KEY LIST INDICATOR: FO
-------------------------------
NR LUGS  1  2  3  4  5  6
-------------------------------
01 1-0   -  A  -  -  A  -
02 1-0   B  -  -  -  B  -
03 1-0   C  C  C  -  C  C
04 1-0   -  -  -  D  -  D
05 1-0   E  E  E  E  E  E
06 0-5   -  -  F  F  -  F
07 0-5   G  G  -  G  -  -
08 0-5   H  H  H  H  H  -
09 0-5   -  I  I  -  -  I
10 0-5   -  J  J  -  -  -
11 0-6   K  -  -  -  -  -
12 0-6   L  -  -  L  -  -
13 0-6   M  -  -  -  M  M
14 0-6   N  -  N  -  -  N
15 0-6   -  O  O  -  -  -
16 0-6   -  -  -  P  P  -
17 0-6   Q  -  Q  Q  -  Q
18 1-2   -  R  -  -  R   
19 1-3   S  S  S  -  -   
20 1-4   -  T  T  -      
21 1-6   -  U  -  U      
22 1-6   -  V  -         
23 1-6   W  -  -         
24 1-6   -  -            
25 2-3   Y  -            
26 3-5   -               
27 5-6                   
-------------------------------
26 LETTER CHECK

DTLVJ DUMHZ RNAMD AANNP ULLAN J
-------------------------------



SECRET    SECRET    SECRET    SECRET    SECRET

SECRET    SECRET    SECRET    SECRET    SECRET



EFFECTIVE PERIOD:
07-JUN-2037 00:00 THROUGH 23:59 GMT

NET INDICATOR:      M209GROUP
KEY LIST INDICATOR: FP
-------------------------------
NR LUGS  1  2  3  4  5  6
-------------------------------
01 1-0   -  A  -  -  A  A
02 1-0   B  B  B  B  -  B
03 2-0   C  C  C  -  -  -
04 2-0   D  D  D  -  D  D
05 2-0   E  -  E  -  E  E
06 2-0   -  -  -  -  -  -
07 2-0   G  G  -  G  -  G
08 2-0   H  H  -  H  H  -
09 0-3   I  I  I  I  I  -
10 0-4   J  -  J  J  J  J
11 0-4   K  -  K  -  K  K
12 0-4   -  L  L  -  -  L
13 0-4   M  M  -  M  M  -
14 0-4   -  -  -  N  -  -
15 0-4   -  O  -  O  -  -
16 0-4   -  -  P  -  P  -
17 0-4   -  Q  Q  -  -  Q
18 0-4   R  R  R  -  -   
19 0-4   -  S  -  -  -   
20 0-4   -  -  -  -      
21 0-4   -  -  -  U      
22 0-5   V  -  V         
23 0-6   -  X  -         
24 1-2   -  -            
25 1-3   -  Z            
26 2-4   Z               
27 3-6                   
-------------------------------
26 LETTER CHECK

VPYKL ZFBYZ YMNNM RPZAM GSTZB L
-------------------------------



SECRET    SECRET    SECRET    SECRET    SECRET

SECRET    SECRET    SECRET    SECRET    SECRET



EFFECTIVE PERIOD:
08-JUN-2037 00:00 THROUGH 23:59 GMT

NET INDICATOR:      M209GROUP
KEY LIST INDICATOR: FQ
-------------------------------
NR LUGS  1  2  3  4  5  6
-------------------------------
01 1-0   A  A  A  -  A  -
02 1-0   B  B  -  -  -  -
03 1-0   C  C  C  -  C  C
04 1-0   -  D  D  -  -  D
05 1-0   E  -  -  E  -  -
06 1-0   F  -  F  F  F  -
07 1-0   -  G  -  G  G  -
08 1-0   H  -  H  H  -  -
09 0-3   I  I  I  I  I  -
10 0-3   J  -  -  -  J  -
11 0-3   K  -  K  -  -  K
12 0-3   L  L  -  -  -  L
13 0-5   -  M  M  -  -  -
14 0-5   -  -  N  -  N  N
15 0-5   -  O  -  O  -  -
16 0-5   P  P  -  -  -  P
17 0-5   -  -  Q  Q  Q  Q
18 0-6   -  R  -  -  R   
19 0-6   -  S  -  S  -   
20 1-4   T  -  -  T      
21 1-5   -  U  U  -      
22 1-5   V  -  V         
23 1-5   -  X  -         
24 1-5   -  -            
25 2-6   Y  Z            
26 3-5   Z               
27 3-6                   
-------------------------------
26 LETTER CHECK

VDKIN NWGPQ ANTYL SSSVN VSVJJ L
-------------------------------



SECRET    SECRET    SECRET    SECRET    SECRET

SECRET    SECRET    SECRET    SECRET    SECRET



EFFECTIVE PERIOD:
09-JUN-2037 00:00 THROUGH 23:59 GMT

NET INDICATOR:      M209GROUP
KEY LIST INDICATOR: FR
-------------------------------
NR LUGS  1  2  3  4  5  6
-------------------------------
01 1-0   -  A  A  A  -  A
02 1-0   B  B  -  B  -  -
03 1-0   -  -  C  C  C  C
04 0-3   D  D  D  -  -  -
05 0-3   E  E  -  E  -  -
06 0-3   F  -  F  -  F  -
07 0-3   -  G  -  -  -  G
08 0-4   -  H  -  -  H  H
09 0-4   I  I  -  I  I  -
10 0-4   J  J  J  -  -  -
11 0-4   -  -  -  -  K  -
12 0-4   L  L  -  -  -  -
13 0-4   -  M  -  M  M  M
14 0-4   -  -  N  -  N  N
15 0-5   -  O  O  -  -  -
16 0-5   P  -  -  -  -  P
17 0-5   -  Q  Q  Q  -  -
18 1-3   R  -  -  -  -   
19 1-4   S  -  -  S  S   
20 1-4   -  T  T  -      
21 1-4   U  U  -  U      
22 1-4   V  -  -         
23 2-4   W  X  X         
24 2-4   -  -            
25 2-5   Y  -            
26 2-6   Z               
27 3-5                   
-------------------------------
26 LETTER CHECK

XJPNM LXNOW ZOQXL TMOHQ PRLJG O
-------------------------------



SECRET    SECRET    SECRET    SECRET    SECRET

SECRET    SECRET    SECRET    SECRET    SECRET



EFFECTIVE PERIOD:
10-JUN-2037 00:00 THROUGH 23:59 GMT

NET INDICATOR:      M209GROUP
KEY LIST INDICATOR: FS
-------------------------------
NR LUGS  1  2  3  4  5  6
-------------------------------
01 1-0   A  A  A  -  -  A
02 2-0   B  B  -  B  -  -
03 2-0   C  -  -  -  C  C
04 2-0   D  D  D  D  -  D
05 2-0   E  E  E  E  E  E
06 2-0   F  -  F  -  F  -
07 2-0   -  G  -  G  -  G
08 2-0   H  -  H  H  -  -
09 2-0   -  I  I  -  I  I
10 0-3   -  -  -  J  -  -
11 0-3   -  K  -  K  K  K
12 0-3   L  -  L  L  L  L
13 0-3   M  M  M  M  -  -
14 0-4   -  -  -  N  N  N
15 0-5   -  -  O  -  O  O
16 0-5   P  -  P  -  -  -
17 0-5   Q  -  -  -  -  -
18 0-5   R  R  -  -  -   
19 0-5   S  -  -  S  S   
20 0-5   -  T  -  -      
21 0-6   -  -  U  U      
22 1-4   V  V  -         
23 1-5   -  X  X         
24 2-3   -  Y            
25 2-3   -  -            
26 2-3   -               
27 3-5                   
-------------------------------
26 LETTER CHECK

LMQVA KDXMQ ROVSS UKQSU CZRNI H
-------------------------------



SECRET    SECRET    SECRET    SECRET    SECRET

SECRET    SECRET    SECRET    SECRET    SECRET



EFFECTIVE PERIOD:
11-JUN-2037 00:00 THROUGH 23:59 GMT

NET INDICATOR:      M209GROUP
KEY LIST INDICATOR: FT
-------------------------------
NR LUGS  1  2  3  4  5  6
-------------------------------
01 1-0   A  A  -  -  A  -
02 2-0   -  B  B  B  -  -
03 2-0   C  C  C  -  C  C
04 2-0   -  -  D  D  D  -
05 2-0   -  -  -  E  E  E
06 2-0   -  F  F  -  F  F
07 2-0   G  -  -  G  G  -
08 2-0   H  -  -  H  -  H
09 0-3   I  -  I  I  -  -
10 0-3   -  -  J  -  -  -
11 0-3   -  -  K  K  K  K
12 0-3   -  L  L  L  L  L
13 0-3   -  M  -  -  M  M
14 0-3   -  N  -  N  -  -
15 0-6   O  O  -  -  -  O
16 0-6   P  -  -  -  -  P
17 0-6   -  Q  Q  -  Q  -
18 0-6   -  -  R  R  -   
19 0-6   -  S  S  S  -   
20 0-6   -  T  -  -      
21 0-6   U  -  U  U      
22 0-6   -  V  -         
23 0-6   -  -  -         
24 2-3   X  Y            
25 2-6   Y  -            
26 3-5   Z               
27 4-5                   
-------------------------------
26 LETTER CHECK

ULRHY AAPCS CAZRL IJLTT IRSIK J
-------------------------------



SECRET    SECRET    SECRET    SECRET    SECRET

SECRET    SECRET    SECRET    SECRET    SECRET



EFFECTIVE PERIOD:
12-JUN-2037 00:00 THROUGH 23:59 GMT

NET INDICATOR:      M209GROUP
KEY LIST INDICATOR: FU
-------------------------------
NR LUGS  1  2  3  4  5  6
-------------------------------
01 1-0   -  A  -  -  -  A
02 1-0   -  -  B  B  -  -
03 1-0   C  -  -  -  C  C
04 1-0   D  -  -  -  D  -
05 1-0   -  E  E  E  E  E
06 0-3   F  F  F  F  -  -
07 0-3   -  -  -  G  -  G
08 0-3   -  H  -  -  H  -
09 0-3   -  -  I  -  I  I
10 0-3   J  -  J  -  -  J
11 0-3   K  K  K  K  K  -
12 0-3   -  -  -  -  -  -
13 0-3   M  M  M  -  M  M
14 0-4   -  N  -  -  -  -
15 0-5   -  -  O  O  O  O
16 0-5   P  -  -  P  -  -
17 0-5   -  Q  -  -  Q  -
18 0-5   R  -  R  R  R   
19 0-5   S  -  S  -  -   
20 0-5   -  -  -  -      
21 0-5   U  U  -  U      
22 0-5   V  V  V         
23 0-5   -  -  -         
24 0-5   X  Y            
25 0-5   Y  Z            
26 1-6   -               
27 2-6                   
-------------------------------
26 LETTER CHECK

FSHRJ ZRBOG MUKHO VRZTK YGSHV K
-------------------------------



SECRET    SECRET    SECRET    SECRET    SECRET

SECRET    SECRET    SECRET    SECRET    SECRET



EFFECTIVE PERIOD:
13-JUN-2037 00:00 THROUGH 23:59 GMT

NET INDICATOR:      M209GROUP
KEY LIST INDICATOR: FV
-------------------------------
NR LUGS  1  2  3  4  5  6
-------------------------------
01 2-0   -  A  -  A  A  -
02 2-0   -  B  B  B  B  B
03 2-0   -  -  -  C  -  C
04 2-0   -  -  D  -  D  D
05 2-0   E  -  -  E  E  -
06 2-0   F  F  F  -  F  -
07 2-0   G  G  -  -  G  -
08 2-0   H  -  -  H  -  H
09 2-0   I  -  I  I  -  -
10 2-0   J  J  J  J  J  J
11 0-3   -  -  K  K  -  -
12 0-4   L  L  L  L  -  -
13 0-4   -  M  -  M  M  -
14 0-4   N  N  N  -  N  -
15 0-4   -  -  -  O  O  O
16 0-4   P  P  -  P  -  P
17 0-4   -  -  -  -  -  Q
18 0-4   -  R  -  -  R   
19 0-5   -  -  S  -  -   
20 0-6   T  T  T  -      
21 0-6   -  U  -  -      
22 0-6   V  -  V         
23 0-6   W  -  X         
24 1-5   -  Y            
25 1-6   -  Z            
26 2-4   Z               
27 4-6                   
-------------------------------
26 LETTER CHECK

LMKUG RTBIA YVMLH CYVLL WQSYU H
-------------------------------



SECRET    SECRET    SECRET    SECRET    SECRET

SECRET    SECRET    SECRET    SECRET    SECRET



EFFECTIVE PERIOD:
14-JUN-2037 00:00 THROUGH 23:59 GMT

NET INDICATOR:      M209GROUP
KEY LIST INDICATOR: FW
-------------------------------
NR LUGS  1  2  3  4  5  6
-------------------------------
01 1-0   A  A  -  A  A  A
02 1-0   -  -  B  -  -  -
03 1-0   C  -  -  C  -  C
04 1-0   D  -  D  D  -  -
05 1-0   -  -  E  -  E  E
06 2-0   F  F  -  F  -  -
07 2-0   G  -  -  G  G  G
08 2-0   H  -  H  H  -  -
09 2-0   -  -  I  I  I  I
10 0-3   J  J  -  -  -  J
11 0-4   K  K  -  K  -  -
12 0-4   -  L  L  -  L  -
13 0-4   -  -  M  M  -  M
14 0-4   N  N  N  N  -  -
15 0-5   -  -  O  -  O  -
16 0-5   -  -  -  -  P  -
17 0-5   Q  -  -  -  -  Q
18 1-4   R  -  R  R  R   
19 1-5   S  -  S  -  -   
20 2-3   -  -  -  -      
21 2-3   -  U  -  U      
22 2-5   -  V  -         
23 2-5   -  X  -         
24 2-5   -  -            
25 2-5   Y  Z            
26 3-4   Z               
27 3-6                   
-------------------------------
26 LETTER CHECK

RPHNM JOKTM QXNLW GZPLO QXVMT H
-------------------------------



SECRET    SECRET    SECRET    SECRET    SECRET

SECRET    SECRET    SECRET    SECRET    SECRET



EFFECTIVE PERIOD:
15-JUN-2037 00:00 THROUGH 23:59 GMT

NET INDICATOR:      M209GROUP
KEY LIST INDICATOR: FX
-------------------------------
NR LUGS  1  2  3  4  5  6
-------------------------------
01 0-3   A  A  A  -  A  A
02 0-4   -  B  -  -  -  -
03 0-4   -  C  -  -  -  C
04 0-4   -  -  -  D  D  -
05 0-4   E  -  E  -  E  E
06 0-4   F  F  F  F  -  -
07 0-5   -  G  -  G  -  G
08 0-5   -  -  -  H  H  H
09 0-5   -  I  -  -  I  -
10 0-5   J  -  J  -  J  J
11 0-5   -  -  K  -  -  -
12 0-5   L  L  -  L  L  L
13 0-6   -  -  M  -  -  -
14 0-6   N  -  -  N  -  N
15 0-6   O  -  -  -  -  O
16 0-6   -  -  P  -  P  -
17 0-6   -  -  Q  -  Q  -
18 1-2   -  R  -  R  -   
19 1-3   -  -  S  S  S   
20 1-5   T  -  -  -      
21 3-4   -  -  U  U      
22 3-5   V  -  V         
23 4-6   W  X  X         
24 5-6   -  Y            
25 5-6   Y  -            
26 5-6   -               
27 5-6                   
-------------------------------
26 LETTER CHECK

LPDOT UJVVP DTTKS VZMJP UJLLT F
-------------------------------



SECRET    SECRET    SECRET    SECRET    SECRET

SECRET    SECRET    SECRET    SECRET    SECRET



EFFECTIVE PERIOD:
16-JUN-2037 00:00 THROUGH 23:59 GMT

NET INDICATOR:      M209GROUP
KEY LIST INDICATOR: FY
-------------------------------
NR LUGS  1  2  3  4  5  6
-------------------------------
01 1-0   A  -  A  A  -  -
02 1-0   B  -  -  -  -  B
03 1-0   -  -  C  -  C  C
04 1-0   D  D  -  -  D  D
05 1-0   -  -  -  -  -  E
06 1-0   -  F  -  F  F  F
07 2-0   -  -  G  G  G  G
08 2-0   -  H  H  H  H  -
09 2-0   -  I  -  I  I  -
10 2-0   J  J  J  -  -  -
11 0-3   -  -  -  K  K  K
12 0-3   -  -  -  -  -  L
13 0-3   M  -  -  M  -  -
14 0-5   N  -  N  -  -  -
15 0-5   -  O  -  -  -  -
16 0-5   P  P  P  P  P  -
17 0-5   -  Q  Q  -  -  Q
18 1-2   R  R  -  R  R   
19 1-3   S  S  S  -  S   
20 2-5   -  -  -  -      
21 2-5   U  -  U  -      
22 2-5   -  V  -         
23 2-5   -  -  -         
24 3-4   -  Y            
25 4-5   Y  -            
26 4-5   Z               
27 4-6                   
-------------------------------
26 LETTER CHECK

WJTWO OKTAT WSMKX LUHPQ PDZWL U
-------------------------------



SECRET    SECRET    SECRET    SECRET    SECRET

SECRET    SECRET    SECRET    SECRET    SECRET



EFFECTIVE PERIOD:
17-JUN-2037 00:00 THROUGH 23:59 GMT

NET INDICATOR:      M209GROUP
KEY LIST INDICATOR: FZ
-------------------------------
NR LUGS  1  2  3  4  5  6
-------------------------------
01 1-0   -  -  -  A  -  -
02 1-0   B  -  B  -  B  -
03 1-0   -  C  -  C  C  C
04 1-0   D  D  -  D  -  D
05 1-0   -  E  E  -  -  E
06 2-0   -  -  F  F  -  -
07 2-0   -  G  G  -  -  -
08 2-0   H  H  -  -  -  H
09 2-0   I  -  -  -  I  I
10 2-0   J  -  J  J  -  J
11 2-0   -  K  K  -  K  -
12 2-0   -  L  -  -  -  -
13 0-3   -  -  -  -  M  -
14 0-3   N  -  N  N  -  N
15 0-3   O  -  O  O  O  O
16 0-3   -  -  -  -  P  -
17 0-3   Q  -  -  -  Q  Q
18 0-5   -  R  -  -  -   
19 0-6   -  -  -  S  S   
20 1-3   T  -  T  T      
21 1-5   U  U  -  -      
22 2-3   -  -  V         
23 2-3   W  -  X         
24 2-3   -  Y            
25 2-3   -  Z            
26 2-4   Z               
27 5-6                   
-------------------------------
26 LETTER CHECK

JSAPJ ITJJV VMHLZ TNLUP SNOOR G
-------------------------------



SECRET    SECRET    SECRET    SECRET    SECRET

SECRET    SECRET    SECRET    SECRET    SECRET



EFFECTIVE PERIOD:
18-JUN-2037 00:00 THROUGH 23:59 GMT

NET INDICATOR:      M209GROUP
KEY LIST INDICATOR: GA
-------------------------------
NR LUGS  1  2  3  4  5  6
-------------------------------
01 1-0   A  A  -  -  -  -
02 2-0   B  B  B  B  -  B
03 2-0   -  C  C  -  -  C
04 2-0   D  D  D  D  -  -
05 2-0   E  -  -  E  -  E
06 2-0   -  -  F  -  -  F
07 0-3   -  G  G  G  G  G
08 0-3   H  H  H  H  -  -
09 0-3   -  -  I  -  -  I
10 0-3   -  J  J  J  J  -
11 0-3   K  -  -  K  -  -
12 0-3   -  -  -  -  -  L
13 0-3   -  M  -  -  -  -
14 0-3   N  -  -  N  N  -
15 0-6   O  -  -  -  O  -
16 0-6   -  -  P  P  P  -
17 0-6   -  -  Q  -  Q  -
18 0-6   -  -  R  -  R   
19 0-6   -  S  -  S  S   
20 1-4   T  -  T  -      
21 2-4   -  -  -  U      
22 2-6   -  -  -         
23 3-5   W  -  X         
24 3-6   -  -            
25 3-6   Y  Z            
26 3-6   Z               
27 3-6                   
-------------------------------
26 LETTER CHECK

ZLMOV AOCLU IAAZJ VOTAO GCCHD U
-------------------------------



SECRET    SECRET    SECRET    SECRET    SECRET

SECRET    SECRET    SECRET    SECRET    SECRET



EFFECTIVE PERIOD:
19-JUN-2037 00:00 THROUGH 23:59 GMT

NET INDICATOR:      M209GROUP
KEY LIST INDICATOR: GB
-------------------------------
NR LUGS  1  2  3  4  5  6
-------------------------------
01 1-0   -  -  A  -  A  A
02 1-0   -  B  B  B  -  B
03 2-0   -  -  C  -  C  C
04 0-3   -  D  -  D  D  -
05 0-3   -  -  E  E  -  E
06 0-3   F  -  -  F  F  F
07 0-3   -  -  -  -  -  -
08 0-5   H  H  -  H  -  H
09 0-5   -  I  -  -  -  I
10 0-5   J  J  J  -  -  -
11 0-5   -  -  K  -  -  K
12 0-5   L  -  -  L  L  -
13 0-5   -  -  M  -  M  -
14 0-5   N  -  N  N  -  N
15 0-5   O  O  O  -  -  -
16 0-5   -  -  P  -  P  P
17 0-5   -  -  -  -  -  -
18 0-6   -  -  R  R  R   
19 0-6   S  S  -  -  -   
20 0-6   T  -  -  T      
21 0-6   U  U  U  U      
22 1-3   V  -  V         
23 1-4   W  X  -         
24 3-6   -  -            
25 5-6   Y  Z            
26 5-6   Z               
27 5-6                   
-------------------------------
26 LETTER CHECK

XTFLW LRPYL WWONO HDHET AZPSP A
-------------------------------



SECRET    SECRET    SECRET    SECRET    SECRET

SECRET    SECRET    SECRET    SECRET    SECRET



EFFECTIVE PERIOD:
20-JUN-2037 00:00 THROUGH 23:59 GMT

NET INDICATOR:      M209GROUP
KEY LIST INDICATOR: GC
-------------------------------
NR LUGS  1  2  3  4  5  6
-------------------------------
01 1-0   A  -  -  A  A  -
02 1-0   -  -  B  B  B  -
03 0-3   C  C  C  -  C  C
04 0-3   -  D  -  -  D  -
05 0-3   E  E  -  -  -  E
06 0-3   F  -  -  -  F  -
07 0-3   G  G  G  G  -  -
08 0-3   H  H  -  -  -  H
09 0-3   -  -  I  I  -  -
10 0-5   J  -  -  -  J  J
11 0-6   -  -  K  K  -  -
12 0-6   -  L  -  L  -  -
13 0-6   M  M  -  -  M  -
14 0-6   -  -  -  N  -  N
15 0-6   -  -  -  -  O  O
16 1-2   -  P  P  P  -  -
17 1-5   -  -  -  Q  Q  Q
18 1-5   R  R  R  R  R   
19 1-5   -  S  S  S  -   
20 1-6   T  -  -  -      
21 1-6   U  -  U  U      
22 1-6   V  -  -         
23 1-6   -  X  X         
24 2-4   -  -            
25 2-5   -  Z            
26 3-5   Z               
27 3-6                   
-------------------------------
26 LETTER CHECK

ZHSRZ VTIHX NZINM LXNUA AJHRG O
-------------------------------



SECRET    SECRET    SECRET    SECRET    SECRET

SECRET    SECRET    SECRET    SECRET    SECRET



EFFECTIVE PERIOD:
21-JUN-2037 00:00 THROUGH 23:59 GMT

NET INDICATOR:      M209GROUP
KEY LIST INDICATOR: GD
-------------------------------
NR LUGS  1  2  3  4  5  6
-------------------------------
01 1-0   A  A  A  -  -  -
02 1-0   B  B  B  B  B  -
03 1-0   C  C  -  C  -  C
04 1-0   -  -  D  -  -  D
05 1-0   -  E  -  -  E  E
06 1-0   -  -  -  F  -  F
07 2-0   -  G  -  -  G  -
08 0-4   H  H  H  H  H  H
09 0-4   -  -  I  I  -  I
10 0-4   J  -  J  -  J  -
11 0-4   K  K  -  K  -  K
12 0-4   L  -  -  L  L  -
13 0-4   -  -  -  -  M  M
14 0-4   -  -  N  -  N  -
15 0-6   -  -  O  O  -  -
16 0-6   -  P  P  P  P  P
17 0-6   -  -  Q  Q  -  -
18 1-2   -  R  -  R  -   
19 1-6   S  S  -  -  -   
20 2-3   T  T  T  -      
21 2-4   -  U  -  -      
22 3-4   V  V  V         
23 3-5   -  -  X         
24 4-6   -  -            
25 4-6   -  Z            
26 4-6   Z               
27 4-6                   
-------------------------------
26 LETTER CHECK

KFSXX TMDCK AASMR MMUMS VLOOO O
-------------------------------



SECRET    SECRET    SECRET    SECRET    SECRET

SECRET    SECRET    SECRET    SECRET    SECRET



EFFECTIVE PERIOD:
22-JUN-2037 00:00 THROUGH 23:59 GMT

NET INDICATOR:      M209GROUP
KEY LIST INDICATOR: GE
-------------------------------
NR LUGS  1  2  3  4  5  6
-------------------------------
01 1-0   A  A  A  -  -  -
02 1-0   B  B  B  -  -  -
03 2-0   C  C  C  -  C  C
04 2-0   D  D  D  D  D  -
05 2-0   -  -  -  E  E  -
06 2-0   F  -  -  F  F  -
07 2-0   -  -  -  -  -  G
08 2-0   -  -  -  -  H  -
09 2-0   I  I  I  I  -  I
10 2-0   J  J  J  J  J  -
11 0-3   -  K  -  -  -  -
12 0-4   -  -  L  -  -  -
13 0-5   -  -  -  -  M  M
14 0-5   -  N  -  -  -  N
15 0-5   O  O  -  -  -  -
16 0-5   P  -  -  P  -  P
17 0-6   -  -  -  Q  Q  Q
18 0-6   -  -  -  R  R   
19 0-6   S  -  S  S  -   
20 0-6   T  T  T  -      
21 0-6   -  -  U  -      
22 0-6   V  V  V         
23 0-6   -  -  -         
24 0-6   -  Y            
25 0-6   Y  -            
26 1-3   Z               
27 1-5                   
-------------------------------
26 LETTER CHECK

LEINE YSJBU IQRAM NDFCV YJIIN Q
-------------------------------



SECRET    SECRET    SECRET    SECRET    SECRET

SECRET    SECRET    SECRET    SECRET    SECRET



EFFECTIVE PERIOD:
23-JUN-2037 00:00 THROUGH 23:59 GMT

NET INDICATOR:      M209GROUP
KEY LIST INDICATOR: GF
-------------------------------
NR LUGS  1  2  3  4  5  6
-------------------------------
01 2-0   -  -  -  -  -  A
02 2-0   -  -  B  -  B  -
03 2-0   -  -  -  -  C  -
04 2-0   D  D  D  -  -  -
05 2-0   -  E  E  -  -  E
06 2-0   -  F  -  F  -  -
07 2-0   G  -  G  -  -  G
08 0-3   H  H  H  H  H  H
09 0-3   -  I  I  I  -  -
10 0-3   -  -  J  -  J  -
11 0-3   K  -  -  K  -  K
12 0-4   -  -  -  L  L  L
13 0-6   M  M  -  M  -  M
14 0-6   N  N  -  -  -  -
15 0-6   O  -  -  O  O  O
16 0-6   -  -  P  -  -  P
17 0-6   -  -  Q  Q  Q  -
18 1-5   -  -  -  R  R   
19 2-4   -  -  -  -  S   
20 2-5   T  T  -  -      
21 2-6   -  U  U  U      
22 2-6   -  -  -         
23 2-6   -  -  -         
24 2-6   X  Y            
25 3-4   Y  Z            
26 3-6   Z               
27 4-5                   
-------------------------------
26 LETTER CHECK

PJRIO WOREO OOZOA OUTYA DOMQU K
-------------------------------



SECRET    SECRET    SECRET    SECRET    SECRET

SECRET    SECRET    SECRET    SECRET    SECRET



EFFECTIVE PERIOD:
24-JUN-2037 00:00 THROUGH 23:59 GMT

NET INDICATOR:      M209GROUP
KEY LIST INDICATOR: GG
-------------------------------
NR LUGS  1  2  3  4  5  6
-------------------------------
01 1-0   -  A  A  A  -  -
02 1-0   -  B  B  -  -  B
03 1-0   -  C  -  -  C  C
04 1-0   D  -  D  D  -  -
05 0-3   E  -  E  -  E  -
06 0-3   F  F  -  -  -  -
07 0-3   G  -  -  -  G  -
08 0-3   H  -  -  H  H  -
09 0-3   -  -  I  I  I  -
10 0-3   -  -  J  -  -  J
11 0-3   K  K  -  K  -  -
12 0-3   L  -  L  L  -  L
13 0-3   -  -  -  M  M  M
14 0-4   -  N  -  -  N  N
15 0-5   O  O  O  -  -  -
16 0-6   P  -  -  -  P  P
17 0-6   Q  Q  Q  -  -  Q
18 0-6   R  -  -  R  R   
19 0-6   -  S  S  S  -   
20 0-6   -  -  T  -      
21 0-6   U  U  U  U      
22 0-6   V  V  V         
23 0-6   -  X  -         
24 0-6   -  Y            
25 0-6   Y  -            
26 1-2   -               
27 2-5                   
-------------------------------
26 LETTER CHECK

GZQSC YAKVQ KKDKP GRFXT MQOLK Q
-------------------------------



SECRET    SECRET    SECRET    SECRET    SECRET

SECRET    SECRET    SECRET    SECRET    SECRET



EFFECTIVE PERIOD:
25-JUN-2037 00:00 THROUGH 23:59 GMT

NET INDICATOR:      M209GROUP
KEY LIST INDICATOR: GH
-------------------------------
NR LUGS  1  2  3  4  5  6
-------------------------------
01 0-3   -  -  -  -  -  A
02 0-3   B  B  -  B  B  -
03 0-3   -  -  -  C  C  -
04 0-3   D  -  D  -  -  D
05 0-3   -  E  -  E  -  E
06 0-3   -  F  F  F  F  F
07 0-3   -  -  -  -  G  G
08 0-4   H  H  H  H  H  -
09 0-4   -  I  I  -  I  -
10 0-4   -  -  -  J  -  J
11 0-4   K  -  K  K  -  -
12 0-4   -  -  -  L  L  L
13 0-5   -  M  -  -  M  M
14 0-5   N  -  N  -  -  -
15 0-5   O  -  O  -  O  -
16 1-2   P  -  -  -  P  -
17 1-5   Q  Q  Q  Q  -  Q
18 1-5   -  R  -  -  -   
19 1-6   -  S  S  S  S   
20 3-4   T  -  T  -      
21 3-6   U  -  U  -      
22 4-5   V  V  -         
23 4-5   -  X  -         
24 4-5   -  -            
25 4-5   Y  Z            
26 5-6   Z               
27 5-6                   
-------------------------------
26 LETTER CHECK

VVEUS MXVAM TNGZS UTIXT YDKVO N
-------------------------------



SECRET    SECRET    SECRET    SECRET    SECRET

SECRET    SECRET    SECRET    SECRET    SECRET



EFFECTIVE PERIOD:
26-JUN-2037 00:00 THROUGH 23:59 GMT

NET INDICATOR:      M209GROUP
KEY LIST INDICATOR: GI
-------------------------------
NR LUGS  1  2  3  4  5  6
-------------------------------
01 1-0   -  -  -  -  A  A
02 1-0   -  -  -  -  B  -
03 1-0   C  C  -  -  -  -
04 1-0   -  -  D  D  -  D
05 1-0   E  E  E  E  -  E
06 2-0   -  F  -  -  -  -
07 0-3   -  -  -  -  G  -
08 0-4   -  -  H  H  -  H
09 0-5   I  I  I  I  I  -
10 0-5   J  J  -  -  -  -
11 0-5   -  -  K  K  K  -
12 0-5   L  L  -  -  -  L
13 0-5   -  -  -  M  -  M
14 0-5   -  -  N  N  -  N
15 0-5   O  O  O  O  -  -
16 0-5   P  -  P  P  -  P
17 0-6   -  Q  Q  -  Q  Q
18 0-6   -  R  -  -  R   
19 0-6   S  S  S  S  S   
20 0-6   T  -  -  T      
21 0-6   -  U  -  -      
22 0-6   V  V  -         
23 0-6   W  X  X         
24 0-6   X  Y            
25 0-6   Y  Z            
26 1-3   Z               
27 2-3                   
-------------------------------
26 LETTER CHECK

JMNSH TZZPQ QIAJT HKDTR RARMU Q
-------------------------------



SECRET    SECRET    SECRET    SECRET    SECRET

SECRET    SECRET    SECRET    SECRET    SECRET



EFFECTIVE PERIOD:
27-JUN-2037 00:00 THROUGH 23:59 GMT

NET INDICATOR:      M209GROUP
KEY LIST INDICATOR: GJ
-------------------------------
NR LUGS  1  2  3  4  5  6
-------------------------------
01 1-0   A  -  A  A  A  A
02 2-0   B  B  -  B  B  B
03 0-3   -  -  -  C  -  -
04 0-3   D  D  D  D  -  D
05 0-3   -  E  E  -  E  -
06 0-3   F  -  -  F  F  -
07 0-3   -  G  G  G  -  -
08 0-4   H  -  -  -  -  H
09 0-4   I  I  I  -  I  -
10 0-4   -  -  J  J  -  -
11 0-4   -  -  K  -  K  -
12 0-4   L  -  -  -  L  -
13 0-5   -  M  M  M  -  M
14 0-5   -  N  -  -  -  N
15 0-5   O  O  O  -  -  O
16 0-5   -  P  -  P  P  -
17 0-6   Q  -  -  -  -  Q
18 0-6   -  -  R  R  -   
19 0-6   -  -  S  -  -   
20 0-6   -  -  -  -      
21 0-6   U  U  -  U      
22 0-6   V  -  -         
23 0-6   W  X  -         
24 1-5   X  Y            
25 3-4   -  Z            
26 3-5   Z               
27 4-6                   
-------------------------------
26 LETTER CHECK

NJHNT OKJVN WIOLW HMASV ONIOU K
-------------------------------



SECRET    SECRET    SECRET    SECRET    SECRET

SECRET    SECRET    SECRET    SECRET    SECRET



EFFECTIVE PERIOD:
28-JUN-2037 00:00 THROUGH 23:59 GMT

NET INDICATOR:      M209GROUP
KEY LIST INDICATOR: GK
-------------------------------
NR LUGS  1  2  3  4  5  6
-------------------------------
01 1-0   A  A  A  A  A  -
02 1-0   B  -  B  B  -  -
03 1-0   -  -  -  C  -  -
04 1-0   D  D  D  -  D  D
05 1-0   -  E  E  -  E  E
06 1-0   -  -  -  F  -  F
07 2-0   G  -  G  -  G  -
08 2-0   -  -  -  -  H  -
09 2-0   -  -  -  I  -  I
10 2-0   -  J  -  -  -  J
11 2-0   K  K  K  K  K  K
12 2-0   -  L  -  L  -  -
13 0-5   -  -  -  -  -  -
14 0-5   -  -  N  -  N  N
15 0-5   O  -  O  O  O  O
16 0-5   P  -  P  -  -  P
17 0-5   Q  Q  Q  -  -  Q
18 1-3   R  R  R  -  R   
19 1-4   -  -  S  S  S   
20 1-5   T  T  -  T      
21 1-5   -  U  U  U      
22 1-5   V  V  -         
23 1-5   -  -  -         
24 1-6   -  -            
25 2-4   Y  -            
26 2-5   -               
27 3-4                   
-------------------------------
26 LETTER CHECK

NNATN KATMO EASBA RCOJC LZREB T
-------------------------------



SECRET    SECRET    SECRET    SECRET    SECRET

SECRET    SECRET    SECRET    SECRET    SECRET



EFFECTIVE PERIOD:
29-JUN-2037 00:00 THROUGH 23:59 GMT

NET INDICATOR:      M209GROUP
KEY LIST INDICATOR: GL
-------------------------------
NR LUGS  1  2  3  4  5  6
-------------------------------
01 0-3   -  A  -  A  -  A
02 0-3   B  -  -  B  B  -
03 0-3   C  C  C  -  C  -
04 0-3   -  -  D  -  D  D
05 0-3   E  -  E  -  -  E
06 0-3   F  F  -  -  -  -
07 0-3   G  G  G  G  -  G
08 0-3   H  -  H  -  -  H
09 0-4   -  I  -  I  I  I
10 0-5   -  -  -  J  -  -
11 0-5   -  K  K  K  -  -
12 0-6   -  -  -  L  L  L
13 0-6   M  M  -  -  M  M
14 0-6   N  -  -  N  -  -
15 0-6   O  O  O  -  -  O
16 0-6   P  -  P  -  -  -
17 0-6   -  -  Q  -  Q  Q
18 0-6   -  -  -  R  -   
19 0-6   -  -  S  -  S   
20 0-6   T  T  -  -      
21 0-6   -  U  U  U      
22 1-2   V  V  -         
23 2-5   -  -  -         
24 3-5   -  Y            
25 3-6   Y  -            
26 3-6   -               
27 3-6                   
-------------------------------
26 LETTER CHECK

EZVLN QOZAF RRMXV OPOOS POAOZ N
-------------------------------



SECRET    SECRET    SECRET    SECRET    SECRET

SECRET    SECRET    SECRET    SECRET    SECRET



EFFECTIVE PERIOD:
30-JUN-2037 00:00 THROUGH 23:59 GMT

NET INDICATOR:      M209GROUP
KEY LIST INDICATOR: GM
-------------------------------
NR LUGS  1  2  3  4  5  6
-------------------------------
01 1-0   A  A  A  -  A  A
02 2-0   -  B  -  -  B  -
03 0-3   -  -  C  C  -  C
04 0-4   -  D  -  D  -  -
05 0-5   -  -  -  -  E  E
06 0-5   -  -  F  -  -  -
07 0-5   G  -  G  G  -  G
08 0-5   H  H  H  H  -  H
09 0-5   -  -  I  I  -  -
10 0-5   J  J  -  -  -  J
11 0-5   -  -  K  -  -  -
12 0-5   L  L  -  -  L  -
13 0-6   M  M  -  M  -  M
14 0-6   -  N  N  N  N  -
15 0-6   O  O  -  -  O  -
16 0-6   -  -  -  -  -  -
17 0-6   -  -  Q  -  -  Q
18 0-6   R  R  -  R  R   
19 0-6   S  S  -  S  S   
20 0-6   T  -  -  -      
21 0-6   -  -  U  U      
22 0-6   V  -  V         
23 0-6   -  X  -         
24 1-3   -  -            
25 3-4   Y  Z            
26 4-5   -               
27 5-6                   
-------------------------------
26 LETTER CHECK

OCWOC CYXOW DROLM EQFEU ELOQM M
-------------------------------



SECRET    SECRET    SECRET    SECRET    SECRET
