EFFECTIVE PERIOD:
04-FEB-2025 00:00 THROUGH 23:59 GMT

NET INDICATOR:      M209GROUP
KEY LIST INDICATOR: OH
-------------------------------
NR LUGS  1  2  3  4  5  6
-------------------------------
01 1-0   A  A  -  -  A  A
02 1-0   -  -  B  -  -  B
03 1-0   -  -  C  -  C  C
04 1-0   -  -  -  D  -  -
05 1-0   E  E  E  E  E  E
06 1-0   -  -  F  F  -  -
07 1-0   -  -  -  -  -  -
08 1-0   -  H  -  H  H  H
09 1-0   -  I  I  I  -  -
10 1-0   J  J  J  -  -  -
11 1-0   -  -  K  -  K  K
12 2-0   -  -  -  -  L  -
13 0-3   M  -  M  -  -  -
14 0-3   N  N  -  -  N  N
15 0-3   O  O  -  -  O  O
16 0-3   P  -  -  P  -  -
17 0-4   Q  Q  -  Q  -  Q
18 0-5   R  R  R  R  R   
19 0-5   -  S  -  S  S   
20 0-5   -  -  -  T      
21 0-6   U  -  -  -      
22 0-6   V  -  V         
23 0-6   -  -  -         
24 1-3   X  Y            
25 3-5   -  -            
26 4-6   Z               
27 5-6                   
-------------------------------
26 LETTER CHECK

VLRKM NVJYF QWLBL VBFKK WIJQS W
-------------------------------
