EFFECTIVE PERIOD:
09-MAR-2036 00:00 THROUGH 23:59 GMT

NET INDICATOR:      M209GROUP
KEY LIST INDICATOR: OC
-------------------------------
NR LUGS  1  2  3  4  5  6
-------------------------------
01 1-0   -  -  A  A  -  -
02 2-0   B  -  -  -  B  -
03 2-0   -  -  C  C  -  C
04 2-0   D  D  D  -  -  D
05 2-0   E  E  E  -  -  -
06 0-3   -  F  F  F  -  F
07 0-3   -  G  -  -  G  -
08 0-4   H  -  H  H  H  -
09 0-4   -  -  I  I  -  I
10 0-4   J  J  -  -  J  J
11 0-5   -  -  K  K  K  K
12 0-5   -  L  -  L  -  -
13 0-5   M  M  M  M  M  -
14 0-5   -  -  N  N  -  N
15 0-5   -  -  O  O  O  O
16 0-5   P  P  -  -  P  -
17 0-5   Q  Q  -  -  Q  -
18 0-5   R  -  -  -  -   
19 0-5   -  -  -  S  -   
20 0-5   -  T  -  -      
21 0-5   -  U  -  -      
22 0-5   V  -  V         
23 0-6   W  -  X         
24 2-4   -  Y            
25 2-5   Y  Z            
26 3-4   -               
27 3-6                   
-------------------------------
26 LETTER CHECK

JZKOO RKADA KEFDZ XLZRE AGYZQ Z
-------------------------------
