EFFECTIVE PERIOD:
30-JAN-2027 00:00 THROUGH 23:59 GMT

NET INDICATOR:      M209GROUP
KEY LIST INDICATOR: QE
-------------------------------
NR LUGS  1  2  3  4  5  6
-------------------------------
01 1-0   A  -  -  -  -  A
02 2-0   -  B  -  B  B  B
03 2-0   -  C  -  C  -  -
04 2-0   -  D  D  -  -  D
05 2-0   -  -  E  -  -  -
06 0-3   F  -  F  F  F  F
07 0-3   G  -  G  G  -  -
08 0-3   H  -  H  -  -  -
09 0-3   I  I  -  I  I  I
10 0-3   -  J  -  -  -  J
11 0-3   -  -  -  -  K  K
12 0-3   -  L  L  -  L  L
13 0-3   M  -  -  -  -  -
14 0-3   -  -  N  -  -  N
15 0-4   -  -  O  -  O  O
16 0-5   P  P  -  P  P  -
17 0-5   -  Q  Q  -  Q  -
18 0-5   -  -  R  R  R   
19 0-6   S  S  S  S  S   
20 0-6   T  -  -  T      
21 0-6   -  U  U  -      
22 2-3   -  V  V         
23 2-3   -  -  -         
24 2-3   -  -            
25 2-5   Y  Z            
26 4-6   Z               
27 5-6                   
-------------------------------
26 LETTER CHECK

VVHWZ SNZQF OCMUS RVSJM MQLRV I
-------------------------------
