EFFECTIVE PERIOD:
31-DEC-2028 00:00 THROUGH 23:59 GMT

NET INDICATOR:      M209GROUP
KEY LIST INDICATOR: RD
-------------------------------
NR LUGS  1  2  3  4  5  6
-------------------------------
01 1-0   A  -  A  -  -  -
02 2-0   B  -  B  -  -  -
03 0-3   C  C  -  C  C  -
04 0-3   D  D  D  -  -  D
05 0-3   E  E  -  E  E  E
06 0-4   -  -  -  F  F  F
07 0-4   G  -  -  G  G  -
08 0-4   H  -  H  -  H  -
09 0-4   -  -  -  I  -  I
10 0-4   J  J  J  -  -  -
11 0-4   K  K  -  -  -  K
12 0-4   -  -  L  L  -  -
13 0-5   -  M  -  -  -  M
14 0-5   -  -  -  -  N  N
15 0-5   -  -  O  O  -  O
16 0-5   -  -  -  P  P  P
17 0-5   -  Q  -  -  Q  -
18 0-5   R  -  -  -  R   
19 0-5   S  S  -  -  -   
20 0-5   -  -  T  T      
21 0-5   -  U  U  -      
22 0-5   V  -  V         
23 0-5   W  -  -         
24 2-6   -  Y            
25 3-4   Y  -            
26 3-6   -               
27 4-5                   
-------------------------------
26 LETTER CHECK

BEXLO NTNEC ROOAW XZOAF MTBVX L
-------------------------------
