EFFECTIVE PERIOD:
08-DEC-2021 00:00 THROUGH 23:59 GMT

NET INDICATOR:      M209GROUP
KEY LIST INDICATOR: VX
-------------------------------
NR LUGS  1  2  3  4  5  6
-------------------------------
01 1-0   A  -  -  A  -  A
02 1-0   -  -  -  -  B  B
03 1-0   C  -  C  -  -  -
04 1-0   D  D  -  -  -  D
05 2-0   -  -  E  -  -  E
06 2-0   -  F  -  -  F  -
07 0-3   G  G  -  G  G  -
08 0-4   -  -  -  H  H  H
09 0-5   -  -  I  I  -  I
10 0-5   -  J  J  J  J  -
11 0-5   -  K  K  K  K  -
12 0-5   L  L  L  -  -  -
13 0-5   -  -  -  M  M  -
14 0-6   N  N  N  N  -  N
15 0-6   -  -  O  -  -  O
16 0-6   P  P  -  -  P  -
17 0-6   Q  Q  Q  Q  -  -
18 0-6   -  -  -  -  R   
19 0-6   S  S  -  S  -   
20 0-6   T  T  -  T      
21 0-6   -  -  -  U      
22 0-6   V  -  V         
23 0-6   -  X  -         
24 1-2   X  Y            
25 1-5   -  -            
26 2-4   -               
27 5-6                   
-------------------------------
26 LETTER CHECK

IQDRZ DNMVL KQALZ SEPJC VQJHU S
-------------------------------
