EFFECTIVE PERIOD:
27-AUG-2020 00:00 THROUGH 23:59 GMT

NET INDICATOR:      M209GROUP
KEY LIST INDICATOR: DX
-------------------------------
NR LUGS  1  2  3  4  5  6
-------------------------------
01 0-4   A  A  A  A  A  -
02 0-4   B  -  B  B  B  -
03 0-4   -  C  -  C  -  -
04 0-4   D  D  -  D  D  -
05 0-4   E  -  -  -  E  -
06 0-5   -  F  -  -  -  F
07 0-5   G  -  G  -  G  G
08 0-5   H  -  H  -  -  -
09 0-5   I  I  I  -  I  I
10 0-5   -  -  J  J  J  -
11 0-6   -  -  -  -  -  -
12 0-6   -  -  -  -  -  L
13 0-6   M  M  M  -  M  -
14 0-6   N  N  -  N  -  -
15 0-6   O  -  O  -  -  O
16 0-6   -  P  -  -  P  P
17 0-6   -  -  Q  Q  Q  Q
18 1-3   R  R  -  R  -   
19 2-4   -  S  -  S  -   
20 3-4   -  -  -  -      
21 3-4   U  U  -  U      
22 3-6   V  -  -         
23 4-5   W  X  X         
24 4-5   X  -            
25 4-5   -  Z            
26 4-5   -               
27 5-6                   
-------------------------------
26 LETTER CHECK

ZAAEZ AVAST NTAJL JONVE JIVTO M
-------------------------------
