EFFECTIVE PERIOD:
21-JAN-2037 00:00 THROUGH 23:59 GMT

NET INDICATOR:      M209GROUP
KEY LIST INDICATOR: AI
-------------------------------
NR LUGS  1  2  3  4  5  6
-------------------------------
01 1-0   A  A  A  -  -  A
02 1-0   -  B  -  -  B  -
03 1-0   C  C  C  -  C  C
04 1-0   -  -  -  D  D  D
05 0-4   E  -  -  -  -  E
06 0-4   -  F  -  F  -  -
07 0-4   G  -  -  -  G  G
08 0-4   H  -  H  H  -  -
09 0-4   I  -  I  -  I  -
10 0-5   -  J  J  -  J  J
11 0-5   -  K  -  -  -  K
12 0-5   L  -  -  L  -  L
13 0-6   M  M  M  -  M  -
14 0-6   -  -  N  N  -  -
15 0-6   O  O  O  O  -  -
16 0-6   -  P  P  P  P  -
17 0-6   Q  -  Q  Q  Q  -
18 1-4   R  -  -  -  R   
19 1-4   -  S  -  -  S   
20 1-4   -  T  -  T      
21 1-4   -  -  -  -      
22 1-6   V  -  -         
23 2-4   -  X  -         
24 3-4   X  -            
25 3-5   -  Z            
26 4-5   Z               
27 5-6                   
-------------------------------
26 LETTER CHECK

JARMQ GOWJL VUMPQ IWUQK QARVW V
-------------------------------
