EFFECTIVE PERIOD:
01-APR-2014 00:00 THROUGH 23:59 GMT

NET INDICATOR:      M209GROUP
KEY LIST INDICATOR: RX
-------------------------------
NR LUGS  1  2  3  4  5  6
-------------------------------
01 1-0   -  A  -  -  -  A
02 1-0   B  -  B  -  -  B
03 2-0   C  C  -  -  C  -
04 2-0   D  -  -  -  D  D
05 2-0   -  E  -  E  -  E
06 2-0   F  -  F  F  -  -
07 2-0   G  -  -  -  G  G
08 2-0   -  H  H  -  -  -
09 2-0   I  -  -  I  -  -
10 2-0   J  -  J  J  J  -
11 2-0   -  K  K  K  -  K
12 0-3   -  L  -  L  L  L
13 0-4   M  -  M  -  M  -
14 0-5   -  N  -  N  N  -
15 0-5   O  O  -  O  -  O
16 0-5   -  P  -  -  P  -
17 0-6   -  -  Q  Q  -  Q
18 0-6   -  R  R  R  -   
19 0-6   -  S  S  S  -   
20 0-6   -  -  T  T      
21 0-6   U  -  -  -      
22 1-4   V  V  -         
23 1-5   -  -  -         
24 2-6   X  Y            
25 2-6   -  Z            
26 2-6   -               
27 5-6                   
-------------------------------
26 LETTER CHECK

VXGMY FOTML VWDWI MDRTJ JVOQR W
-------------------------------
