SECRET    SECRET    SECRET    SECRET    SECRET

NET INDICATOR M209GROUP

KEY LIST FOR MONTH OF JUN 2033

    01 JUN 2033  00:00-23:59 GMT:  USE KEY BE
    02 JUN 2033  00:00-23:59 GMT:  USE KEY BF
    03 JUN 2033  00:00-23:59 GMT:  USE KEY BG
    04 JUN 2033  00:00-23:59 GMT:  USE KEY BH
    05 JUN 2033  00:00-23:59 GMT:  USE KEY BI
    06 JUN 2033  00:00-23:59 GMT:  USE KEY BJ
    07 JUN 2033  00:00-23:59 GMT:  USE KEY BK
    08 JUN 2033  00:00-23:59 GMT:  USE KEY BL
    09 JUN 2033  00:00-23:59 GMT:  USE KEY BM
    10 JUN 2033  00:00-23:59 GMT:  USE KEY BN
    11 JUN 2033  00:00-23:59 GMT:  USE KEY BO
    12 JUN 2033  00:00-23:59 GMT:  USE KEY BP
    13 JUN 2033  00:00-23:59 GMT:  USE KEY BQ
    14 JUN 2033  00:00-23:59 GMT:  USE KEY BR
    15 JUN 2033  00:00-23:59 GMT:  USE KEY BS
    16 JUN 2033  00:00-23:59 GMT:  USE KEY BT
    17 JUN 2033  00:00-23:59 GMT:  USE KEY BU
    18 JUN 2033  00:00-23:59 GMT:  USE KEY BV
    19 JUN 2033  00:00-23:59 GMT:  USE KEY BW
    20 JUN 2033  00:00-23:59 GMT:  USE KEY BX
    21 JUN 2033  00:00-23:59 GMT:  USE KEY BY
    22 JUN 2033  00:00-23:59 GMT:  USE KEY BZ
    23 JUN 2033  00:00-23:59 GMT:  USE KEY CA
    24 JUN 2033  00:00-23:59 GMT:  USE KEY CB
    25 JUN 2033  00:00-23:59 GMT:  USE KEY CC
    26 JUN 2033  00:00-23:59 GMT:  USE KEY CD
    27 JUN 2033  00:00-23:59 GMT:  USE KEY CE
    28 JUN 2033  00:00-23:59 GMT:  USE KEY CF
    29 JUN 2033  00:00-23:59 GMT:  USE KEY CG
    30 JUN 2033  00:00-23:59 GMT:  USE KEY CH

SECRET    SECRET    SECRET    SECRET    SECRET



SECRET    SECRET    SECRET    SECRET    SECRET



EFFECTIVE PERIOD:
01-JUN-2033 00:00 THROUGH 23:59 GMT

NET INDICATOR:      M209GROUP
KEY LIST INDICATOR: BE
-------------------------------
NR LUGS  1  2  3  4  5  6
-------------------------------
01 2-0   -  -  A  A  A  A
02 2-0   B  -  -  B  B  -
03 2-0   -  C  -  -  -  C
04 2-0   -  -  D  -  -  -
05 2-0   -  -  E  -  -  E
06 0-3   F  -  -  F  -  F
07 0-3   -  -  G  G  G  G
08 0-3   -  -  -  -  -  H
09 0-3   -  I  I  I  I  I
10 0-3   -  J  J  -  -  -
11 0-3   -  K  K  K  K  K
12 0-3   L  -  -  -  -  -
13 0-4   -  -  M  -  M  -
14 0-4   -  -  -  N  -  -
15 0-4   O  -  O  O  -  -
16 1-4   -  P  P  -  P  P
17 2-3   Q  Q  -  Q  -  Q
18 2-4   R  -  R  -  R   
19 2-4   S  S  -  S  -   
20 2-4   T  T  -  -      
21 2-4   U  U  -  -      
22 3-6   V  V  V         
23 4-5   -  X  X         
24 4-6   X  Y            
25 4-6   Y  -            
26 4-6   Z               
27 5-6                   
-------------------------------
26 LETTER CHECK

EAZAA PTOUA UEFVV NLNKZ TJVNM V
-------------------------------



SECRET    SECRET    SECRET    SECRET    SECRET

SECRET    SECRET    SECRET    SECRET    SECRET



EFFECTIVE PERIOD:
02-JUN-2033 00:00 THROUGH 23:59 GMT

NET INDICATOR:      M209GROUP
KEY LIST INDICATOR: BF
-------------------------------
NR LUGS  1  2  3  4  5  6
-------------------------------
01 1-0   -  A  A  -  -  -
02 1-0   -  B  B  B  B  B
03 1-0   C  -  C  -  -  -
04 1-0   D  D  -  -  D  -
05 1-0   E  E  -  -  E  E
06 1-0   F  F  F  -  F  F
07 0-3   -  -  -  G  -  G
08 0-3   -  H  H  H  -  -
09 0-3   I  I  -  -  I  I
10 0-3   -  -  J  J  -  J
11 0-3   -  K  -  -  -  -
12 0-3   L  L  -  -  L  -
13 0-4   -  -  M  -  -  M
14 0-4   -  -  N  -  N  N
15 0-4   -  -  -  O  -  -
16 0-4   P  -  -  P  P  -
17 0-4   -  Q  -  -  -  -
18 0-6   -  -  R  R  R   
19 0-6   -  -  -  S  S   
20 1-4   T  T  -  T      
21 1-6   U  -  U  U      
22 2-6   V  V  V         
23 3-4   -  -  X         
24 3-4   -  -            
25 3-4   Y  -            
26 3-4   -               
27 3-5                   
-------------------------------
26 LETTER CHECK

SZONS RRRUS QOOLI AUKKV DBTQJ E
-------------------------------



SECRET    SECRET    SECRET    SECRET    SECRET

SECRET    SECRET    SECRET    SECRET    SECRET



EFFECTIVE PERIOD:
03-JUN-2033 00:00 THROUGH 23:59 GMT

NET INDICATOR:      M209GROUP
KEY LIST INDICATOR: BG
-------------------------------
NR LUGS  1  2  3  4  5  6
-------------------------------
01 1-0   A  -  A  -  -  -
02 1-0   B  B  B  B  B  -
03 1-0   -  C  -  C  -  C
04 1-0   -  D  -  -  -  -
05 1-0   E  E  E  E  -  E
06 1-0   -  -  -  -  -  F
07 0-3   -  -  G  -  G  -
08 0-3   H  H  -  H  H  H
09 0-3   I  I  I  I  I  -
10 0-3   -  J  -  -  J  J
11 0-3   K  -  -  -  K  K
12 0-6   L  -  -  -  -  L
13 0-6   M  M  -  M  -  M
14 0-6   N  N  N  N  -  -
15 0-6   O  -  O  O  O  -
16 0-6   -  -  P  -  -  P
17 0-6   -  -  Q  -  Q  Q
18 1-3   -  -  R  -  -   
19 1-4   -  S  -  -  S   
20 2-4   T  -  T  T      
21 3-6   -  -  -  -      
22 3-6   -  V  V         
23 3-6   -  -  X         
24 3-6   X  -            
25 4-6   -  -            
26 4-6   Z               
27 5-6                   
-------------------------------
26 LETTER CHECK

UUUKR MSEQS TAVDT JUOAV AKVAS Q
-------------------------------



SECRET    SECRET    SECRET    SECRET    SECRET

SECRET    SECRET    SECRET    SECRET    SECRET



EFFECTIVE PERIOD:
04-JUN-2033 00:00 THROUGH 23:59 GMT

NET INDICATOR:      M209GROUP
KEY LIST INDICATOR: BH
-------------------------------
NR LUGS  1  2  3  4  5  6
-------------------------------
01 1-0   -  A  -  -  -  A
02 1-0   B  -  B  -  B  -
03 1-0   C  -  -  -  -  -
04 2-0   D  D  D  -  D  D
05 0-3   -  -  E  E  E  E
06 0-4   F  -  -  F  F  -
07 0-4   G  -  -  G  G  -
08 0-4   H  H  H  -  -  H
09 0-4   I  -  -  -  -  I
10 0-4   -  -  -  -  J  -
11 0-4   -  K  -  -  K  K
12 0-4   -  L  L  L  -  -
13 0-5   -  -  M  -  -  -
14 0-5   -  -  N  N  -  N
15 0-5   -  -  O  O  -  -
16 0-5   P  P  -  P  P  P
17 0-5   -  -  -  Q  Q  Q
18 0-5   R  R  R  -  -   
19 0-5   -  S  S  S  S   
20 0-5   -  T  -  T      
21 0-5   U  U  -  -      
22 0-5   V  -  -         
23 0-5   -  -  -         
24 0-5   X  -            
25 0-6   -  -            
26 1-6   Z               
27 2-6                   
-------------------------------
26 LETTER CHECK

GJKKV TNVDL FQPXA JDSRD JCLWW G
-------------------------------



SECRET    SECRET    SECRET    SECRET    SECRET

SECRET    SECRET    SECRET    SECRET    SECRET



EFFECTIVE PERIOD:
05-JUN-2033 00:00 THROUGH 23:59 GMT

NET INDICATOR:      M209GROUP
KEY LIST INDICATOR: BI
-------------------------------
NR LUGS  1  2  3  4  5  6
-------------------------------
01 0-3   -  -  A  -  -  A
02 0-3   B  B  -  B  B  -
03 0-3   -  -  C  -  -  -
04 0-4   -  -  -  D  -  D
05 0-4   -  E  -  -  E  -
06 0-4   F  -  -  F  -  -
07 0-4   G  G  -  -  G  G
08 0-5   H  -  H  H  -  H
09 0-5   -  I  -  -  I  I
10 0-5   -  -  -  J  -  J
11 0-5   -  -  K  K  -  K
12 0-6   L  L  L  -  L  -
13 0-6   -  M  M  M  -  -
14 0-6   N  -  -  -  -  N
15 0-6   O  O  -  -  O  -
16 0-6   P  P  P  -  -  P
17 0-6   -  -  -  Q  Q  -
18 1-5   R  R  -  R  R   
19 2-4   S  S  -  S  S   
20 2-5   T  -  T  T      
21 3-5   -  -  -  U      
22 3-5   -  -  V         
23 3-5   W  X  X         
24 3-5   -  Y            
25 3-6   -  Z            
26 4-5   Z               
27 4-6                   
-------------------------------
26 LETTER CHECK

XBITI XUXPP WZUHX JXRHQ OOWBS U
-------------------------------



SECRET    SECRET    SECRET    SECRET    SECRET

SECRET    SECRET    SECRET    SECRET    SECRET



EFFECTIVE PERIOD:
06-JUN-2033 00:00 THROUGH 23:59 GMT

NET INDICATOR:      M209GROUP
KEY LIST INDICATOR: BJ
-------------------------------
NR LUGS  1  2  3  4  5  6
-------------------------------
01 1-0   A  A  -  A  -  -
02 1-0   -  -  B  -  -  -
03 0-4   C  C  C  -  C  C
04 0-4   -  -  -  -  D  D
05 0-4   E  E  E  E  E  -
06 0-4   -  -  -  F  -  -
07 0-4   G  -  -  G  -  G
08 0-5   -  -  -  H  H  -
09 0-5   -  I  -  -  I  I
10 0-5   J  -  J  -  -  J
11 0-5   K  -  -  K  K  K
12 0-5   -  L  L  -  -  -
13 0-5   M  M  M  -  -  M
14 0-6   N  N  -  -  N  N
15 0-6   O  -  -  -  -  O
16 0-6   -  P  P  -  -  -
17 0-6   -  -  -  Q  -  -
18 1-4   R  R  R  R  -   
19 1-5   S  S  S  S  S   
20 1-5   -  -  -  T      
21 1-5   -  U  -  U      
22 1-5   -  V  V         
23 2-3   W  -  X         
24 2-5   X  -            
25 2-5   Y  Z            
26 2-6   Z               
27 4-6                   
-------------------------------
26 LETTER CHECK

FDVPO HKWNS VQMUH AXMLO MVDKK N
-------------------------------



SECRET    SECRET    SECRET    SECRET    SECRET

SECRET    SECRET    SECRET    SECRET    SECRET



EFFECTIVE PERIOD:
07-JUN-2033 00:00 THROUGH 23:59 GMT

NET INDICATOR:      M209GROUP
KEY LIST INDICATOR: BK
-------------------------------
NR LUGS  1  2  3  4  5  6
-------------------------------
01 1-0   -  -  -  -  A  A
02 0-3   B  -  -  -  -  -
03 0-3   -  -  C  C  -  C
04 0-3   D  -  -  -  D  -
05 0-3   E  E  E  -  E  E
06 0-3   -  -  -  F  F  F
07 0-4   G  G  -  -  G  G
08 0-4   -  -  H  -  -  -
09 0-4   I  I  -  I  -  I
10 0-5   J  -  J  J  -  -
11 0-5   K  -  K  -  -  -
12 0-5   -  L  -  -  L  L
13 0-5   -  -  -  M  M  -
14 0-5   N  N  -  N  -  N
15 0-6   -  O  -  O  O  O
16 0-6   P  -  -  -  P  P
17 0-6   -  -  Q  Q  Q  -
18 0-6   -  R  R  -  -   
19 0-6   S  -  S  -  -   
20 1-4   T  T  T  -      
21 2-3   -  U  U  U      
22 3-6   -  V  -         
23 3-6   W  -  -         
24 3-6   X  Y            
25 3-6   -  Z            
26 4-5   -               
27 5-6                   
-------------------------------
26 LETTER CHECK

MTEXA VJRLK ATXPV MZPOS XPUKS F
-------------------------------



SECRET    SECRET    SECRET    SECRET    SECRET

SECRET    SECRET    SECRET    SECRET    SECRET



EFFECTIVE PERIOD:
08-JUN-2033 00:00 THROUGH 23:59 GMT

NET INDICATOR:      M209GROUP
KEY LIST INDICATOR: BL
-------------------------------
NR LUGS  1  2  3  4  5  6
-------------------------------
01 1-0   -  -  -  -  A  A
02 0-3   B  -  -  B  B  B
03 0-4   C  C  -  -  -  -
04 0-4   D  D  D  D  D  -
05 0-5   E  -  E  E  E  -
06 0-5   F  -  -  -  F  F
07 0-5   G  -  -  G  -  -
08 0-5   -  H  H  -  -  H
09 0-5   -  I  -  -  -  I
10 0-5   -  -  J  -  J  -
11 0-5   K  K  -  K  K  -
12 0-5   -  L  -  -  L  -
13 0-5   -  -  -  -  -  -
14 0-5   -  N  N  N  -  N
15 0-6   -  O  -  -  O  O
16 0-6   P  P  -  P  -  -
17 0-6   Q  Q  Q  Q  -  -
18 0-6   R  -  R  R  R   
19 0-6   S  S  S  -  -   
20 0-6   -  -  T  -      
21 0-6   U  U  U  U      
22 1-2   -  V  V         
23 1-3   -  -  -         
24 3-4   X  -            
25 4-6   -  Z            
26 5-6   Z               
27 5-6                   
-------------------------------
26 LETTER CHECK

QGCAP HPNAL GLZTO PCQMS JMQCN X
-------------------------------



SECRET    SECRET    SECRET    SECRET    SECRET

SECRET    SECRET    SECRET    SECRET    SECRET



EFFECTIVE PERIOD:
09-JUN-2033 00:00 THROUGH 23:59 GMT

NET INDICATOR:      M209GROUP
KEY LIST INDICATOR: BM
-------------------------------
NR LUGS  1  2  3  4  5  6
-------------------------------
01 1-0   -  -  -  -  -  A
02 1-0   -  B  -  -  B  -
03 1-0   C  -  -  C  C  -
04 1-0   -  -  -  D  -  D
05 1-0   E  -  E  E  E  -
06 2-0   -  F  -  F  -  -
07 2-0   G  G  G  -  G  -
08 2-0   H  -  -  H  H  -
09 2-0   -  -  I  I  -  I
10 0-3   J  -  -  J  -  J
11 0-4   K  K  K  K  K  K
12 0-5   L  -  L  L  -  -
13 0-5   -  -  -  M  M  -
14 0-5   N  N  N  -  -  N
15 0-5   O  O  O  -  -  -
16 0-5   P  P  -  -  P  P
17 0-5   Q  Q  Q  Q  -  Q
18 0-5   -  -  -  -  -   
19 0-5   S  S  -  -  S   
20 0-6   -  T  T  -      
21 0-6   -  U  U  U      
22 0-6   V  V  -         
23 0-6   -  -  -         
24 1-2   -  Y            
25 1-5   -  -            
26 2-6   Z               
27 4-6                   
-------------------------------
26 LETTER CHECK

SUFNQ KRUBO UBQIL UMRRB WOMPR N
-------------------------------



SECRET    SECRET    SECRET    SECRET    SECRET

SECRET    SECRET    SECRET    SECRET    SECRET



EFFECTIVE PERIOD:
10-JUN-2033 00:00 THROUGH 23:59 GMT

NET INDICATOR:      M209GROUP
KEY LIST INDICATOR: BN
-------------------------------
NR LUGS  1  2  3  4  5  6
-------------------------------
01 1-0   A  A  -  A  A  A
02 1-0   B  B  -  B  -  B
03 1-0   -  -  -  C  C  C
04 1-0   -  D  D  -  D  D
05 2-0   E  -  E  -  E  -
06 2-0   F  F  -  -  -  F
07 2-0   -  -  G  -  G  -
08 0-3   H  H  -  -  -  -
09 0-3   I  -  I  I  I  I
10 0-4   -  J  J  J  J  -
11 0-4   K  K  -  -  -  -
12 0-4   -  -  L  L  -  -
13 0-4   -  -  -  M  -  -
14 0-4   -  N  N  -  N  -
15 0-4   -  O  O  -  -  O
16 1-3   -  P  -  P  -  -
17 1-3   Q  Q  -  Q  -  -
18 1-3   R  R  R  R  -   
19 1-3   S  S  -  -  S   
20 1-4   T  -  -  -      
21 2-3   -  -  U  -      
22 2-3   -  V  -         
23 2-4   W  -  -         
24 2-5   -  -            
25 3-5   Y  Z            
26 3-5   -               
27 5-6                   
-------------------------------
26 LETTER CHECK

VTSVA HZUDQ QYSJP JULZO NAZJW O
-------------------------------



SECRET    SECRET    SECRET    SECRET    SECRET

SECRET    SECRET    SECRET    SECRET    SECRET



EFFECTIVE PERIOD:
11-JUN-2033 00:00 THROUGH 23:59 GMT

NET INDICATOR:      M209GROUP
KEY LIST INDICATOR: BO
-------------------------------
NR LUGS  1  2  3  4  5  6
-------------------------------
01 2-0   A  -  A  A  A  -
02 2-0   B  -  B  B  B  B
03 2-0   -  C  -  -  -  -
04 2-0   D  -  D  -  D  D
05 2-0   -  -  -  -  E  -
06 0-4   F  -  F  F  -  -
07 0-4   G  -  G  G  -  G
08 0-4   -  H  -  -  -  -
09 0-4   I  -  I  I  I  I
10 0-4   -  J  J  J  -  J
11 0-4   K  K  K  K  -  -
12 0-6   -  L  -  -  -  L
13 0-6   M  M  -  -  M  -
14 0-6   N  -  -  N  -  N
15 0-6   O  -  O  -  -  -
16 0-6   -  P  -  P  P  P
17 0-6   -  Q  Q  -  -  Q
18 1-5   R  -  -  R  -   
19 2-3   -  S  -  -  S   
20 2-5   -  -  -  -      
21 2-5   U  -  -  -      
22 2-6   V  V  V         
23 2-6   -  X  X         
24 2-6   X  Y            
25 2-6   Y  -            
26 4-5   -               
27 4-6                   
-------------------------------
26 LETTER CHECK

ZAMSN SLNUU SEDSI SPIZJ UMZUJ L
-------------------------------



SECRET    SECRET    SECRET    SECRET    SECRET

SECRET    SECRET    SECRET    SECRET    SECRET



EFFECTIVE PERIOD:
12-JUN-2033 00:00 THROUGH 23:59 GMT

NET INDICATOR:      M209GROUP
KEY LIST INDICATOR: BP
-------------------------------
NR LUGS  1  2  3  4  5  6
-------------------------------
01 1-0   -  -  -  -  A  -
02 2-0   -  B  -  -  -  -
03 2-0   C  C  -  C  -  C
04 2-0   -  D  -  -  -  D
05 2-0   E  -  E  E  -  E
06 2-0   F  F  F  F  F  -
07 2-0   -  -  -  -  -  G
08 2-0   H  -  -  -  H  -
09 2-0   -  -  -  -  I  -
10 2-0   -  -  J  -  J  J
11 2-0   K  -  -  K  -  -
12 0-3   -  L  L  L  -  L
13 0-4   -  M  -  -  -  -
14 0-4   -  -  -  N  N  N
15 0-4   O  O  -  -  O  O
16 0-4   P  -  P  -  -  -
17 0-4   Q  Q  Q  Q  Q  Q
18 0-5   R  -  R  R  -   
19 0-5   S  S  -  S  -   
20 0-5   T  -  T  -      
21 0-5   -  -  U  -      
22 0-5   -  V  V         
23 0-5   -  -  X         
24 0-5   -  Y            
25 0-6   -  -            
26 3-4   Z               
27 3-6                   
-------------------------------
26 LETTER CHECK

KIULT MIMJN CHJZR KTGCH HLWLG S
-------------------------------



SECRET    SECRET    SECRET    SECRET    SECRET

SECRET    SECRET    SECRET    SECRET    SECRET



EFFECTIVE PERIOD:
13-JUN-2033 00:00 THROUGH 23:59 GMT

NET INDICATOR:      M209GROUP
KEY LIST INDICATOR: BQ
-------------------------------
NR LUGS  1  2  3  4  5  6
-------------------------------
01 1-0   A  A  A  A  -  -
02 1-0   -  -  -  -  B  B
03 1-0   C  -  -  -  -  C
04 1-0   -  D  -  -  -  D
05 1-0   E  -  E  -  E  E
06 2-0   -  -  F  -  -  F
07 0-3   -  G  -  -  G  -
08 0-3   -  H  -  H  -  -
09 0-3   -  -  -  I  -  I
10 0-4   -  J  -  -  -  -
11 0-4   K  -  -  K  -  K
12 0-4   L  -  L  L  L  -
13 0-4   -  -  -  -  M  -
14 0-4   N  -  N  N  -  -
15 0-4   -  O  O  O  -  O
16 0-4   -  -  -  P  -  P
17 0-5   Q  Q  -  Q  Q  -
18 0-6   R  R  -  -  R   
19 0-6   S  S  S  S  S   
20 0-6   T  -  T  T      
21 0-6   -  U  U  U      
22 1-4   -  -  V         
23 1-4   -  -  X         
24 1-4   X  -            
25 1-6   -  Z            
26 3-5   Z               
27 3-6                   
-------------------------------
26 LETTER CHECK

LVQQV KQPYU SOHIG RJQAL MRUOV S
-------------------------------



SECRET    SECRET    SECRET    SECRET    SECRET

SECRET    SECRET    SECRET    SECRET    SECRET



EFFECTIVE PERIOD:
14-JUN-2033 00:00 THROUGH 23:59 GMT

NET INDICATOR:      M209GROUP
KEY LIST INDICATOR: BR
-------------------------------
NR LUGS  1  2  3  4  5  6
-------------------------------
01 1-0   -  -  -  A  -  -
02 1-0   B  -  -  -  -  B
03 1-0   -  C  -  C  -  C
04 1-0   D  D  -  -  D  D
05 1-0   -  -  E  -  E  E
06 0-4   -  -  F  -  F  F
07 0-4   G  G  -  G  -  -
08 0-4   H  H  H  -  H  -
09 0-5   -  -  I  I  -  -
10 0-5   -  J  -  J  J  -
11 0-5   -  K  K  K  K  -
12 0-5   -  -  -  L  L  L
13 0-6   -  M  M  M  M  -
14 0-6   -  -  -  -  -  N
15 0-6   O  O  -  -  -  -
16 0-6   P  -  -  -  P  P
17 0-6   Q  -  -  -  Q  Q
18 1-5   R  -  R  R  -   
19 1-6   -  -  S  -  -   
20 1-6   -  T  T  T      
21 1-6   -  U  -  -      
22 1-6   V  V  V         
23 2-3   W  -  X         
24 2-4   -  Y            
25 2-6   Y  Z            
26 2-6   -               
27 4-5                   
-------------------------------
26 LETTER CHECK

VVJKG VSRLW MUVJN KZVAJ VHLSF S
-------------------------------



SECRET    SECRET    SECRET    SECRET    SECRET

SECRET    SECRET    SECRET    SECRET    SECRET



EFFECTIVE PERIOD:
15-JUN-2033 00:00 THROUGH 23:59 GMT

NET INDICATOR:      M209GROUP
KEY LIST INDICATOR: BS
-------------------------------
NR LUGS  1  2  3  4  5  6
-------------------------------
01 0-3   -  -  A  -  A  -
02 0-3   -  B  -  B  -  B
03 0-3   C  C  C  C  -  -
04 0-3   -  -  D  -  D  -
05 0-3   E  -  -  -  E  -
06 0-3   F  -  F  -  -  F
07 0-3   G  G  -  G  -  -
08 0-4   -  -  -  -  H  -
09 0-4   I  I  I  -  -  -
10 0-4   -  -  -  -  J  J
11 0-4   K  -  K  -  -  -
12 0-6   L  L  -  L  -  L
13 0-6   M  M  M  -  -  M
14 0-6   -  N  -  N  N  N
15 0-6   -  -  O  -  -  O
16 1-2   -  -  -  P  P  -
17 2-4   -  -  -  Q  -  Q
18 3-4   R  -  R  -  -   
19 3-6   -  -  S  -  S   
20 3-6   -  T  T  T      
21 3-6   -  -  -  U      
22 3-6   -  -  -         
23 4-6   W  -  -         
24 4-6   X  Y            
25 4-6   -  Z            
26 4-6   Z               
27 5-6                   
-------------------------------
26 LETTER CHECK

ZZNSZ NULTB VKWNZ WNCUO ZNVOV S
-------------------------------



SECRET    SECRET    SECRET    SECRET    SECRET

SECRET    SECRET    SECRET    SECRET    SECRET



EFFECTIVE PERIOD:
16-JUN-2033 00:00 THROUGH 23:59 GMT

NET INDICATOR:      M209GROUP
KEY LIST INDICATOR: BT
-------------------------------
NR LUGS  1  2  3  4  5  6
-------------------------------
01 1-0   -  -  -  -  A  -
02 1-0   B  B  -  -  B  -
03 1-0   C  C  C  C  C  C
04 1-0   D  -  D  -  -  -
05 2-0   -  -  E  E  -  E
06 2-0   -  -  F  -  -  F
07 2-0   -  G  -  -  -  G
08 2-0   H  -  H  -  H  H
09 2-0   I  I  -  I  I  I
10 2-0   -  J  -  -  J  -
11 2-0   K  -  K  K  K  -
12 0-3   L  L  L  L  -  -
13 0-4   M  M  -  M  -  -
14 0-6   -  -  -  -  N  N
15 0-6   -  O  O  O  -  O
16 0-6   -  P  P  -  P  P
17 0-6   -  Q  Q  -  -  -
18 0-6   -  -  -  -  R   
19 0-6   S  -  S  S  -   
20 0-6   T  -  -  T      
21 0-6   -  U  -  U      
22 0-6   V  -  -         
23 0-6   -  -  X         
24 1-2   X  Y            
25 1-4   -  Z            
26 3-4   -               
27 3-5                   
-------------------------------
26 LETTER CHECK

KKMSQ MPCIU IMZAS MAMGO WTWPC K
-------------------------------



SECRET    SECRET    SECRET    SECRET    SECRET

SECRET    SECRET    SECRET    SECRET    SECRET



EFFECTIVE PERIOD:
17-JUN-2033 00:00 THROUGH 23:59 GMT

NET INDICATOR:      M209GROUP
KEY LIST INDICATOR: BU
-------------------------------
NR LUGS  1  2  3  4  5  6
-------------------------------
01 2-0   A  A  -  A  A  A
02 2-0   -  -  -  -  -  B
03 2-0   C  C  C  -  C  C
04 2-0   -  D  -  D  D  D
05 2-0   E  -  E  E  -  E
06 2-0   -  -  F  F  -  -
07 2-0   G  -  -  G  -  -
08 2-0   H  H  H  -  -  H
09 2-0   I  -  -  -  -  -
10 2-0   J  -  -  J  -  -
11 2-0   K  -  K  K  K  K
12 0-3   L  -  -  -  -  -
13 0-3   -  M  M  -  -  M
14 0-3   -  N  N  N  -  N
15 0-3   O  O  O  -  O  -
16 0-4   P  -  -  -  P  -
17 0-4   -  Q  Q  -  Q  Q
18 0-5   -  R  R  -  -   
19 0-5   -  -  S  -  S   
20 0-5   -  -  T  -      
21 0-6   U  U  -  U      
22 1-6   -  -  -         
23 2-5   -  -  -         
24 2-5   -  -            
25 3-4   Y  -            
26 3-5   Z               
27 4-6                   
-------------------------------
26 LETTER CHECK

VIPYK LVILF ITIRX JZIVF IAOYY P
-------------------------------



SECRET    SECRET    SECRET    SECRET    SECRET

SECRET    SECRET    SECRET    SECRET    SECRET



EFFECTIVE PERIOD:
18-JUN-2033 00:00 THROUGH 23:59 GMT

NET INDICATOR:      M209GROUP
KEY LIST INDICATOR: BV
-------------------------------
NR LUGS  1  2  3  4  5  6
-------------------------------
01 2-0   -  -  -  A  -  A
02 2-0   B  B  -  -  -  -
03 2-0   -  -  C  -  C  C
04 2-0   -  D  -  -  -  -
05 2-0   -  -  E  E  E  E
06 2-0   F  F  F  F  F  -
07 2-0   -  G  G  -  -  G
08 2-0   -  -  H  -  -  H
09 0-3   -  I  I  -  I  -
10 0-3   J  J  J  -  J  -
11 0-3   K  -  -  K  K  K
12 0-3   L  L  -  -  L  L
13 0-4   M  M  M  M  -  M
14 0-4   N  N  -  -  -  -
15 0-5   -  O  -  -  -  -
16 0-5   P  -  P  P  -  P
17 0-5   -  Q  Q  Q  Q  -
18 0-5   -  -  -  -  R   
19 0-6   S  -  -  S  -   
20 1-6   T  -  -  -      
21 2-3   -  -  -  U      
22 2-3   -  V  -         
23 2-3   -  X  X         
24 2-3   X  Y            
25 3-5   Y  -            
26 4-5   Z               
27 4-6                   
-------------------------------
26 LETTER CHECK

WCTNE IIOQW GCWKW IWYQA METMW Y
-------------------------------



SECRET    SECRET    SECRET    SECRET    SECRET

SECRET    SECRET    SECRET    SECRET    SECRET



EFFECTIVE PERIOD:
19-JUN-2033 00:00 THROUGH 23:59 GMT

NET INDICATOR:      M209GROUP
KEY LIST INDICATOR: BW
-------------------------------
NR LUGS  1  2  3  4  5  6
-------------------------------
01 1-0   -  A  -  A  A  A
02 1-0   B  -  B  B  -  B
03 1-0   -  -  C  -  -  -
04 1-0   -  -  -  D  -  -
05 1-0   -  E  E  -  E  E
06 0-4   F  F  F  -  F  F
07 0-4   -  -  -  -  G  G
08 0-4   -  -  -  H  -  H
09 0-5   -  I  -  -  I  -
10 0-5   -  J  -  J  -  -
11 0-5   -  K  -  -  K  -
12 0-5   -  L  L  L  L  -
13 0-5   M  -  -  -  M  -
14 0-5   N  -  -  -  N  N
15 0-5   -  O  -  -  -  -
16 1-4   P  -  P  -  P  -
17 1-4   Q  Q  -  -  -  -
18 1-4   R  R  -  R  -   
19 1-4   S  S  S  -  -   
20 1-5   -  -  T  T      
21 2-6   U  -  U  U      
22 3-4   V  V  V         
23 3-4   W  X  X         
24 3-5   X  -            
25 3-6   -  Z            
26 4-6   -               
27 4-6                   
-------------------------------
26 LETTER CHECK

SRVNJ SNTAM LGAMO EZZTJ VMARN G
-------------------------------



SECRET    SECRET    SECRET    SECRET    SECRET

SECRET    SECRET    SECRET    SECRET    SECRET



EFFECTIVE PERIOD:
20-JUN-2033 00:00 THROUGH 23:59 GMT

NET INDICATOR:      M209GROUP
KEY LIST INDICATOR: BX
-------------------------------
NR LUGS  1  2  3  4  5  6
-------------------------------
01 1-0   -  A  -  -  -  A
02 1-0   -  B  -  B  -  B
03 1-0   -  C  C  -  -  C
04 1-0   -  -  -  -  -  -
05 2-0   -  E  E  E  -  E
06 0-3   F  F  F  -  -  -
07 0-3   -  G  G  -  G  -
08 0-3   -  -  -  -  H  -
09 0-4   I  I  I  -  I  I
10 0-4   -  J  -  -  -  -
11 0-4   K  K  K  K  K  K
12 0-4   -  L  -  L  L  -
13 0-4   -  -  -  M  M  -
14 0-4   -  -  N  N  -  -
15 0-4   O  -  -  O  O  O
16 0-5   -  P  P  -  -  P
17 0-6   Q  -  Q  Q  -  Q
18 0-6   R  -  R  -  -   
19 0-6   -  -  S  S  S   
20 0-6   T  T  -  T      
21 0-6   -  -  -  U      
22 1-3   V  V  -         
23 1-6   W  -  -         
24 2-3   X  -            
25 4-6   Y  -            
26 4-6   -               
27 4-6                   
-------------------------------
26 LETTER CHECK

VSTFY OUXUN JKFLF PLKFS QWSUI Y
-------------------------------



SECRET    SECRET    SECRET    SECRET    SECRET

SECRET    SECRET    SECRET    SECRET    SECRET



EFFECTIVE PERIOD:
21-JUN-2033 00:00 THROUGH 23:59 GMT

NET INDICATOR:      M209GROUP
KEY LIST INDICATOR: BY
-------------------------------
NR LUGS  1  2  3  4  5  6
-------------------------------
01 2-0   A  -  -  A  A  A
02 2-0   -  -  -  -  -  -
03 2-0   C  -  C  -  C  C
04 2-0   D  D  -  -  -  D
05 2-0   -  -  -  -  E  E
06 2-0   F  -  F  -  -  F
07 0-3   G  G  -  G  -  -
08 0-4   H  H  H  H  H  H
09 0-4   -  I  -  -  I  -
10 0-4   -  -  -  -  J  -
11 0-5   -  K  K  K  K  K
12 0-5   -  L  L  L  -  -
13 0-5   M  -  M  -  M  -
14 0-5   N  N  N  N  N  -
15 0-6   O  O  -  O  -  -
16 0-6   -  P  -  -  P  P
17 0-6   -  Q  Q  Q  Q  Q
18 0-6   -  R  R  R  -   
19 0-6   S  -  -  S  -   
20 1-2   T  -  T  T      
21 2-4   U  -  U  U      
22 2-4   -  -  -         
23 2-4   W  -  -         
24 2-4   X  Y            
25 3-5   -  Z            
26 4-6   Z               
27 5-6                   
-------------------------------
26 LETTER CHECK

TUUMP TPQOU WHMAR OOXQO ORWUW O
-------------------------------



SECRET    SECRET    SECRET    SECRET    SECRET

SECRET    SECRET    SECRET    SECRET    SECRET



EFFECTIVE PERIOD:
22-JUN-2033 00:00 THROUGH 23:59 GMT

NET INDICATOR:      M209GROUP
KEY LIST INDICATOR: BZ
-------------------------------
NR LUGS  1  2  3  4  5  6
-------------------------------
01 1-0   A  -  -  A  -  -
02 2-0   B  B  -  -  -  -
03 2-0   C  -  -  C  -  -
04 2-0   D  D  D  -  -  -
05 2-0   E  -  E  E  -  E
06 2-0   -  F  -  -  F  -
07 0-3   G  -  -  -  G  G
08 0-3   -  -  H  -  -  H
09 0-4   -  I  -  I  -  I
10 0-5   -  J  -  -  -  -
11 0-5   K  K  K  -  K  K
12 0-5   -  -  L  L  L  -
13 0-6   -  M  M  M  M  -
14 0-6   -  -  -  N  N  N
15 0-6   -  O  O  O  O  -
16 0-6   P  -  -  P  -  P
17 0-6   -  Q  Q  -  -  Q
18 0-6   R  R  -  R  R   
19 0-6   S  S  S  S  S   
20 0-6   T  -  -  T      
21 0-6   U  U  U  -      
22 2-3   -  -  V         
23 2-5   W  X  -         
24 3-4   -  Y            
25 5-6   -  Z            
26 5-6   -               
27 5-6                   
-------------------------------
26 LETTER CHECK

YLPAH RXMJI GOHVZ MGRGM ZRUUE M
-------------------------------



SECRET    SECRET    SECRET    SECRET    SECRET

SECRET    SECRET    SECRET    SECRET    SECRET



EFFECTIVE PERIOD:
23-JUN-2033 00:00 THROUGH 23:59 GMT

NET INDICATOR:      M209GROUP
KEY LIST INDICATOR: CA
-------------------------------
NR LUGS  1  2  3  4  5  6
-------------------------------
01 1-0   -  -  A  A  -  A
02 1-0   B  -  B  -  -  B
03 1-0   C  -  -  -  -  -
04 1-0   D  D  D  D  -  -
05 1-0   E  E  E  -  -  E
06 1-0   F  -  -  -  F  -
07 1-0   -  -  G  G  G  G
08 1-0   H  -  -  -  -  H
09 1-0   -  I  -  -  -  -
10 2-0   -  J  J  J  -  J
11 0-3   -  K  K  -  K  -
12 0-3   -  -  -  -  L  L
13 0-4   M  M  -  M  M  M
14 0-4   -  N  -  N  N  -
15 0-4   O  -  O  O  O  -
16 0-5   -  -  P  -  -  P
17 0-6   Q  -  -  -  -  Q
18 0-6   R  R  R  -  -   
19 0-6   S  -  -  -  S   
20 0-6   T  -  -  T      
21 0-6   -  U  -  U      
22 0-6   V  V  -         
23 0-6   W  X  -         
24 1-6   X  -            
25 3-4   -  Z            
26 3-5   -               
27 4-6                   
-------------------------------
26 LETTER CHECK

GZZMN ISYWE EMOWX PVZXO FHOWN V
-------------------------------



SECRET    SECRET    SECRET    SECRET    SECRET

SECRET    SECRET    SECRET    SECRET    SECRET



EFFECTIVE PERIOD:
24-JUN-2033 00:00 THROUGH 23:59 GMT

NET INDICATOR:      M209GROUP
KEY LIST INDICATOR: CB
-------------------------------
NR LUGS  1  2  3  4  5  6
-------------------------------
01 1-0   A  A  A  A  -  A
02 1-0   -  -  B  B  B  B
03 1-0   C  -  C  C  C  C
04 1-0   D  -  -  -  -  -
05 1-0   E  E  E  -  E  E
06 2-0   -  F  F  -  -  -
07 2-0   -  -  G  -  -  G
08 0-4   -  H  H  -  H  -
09 0-4   I  I  I  I  I  I
10 0-4   J  -  -  J  J  -
11 0-4   -  K  K  K  -  -
12 0-4   -  -  -  L  -  L
13 0-4   M  -  -  M  M  -
14 0-5   N  -  N  N  N  N
15 0-5   -  O  -  -  O  -
16 0-5   -  -  -  -  P  -
17 0-5   -  Q  Q  -  -  -
18 1-4   R  -  -  R  -   
19 1-5   S  S  S  S  -   
20 1-5   -  -  T  T      
21 1-5   U  U  -  -      
22 1-5   V  V  -         
23 2-3   W  -  -         
24 2-4   X  Y            
25 2-5   -  -            
26 2-5   -               
27 5-6                   
-------------------------------
26 LETTER CHECK

MSURO RVWKV TWLKK UOTNV YVSRK G
-------------------------------



SECRET    SECRET    SECRET    SECRET    SECRET

SECRET    SECRET    SECRET    SECRET    SECRET



EFFECTIVE PERIOD:
25-JUN-2033 00:00 THROUGH 23:59 GMT

NET INDICATOR:      M209GROUP
KEY LIST INDICATOR: CC
-------------------------------
NR LUGS  1  2  3  4  5  6
-------------------------------
01 2-0   -  -  -  -  A  A
02 2-0   B  -  B  B  -  B
03 2-0   -  C  C  C  C  C
04 2-0   -  D  -  D  -  -
05 0-3   E  -  -  -  E  -
06 0-4   -  F  -  -  -  -
07 0-4   -  G  G  G  G  -
08 0-4   -  H  H  -  -  -
09 0-4   -  -  I  -  -  I
10 0-4   J  J  J  -  J  -
11 0-4   K  -  K  -  -  K
12 0-4   -  -  L  L  L  -
13 0-5   M  M  -  -  M  -
14 0-5   N  N  -  N  -  -
15 0-5   O  O  O  O  O  -
16 0-5   -  -  P  P  P  P
17 0-5   Q  -  -  -  Q  Q
18 0-5   -  -  -  R  -   
19 0-5   S  S  S  S  S   
20 0-5   T  T  -  T      
21 0-5   -  -  -  U      
22 0-5   -  -  -         
23 0-6   W  X  -         
24 0-6   -  -            
25 0-6   -  Z            
26 1-3   Z               
27 3-6                   
-------------------------------
26 LETTER CHECK

RTJRO AKVYD VJTDN LGTGM XCUZA J
-------------------------------



SECRET    SECRET    SECRET    SECRET    SECRET

SECRET    SECRET    SECRET    SECRET    SECRET



EFFECTIVE PERIOD:
26-JUN-2033 00:00 THROUGH 23:59 GMT

NET INDICATOR:      M209GROUP
KEY LIST INDICATOR: CD
-------------------------------
NR LUGS  1  2  3  4  5  6
-------------------------------
01 1-0   A  -  -  A  A  -
02 1-0   -  -  -  -  -  B
03 1-0   -  -  C  -  -  C
04 1-0   -  D  -  D  -  D
05 1-0   -  -  -  E  E  -
06 1-0   F  -  -  F  -  -
07 1-0   -  G  G  -  -  -
08 2-0   -  H  H  -  H  -
09 2-0   -  I  I  -  I  -
10 2-0   -  -  -  J  J  -
11 2-0   K  K  -  -  -  K
12 2-0   -  L  -  -  L  L
13 0-3   M  M  M  -  -  -
14 0-3   N  N  N  -  N  N
15 0-3   O  O  O  O  -  O
16 0-3   P  -  P  P  P  P
17 0-3   Q  Q  -  Q  Q  Q
18 0-3   -  R  -  -  R   
19 0-3   S  S  -  S  -   
20 0-3   -  -  T  T      
21 0-3   U  -  U  U      
22 0-4   -  V  -         
23 0-4   W  -  -         
24 0-5   X  Y            
25 0-6   Y  Z            
26 2-4   -               
27 4-6                   
-------------------------------
26 LETTER CHECK

YRSQK JOYMQ HGNDI AQRSG BPQAZ A
-------------------------------



SECRET    SECRET    SECRET    SECRET    SECRET

SECRET    SECRET    SECRET    SECRET    SECRET



EFFECTIVE PERIOD:
27-JUN-2033 00:00 THROUGH 23:59 GMT

NET INDICATOR:      M209GROUP
KEY LIST INDICATOR: CE
-------------------------------
NR LUGS  1  2  3  4  5  6
-------------------------------
01 1-0   -  -  -  -  A  -
02 1-0   -  B  -  B  -  B
03 1-0   C  -  C  -  C  C
04 1-0   D  D  D  D  -  D
05 1-0   -  E  -  -  -  E
06 1-0   F  F  -  F  F  -
07 2-0   G  -  -  -  -  -
08 2-0   H  -  H  H  H  -
09 2-0   -  I  -  I  I  I
10 2-0   J  J  -  -  J  -
11 0-4   K  -  K  -  -  -
12 0-5   L  L  -  L  L  L
13 0-5   M  M  M  -  M  M
14 0-5   -  -  N  N  N  N
15 0-5   O  O  O  O  O  O
16 0-5   -  P  -  -  -  -
17 0-5   Q  Q  Q  Q  -  Q
18 0-6   -  -  R  R  -   
19 0-6   -  -  -  -  S   
20 1-2   T  -  T  T      
21 1-6   -  -  U  U      
22 2-5   -  -  -         
23 2-5   -  X  X         
24 2-5   -  -            
25 2-5   Y  Z            
26 3-5   Z               
27 4-6                   
-------------------------------
26 LETTER CHECK

PAUOM BEMUL ADLSR TYUKT AVYUA T
-------------------------------



SECRET    SECRET    SECRET    SECRET    SECRET

SECRET    SECRET    SECRET    SECRET    SECRET



EFFECTIVE PERIOD:
28-JUN-2033 00:00 THROUGH 23:59 GMT

NET INDICATOR:      M209GROUP
KEY LIST INDICATOR: CF
-------------------------------
NR LUGS  1  2  3  4  5  6
-------------------------------
01 1-0   -  A  -  A  A  -
02 1-0   -  -  B  B  -  -
03 1-0   C  -  C  -  C  -
04 1-0   -  D  D  D  -  D
05 1-0   E  -  -  -  -  E
06 1-0   F  F  -  -  F  F
07 1-0   -  -  -  -  G  G
08 2-0   H  -  -  -  -  -
09 2-0   -  I  -  I  I  -
10 0-3   J  -  J  -  -  J
11 0-3   -  K  -  K  -  K
12 0-3   -  -  L  L  L  -
13 0-3   M  M  -  -  M  M
14 0-4   -  N  N  N  -  -
15 0-5   -  -  O  -  -  -
16 0-5   P  P  -  P  -  -
17 0-5   Q  -  Q  -  -  Q
18 0-5   R  -  R  -  R   
19 0-5   S  -  -  -  S   
20 1-3   -  T  -  T      
21 1-3   U  -  -  U      
22 1-3   -  -  -         
23 1-3   -  X  X         
24 1-6   -  -            
25 2-4   Y  -            
26 2-5   -               
27 3-5                   
-------------------------------
26 LETTER CHECK

WALSI PHIKS JNLWJ LVCLT UMBUN G
-------------------------------



SECRET    SECRET    SECRET    SECRET    SECRET

SECRET    SECRET    SECRET    SECRET    SECRET



EFFECTIVE PERIOD:
29-JUN-2033 00:00 THROUGH 23:59 GMT

NET INDICATOR:      M209GROUP
KEY LIST INDICATOR: CG
-------------------------------
NR LUGS  1  2  3  4  5  6
-------------------------------
01 1-0   -  A  -  -  A  -
02 2-0   B  B  B  B  -  B
03 0-3   C  -  -  -  C  -
04 0-3   -  D  D  D  D  D
05 0-3   -  E  -  -  E  E
06 0-4   -  F  F  -  -  -
07 0-4   -  -  -  G  G  G
08 0-4   H  -  -  H  H  -
09 0-4   I  I  -  -  -  I
10 0-4   J  -  J  -  -  -
11 0-4   -  -  -  -  K  -
12 0-4   -  -  -  -  L  L
13 0-5   M  -  M  M  -  M
14 0-6   -  N  -  N  N  N
15 0-6   O  -  O  O  -  O
16 0-6   -  -  -  -  P  -
17 0-6   -  -  Q  -  -  -
18 0-6   R  -  -  R  -   
19 0-6   -  S  S  -  -   
20 0-6   T  T  -  T      
21 0-6   U  -  -  -      
22 0-6   -  V  V         
23 0-6   -  X  X         
24 0-6   X  -            
25 0-6   Y  -            
26 1-2   -               
27 2-3                   
-------------------------------
26 LETTER CHECK

HWVPQ NZJTF TSLRD ZJZOT NTKJF N
-------------------------------



SECRET    SECRET    SECRET    SECRET    SECRET

SECRET    SECRET    SECRET    SECRET    SECRET



EFFECTIVE PERIOD:
30-JUN-2033 00:00 THROUGH 23:59 GMT

NET INDICATOR:      M209GROUP
KEY LIST INDICATOR: CH
-------------------------------
NR LUGS  1  2  3  4  5  6
-------------------------------
01 1-0   A  -  -  A  A  A
02 1-0   -  B  -  -  -  -
03 1-0   C  -  -  C  C  C
04 1-0   -  D  D  D  -  -
05 1-0   -  E  -  E  E  E
06 0-3   -  F  F  F  -  -
07 0-3   -  -  -  -  -  G
08 0-4   -  -  H  H  -  H
09 0-4   I  I  I  -  I  I
10 0-4   J  J  J  J  -  -
11 0-4   K  K  K  K  K  K
12 0-4   L  -  -  -  L  L
13 0-4   M  M  -  M  -  -
14 0-4   -  -  N  N  -  -
15 0-4   O  O  O  -  -  -
16 0-5   -  P  -  -  -  P
17 0-5   Q  -  Q  Q  Q  -
18 0-5   R  R  R  -  R   
19 0-6   -  -  S  S  -   
20 1-4   T  -  -  -      
21 1-4   U  -  U  -      
22 1-4   V  V  -         
23 1-4   -  -  X         
24 1-5   X  -            
25 2-6   -  Z            
26 3-5   Z               
27 3-6                   
-------------------------------
26 LETTER CHECK

VXJEV SVFNR OURXO FRFVZ OSUOJ W
-------------------------------



SECRET    SECRET    SECRET    SECRET    SECRET
