EFFECTIVE PERIOD:
28-APR-2033 00:00 THROUGH 23:59 GMT

NET INDICATOR:      M209GROUP
KEY LIST INDICATOR: ZW
-------------------------------
NR LUGS  1  2  3  4  5  6
-------------------------------
01 1-0   A  A  A  A  -  A
02 1-0   B  -  B  -  B  B
03 1-0   -  -  C  C  -  -
04 1-0   D  -  -  D  D  -
05 2-0   -  -  E  E  -  -
06 2-0   -  F  -  F  -  F
07 2-0   G  -  -  -  G  -
08 2-0   H  H  -  -  H  H
09 2-0   I  -  -  -  -  I
10 2-0   J  -  -  -  J  -
11 0-3   -  -  K  -  K  -
12 0-3   L  L  L  L  L  L
13 0-3   M  M  -  -  -  -
14 0-3   N  N  N  N  -  -
15 0-5   -  -  -  -  -  -
16 0-5   P  P  -  P  -  -
17 0-5   -  Q  -  Q  -  Q
18 1-3   -  -  R  -  R   
19 1-5   S  S  -  S  -   
20 2-3   T  -  -  -      
21 2-3   U  U  U  -      
22 2-3   -  V  V         
23 2-3   -  X  -         
24 2-4   -  Y            
25 2-5   -  Z            
26 2-6   -               
27 4-5                   
-------------------------------
26 LETTER CHECK

SNMHX FRRRR RAQBU GMKWK PITWT H
-------------------------------
