EFFECTIVE PERIOD:
20-FEB-2024 00:00 THROUGH 23:59 GMT

NET INDICATOR:      M209GROUP
KEY LIST INDICATOR: AV
-------------------------------
NR LUGS  1  2  3  4  5  6
-------------------------------
01 1-0   A  -  -  A  A  A
02 1-0   B  B  -  B  -  B
03 1-0   C  -  C  -  C  C
04 1-0   D  D  D  -  D  -
05 0-3   -  E  -  E  -  E
06 0-3   F  F  -  -  F  -
07 0-3   G  G  -  -  -  G
08 0-3   -  H  -  -  H  -
09 0-3   -  -  I  -  I  -
10 0-3   -  J  J  -  -  J
11 0-3   K  K  K  K  K  -
12 0-3   L  -  -  L  -  -
13 0-3   -  -  M  M  M  -
14 0-4   N  -  -  -  N  -
15 0-4   O  -  -  -  -  O
16 0-4   -  P  P  P  -  -
17 0-4   -  -  Q  Q  -  Q
18 0-4   -  -  -  R  R   
19 0-4   -  S  -  S  S   
20 0-4   -  T  T  T      
21 0-5   U  U  -  -      
22 1-2   V  V  V         
23 1-4   W  X  X         
24 2-6   X  -            
25 3-4   -  -            
26 3-4   Z               
27 3-4                   
-------------------------------
26 LETTER CHECK

KCMTM QARTU QHSAG CHGOT WRRAQ A
-------------------------------
