EFFECTIVE PERIOD:
25-FEB-2024 00:00 THROUGH 23:59 GMT

NET INDICATOR:      M209GROUP
KEY LIST INDICATOR: BA
-------------------------------
NR LUGS  1  2  3  4  5  6
-------------------------------
01 0-3   A  A  -  A  A  A
02 0-3   -  -  -  B  B  -
03 0-3   -  -  C  C  C  -
04 0-3   -  -  -  -  -  -
05 0-4   -  -  -  E  -  E
06 0-4   F  F  -  -  F  -
07 0-4   -  G  -  -  -  -
08 0-4   H  H  -  -  -  H
09 0-4   I  I  I  I  I  I
10 0-4   -  J  J  -  J  J
11 0-5   -  -  K  K  -  K
12 0-5   L  L  L  -  -  -
13 0-5   M  M  M  M  M  -
14 0-5   -  N  -  -  N  -
15 0-6   O  O  -  O  -  -
16 0-6   -  -  P  P  -  P
17 0-6   Q  Q  -  -  Q  Q
18 1-6   -  R  R  -  -   
19 2-5   -  -  S  S  -   
20 2-6   -  T  -  T      
21 3-4   -  -  U  U      
22 3-6   V  -  V         
23 3-6   -  X  X         
24 3-6   X  Y            
25 3-6   Y  -            
26 4-5   -               
27 5-6                   
-------------------------------
26 LETTER CHECK

SHWJI URVXX NSINJ JPWLS QVPSW L
-------------------------------
