EFFECTIVE PERIOD:
13-FEB-2026 00:00 THROUGH 23:59 GMT

NET INDICATOR:      M209GROUP
KEY LIST INDICATOR: CR
-------------------------------
NR LUGS  1  2  3  4  5  6
-------------------------------
01 1-0   A  -  A  -  -  A
02 1-0   -  B  -  B  -  B
03 1-0   -  C  -  C  -  C
04 0-3   -  D  -  -  D  D
05 0-3   E  E  E  -  -  E
06 0-3   -  -  F  -  F  F
07 0-4   -  G  -  G  -  -
08 0-4   -  H  H  H  H  -
09 0-4   -  I  -  -  I  -
10 0-6   -  -  -  J  J  J
11 0-6   K  -  K  -  -  K
12 0-6   L  -  L  -  -  -
13 0-6   M  M  -  -  -  -
14 0-6   -  -  -  N  N  N
15 0-6   -  -  O  O  O  -
16 1-3   P  -  -  -  P  -
17 1-3   -  -  Q  Q  Q  -
18 1-4   R  -  R  -  -   
19 1-4   S  S  -  S  S   
20 1-4   T  T  -  -      
21 1-4   U  U  U  U      
22 1-5   -  -  V         
23 1-5   -  -  X         
24 2-5   X  Y            
25 3-5   -  Z            
26 3-6   Z               
27 4-6                   
-------------------------------
26 LETTER CHECK

SOQXU MIQZO AXIDH USQIA NQQQQ O
-------------------------------
