EFFECTIVE PERIOD:
22-NOV-2017 00:00 THROUGH 23:59 GMT

NET INDICATOR:      M209GROUP
KEY LIST INDICATOR: RC
-------------------------------
NR LUGS  1  2  3  4  5  6
-------------------------------
01 2-0   -  A  A  -  A  -
02 2-0   B  B  -  B  -  B
03 2-0   -  -  C  C  -  C
04 2-0   -  -  D  -  -  -
05 2-0   E  -  -  E  -  -
06 0-3   -  -  -  F  -  F
07 0-4   -  G  -  G  G  -
08 0-4   -  H  H  H  -  -
09 0-4   I  -  -  -  I  -
10 0-4   J  -  -  -  J  J
11 0-4   K  -  K  -  K  K
12 0-4   L  -  -  -  L  L
13 0-4   -  -  M  M  -  M
14 0-4   N  N  N  N  N  -
15 0-4   -  O  O  -  -  O
16 0-4   -  -  P  P  -  P
17 0-5   Q  Q  Q  -  Q  Q
18 0-5   -  R  -  R  R   
19 0-5   S  S  -  S  -   
20 0-5   T  -  -  T      
21 0-5   -  U  U  -      
22 0-5   V  -  -         
23 0-5   W  -  X         
24 0-5   X  Y            
25 0-6   Y  -            
26 1-6   -               
27 2-6                   
-------------------------------
26 LETTER CHECK

ANQRH UZLKI KPIKR KUQPK BUNDZ Q
-------------------------------
