EFFECTIVE PERIOD:
16-AUG-2017 00:00 THROUGH 23:59 GMT

NET INDICATOR:      M209GROUP
KEY LIST INDICATOR: NI
-------------------------------
NR LUGS  1  2  3  4  5  6
-------------------------------
01 0-3   A  -  -  -  -  A
02 0-3   B  B  -  -  B  -
03 0-3   C  C  C  C  C  C
04 0-3   -  -  D  -  -  -
05 0-3   -  -  -  -  E  -
06 0-4   -  F  -  -  F  F
07 0-4   G  G  -  G  G  G
08 0-4   -  -  H  -  -  H
09 0-4   -  -  I  I  -  -
10 0-5   J  J  J  -  J  -
11 0-5   -  -  K  -  K  K
12 0-6   L  -  -  L  -  L
13 0-6   M  -  M  -  -  -
14 0-6   -  N  N  N  N  N
15 0-6   -  O  -  O  -  -
16 0-6   P  P  P  P  -  P
17 0-6   -  -  Q  Q  -  -
18 1-2   -  -  -  -  R   
19 2-3   -  S  S  S  -   
20 2-3   T  T  -  T      
21 2-5   U  -  U  -      
22 3-4   V  -  -         
23 3-4   -  X  X         
24 3-4   -  -            
25 3-4   -  Z            
26 4-6   Z               
27 5-6                   
-------------------------------
26 LETTER CHECK

UTTWM UNWDV GJWWK IDAVK YDXQT U
-------------------------------
