EFFECTIVE PERIOD:
15-SEP-2022 00:00 THROUGH 23:59 GMT

NET INDICATOR:      M209GROUP
KEY LIST INDICATOR: GS
-------------------------------
NR LUGS  1  2  3  4  5  6
-------------------------------
01 1-0   -  A  -  A  A  -
02 1-0   B  B  B  -  -  B
03 1-0   -  C  -  -  -  C
04 1-0   D  -  D  D  D  -
05 1-0   -  E  -  E  -  -
06 0-3   F  -  F  -  F  F
07 0-3   G  G  -  -  -  -
08 0-3   -  H  H  H  -  -
09 0-3   -  I  -  -  -  I
10 0-3   J  J  J  J  J  J
11 0-5   -  K  -  K  -  -
12 0-6   -  -  L  L  L  L
13 0-6   -  -  -  -  -  -
14 0-6   N  N  -  N  N  -
15 0-6   O  O  O  O  -  -
16 1-3   P  -  -  P  -  P
17 1-6   -  -  Q  Q  Q  Q
18 1-6   -  -  -  -  R   
19 1-6   S  -  S  S  -   
20 1-6   -  -  T  -      
21 2-4   -  U  -  -      
22 2-5   V  -  V         
23 2-6   -  -  -         
24 2-6   X  -            
25 3-5   Y  Z            
26 5-6   -               
27 5-6                   
-------------------------------
26 LETTER CHECK

RTFQA UAZZS DNTNJ USWNN NNMMW V
-------------------------------
