EFFECTIVE PERIOD:
30-AUG-2013 00:00 THROUGH 23:59 GMT

NET INDICATOR:      M209GROUP
KEY LIST INDICATOR: JR
-------------------------------
NR LUGS  1  2  3  4  5  6
-------------------------------
01 2-0   -  -  -  -  A  -
02 2-0   B  B  B  B  B  -
03 2-0   C  C  C  -  -  -
04 0-3   D  D  D  -  -  D
05 0-3   E  -  -  -  E  -
06 0-3   -  F  F  -  F  F
07 0-3   G  G  -  -  -  G
08 0-3   -  H  -  H  -  H
09 0-3   -  I  I  I  -  -
10 0-4   J  -  J  J  J  -
11 0-4   -  -  -  K  -  -
12 0-4   -  -  L  -  L  -
13 0-4   M  -  -  M  -  -
14 0-4   N  N  -  N  N  N
15 0-4   -  O  O  O  -  -
16 0-5   P  -  -  P  P  P
17 0-6   Q  Q  -  -  Q  Q
18 0-6   R  -  R  -  -   
19 0-6   S  -  S  S  -   
20 1-3   T  T  -  T      
21 2-3   -  U  U  -      
22 2-3   V  V  V         
23 2-3   -  -  -         
24 2-3   -  -            
25 2-4   Y  Z            
26 4-6   -               
27 5-6                   
-------------------------------
26 LETTER CHECK

RSRMM UTVMC SKUUN KORVX FULNX H
-------------------------------
