EFFECTIVE PERIOD:
03-MAY-2016 00:00 THROUGH 23:59 GMT

NET INDICATOR:      M209GROUP
KEY LIST INDICATOR: VG
-------------------------------
NR LUGS  1  2  3  4  5  6
-------------------------------
01 1-0   A  A  -  -  -  A
02 1-0   -  -  -  -  B  B
03 1-0   -  -  C  -  -  -
04 1-0   -  D  D  D  D  -
05 1-0   -  -  E  E  E  -
06 0-3   -  F  F  F  -  F
07 0-3   G  G  -  -  -  G
08 0-4   H  H  -  H  H  -
09 0-4   -  -  -  -  -  I
10 0-4   -  J  -  J  J  -
11 0-4   -  -  -  K  K  K
12 0-4   L  L  -  -  L  L
13 0-5   M  M  M  M  -  M
14 0-5   -  -  -  -  -  -
15 0-5   -  O  O  O  -  -
16 0-5   P  P  P  -  -  -
17 0-5   Q  Q  -  -  Q  Q
18 0-5   R  -  -  -  -   
19 0-5   -  -  -  -  -   
20 0-5   T  T  T  -      
21 0-6   U  -  U  U      
22 1-3   -  V  V         
23 1-4   -  X  -         
24 2-6   X  Y            
25 3-6   Y  -            
26 4-5   -               
27 4-5                   
-------------------------------
26 LETTER CHECK

YLSZG RFFSR ZRVNM PITYS AHKQP F
-------------------------------
