SECRET    SECRET    SECRET    SECRET    SECRET

NET INDICATOR M209GROUP

KEY LIST FOR MONTH OF FEB 2021

    01 FEB 2021  00:00-23:59 GMT:  USE KEY JZ
    02 FEB 2021  00:00-23:59 GMT:  USE KEY KA
    03 FEB 2021  00:00-23:59 GMT:  USE KEY KB
    04 FEB 2021  00:00-23:59 GMT:  USE KEY KC
    05 FEB 2021  00:00-23:59 GMT:  USE KEY KD
    06 FEB 2021  00:00-23:59 GMT:  USE KEY KE
    07 FEB 2021  00:00-23:59 GMT:  USE KEY KF
    08 FEB 2021  00:00-23:59 GMT:  USE KEY KG
    09 FEB 2021  00:00-23:59 GMT:  USE KEY KH
    10 FEB 2021  00:00-23:59 GMT:  USE KEY KI
    11 FEB 2021  00:00-23:59 GMT:  USE KEY KJ
    12 FEB 2021  00:00-23:59 GMT:  USE KEY KK
    13 FEB 2021  00:00-23:59 GMT:  USE KEY KL
    14 FEB 2021  00:00-23:59 GMT:  USE KEY KM
    15 FEB 2021  00:00-23:59 GMT:  USE KEY KN
    16 FEB 2021  00:00-23:59 GMT:  USE KEY KO
    17 FEB 2021  00:00-23:59 GMT:  USE KEY KP
    18 FEB 2021  00:00-23:59 GMT:  USE KEY KQ
    19 FEB 2021  00:00-23:59 GMT:  USE KEY KR
    20 FEB 2021  00:00-23:59 GMT:  USE KEY KS
    21 FEB 2021  00:00-23:59 GMT:  USE KEY KT
    22 FEB 2021  00:00-23:59 GMT:  USE KEY KU
    23 FEB 2021  00:00-23:59 GMT:  USE KEY KV
    24 FEB 2021  00:00-23:59 GMT:  USE KEY KW
    25 FEB 2021  00:00-23:59 GMT:  USE KEY KX
    26 FEB 2021  00:00-23:59 GMT:  USE KEY KY
    27 FEB 2021  00:00-23:59 GMT:  USE KEY KZ
    28 FEB 2021  00:00-23:59 GMT:  USE KEY LA

SECRET    SECRET    SECRET    SECRET    SECRET



SECRET    SECRET    SECRET    SECRET    SECRET



EFFECTIVE PERIOD:
01-FEB-2021 00:00 THROUGH 23:59 GMT

NET INDICATOR:      M209GROUP
KEY LIST INDICATOR: JZ
-------------------------------
NR LUGS  1  2  3  4  5  6
-------------------------------
01 1-0   -  A  A  -  A  -
02 1-0   B  -  B  -  -  B
03 1-0   C  -  -  -  C  -
04 1-0   -  D  -  D  D  -
05 1-0   -  -  -  E  E  E
06 2-0   -  F  F  -  -  -
07 2-0   -  -  -  -  -  -
08 2-0   H  -  H  H  -  -
09 2-0   I  -  I  I  -  I
10 0-4   J  -  -  J  J  -
11 0-4   -  K  K  -  -  K
12 0-4   -  L  -  L  -  L
13 0-5   -  -  M  -  M  M
14 0-5   N  -  -  -  N  N
15 0-5   -  -  -  O  O  O
16 1-2   P  P  -  P  P  -
17 1-4   -  Q  Q  -  -  -
18 2-6   R  -  -  -  -   
19 3-6   S  -  S  -  -   
20 4-5   T  -  T  T      
21 4-5   -  U  -  U      
22 4-5   V  V  V         
23 4-5   -  X  -         
24 5-6   -  Y            
25 5-6   Y  -            
26 5-6   Z               
27 5-6                   
-------------------------------
26 LETTER CHECK

MRAWT AMNVL SRUNF FNQTM WRRON F
-------------------------------



SECRET    SECRET    SECRET    SECRET    SECRET

SECRET    SECRET    SECRET    SECRET    SECRET



EFFECTIVE PERIOD:
02-FEB-2021 00:00 THROUGH 23:59 GMT

NET INDICATOR:      M209GROUP
KEY LIST INDICATOR: KA
-------------------------------
NR LUGS  1  2  3  4  5  6
-------------------------------
01 2-0   -  A  A  -  -  -
02 2-0   B  -  B  -  B  -
03 2-0   -  -  C  -  C  C
04 2-0   D  -  D  -  -  D
05 2-0   E  E  -  E  E  -
06 2-0   F  F  -  -  F  -
07 0-4   G  G  G  -  G  -
08 0-4   -  -  -  H  -  -
09 0-4   -  I  I  -  I  I
10 0-4   -  -  J  J  -  J
11 0-6   K  -  -  K  K  -
12 0-6   -  -  L  -  -  L
13 0-6   -  -  -  -  M  -
14 0-6   -  -  -  -  -  N
15 0-6   -  -  -  O  O  O
16 1-4   P  P  P  -  -  P
17 1-5   Q  -  Q  -  -  Q
18 2-4   R  R  R  R  -   
19 2-4   S  S  -  S  -   
20 2-4   -  -  -  T      
21 2-4   -  -  U  U      
22 2-6   -  V  -         
23 3-4   -  X  X         
24 4-5   X  -            
25 4-5   Y  Z            
26 4-6   -               
27 5-6                   
-------------------------------
26 LETTER CHECK

BVNWS TTTUM VLFOE TAMUT KKKTZ A
-------------------------------



SECRET    SECRET    SECRET    SECRET    SECRET

SECRET    SECRET    SECRET    SECRET    SECRET



EFFECTIVE PERIOD:
03-FEB-2021 00:00 THROUGH 23:59 GMT

NET INDICATOR:      M209GROUP
KEY LIST INDICATOR: KB
-------------------------------
NR LUGS  1  2  3  4  5  6
-------------------------------
01 2-0   A  -  -  A  -  A
02 2-0   -  -  B  -  B  -
03 2-0   C  -  -  -  -  C
04 2-0   D  -  D  D  -  -
05 2-0   E  E  E  E  E  -
06 2-0   -  -  -  F  -  F
07 2-0   G  -  -  -  G  G
08 2-0   H  -  -  -  H  -
09 2-0   I  -  -  I  I  -
10 2-0   -  J  -  -  -  J
11 2-0   K  K  K  -  K  K
12 0-3   L  L  L  L  -  L
13 0-4   -  M  M  -  M  M
14 0-4   -  -  -  N  N  -
15 0-4   -  O  O  O  -  O
16 0-4   -  P  -  -  -  P
17 0-4   -  Q  Q  Q  -  -
18 0-4   -  R  -  -  -   
19 0-6   S  -  -  S  -   
20 0-6   -  -  T  -      
21 0-6   U  -  U  U      
22 0-6   V  V  V         
23 0-6   -  X  -         
24 1-5   -  Y            
25 1-6   -  Z            
26 2-4   -               
27 4-6                   
-------------------------------
26 LETTER CHECK

SAZON HKTTZ LCOPK NHOHH UUASH S
-------------------------------



SECRET    SECRET    SECRET    SECRET    SECRET

SECRET    SECRET    SECRET    SECRET    SECRET



EFFECTIVE PERIOD:
04-FEB-2021 00:00 THROUGH 23:59 GMT

NET INDICATOR:      M209GROUP
KEY LIST INDICATOR: KC
-------------------------------
NR LUGS  1  2  3  4  5  6
-------------------------------
01 1-0   -  A  A  -  A  A
02 1-0   -  -  B  B  B  -
03 1-0   C  C  C  -  C  C
04 1-0   -  D  D  -  D  -
05 1-0   -  E  E  -  E  E
06 1-0   -  F  -  -  -  -
07 2-0   -  -  G  -  -  -
08 2-0   H  H  -  H  -  -
09 2-0   I  -  -  I  I  I
10 2-0   J  -  J  J  -  J
11 2-0   -  -  -  K  K  -
12 0-6   -  L  L  L  -  L
13 0-6   M  M  -  -  -  M
14 0-6   N  -  N  -  N  N
15 0-6   O  O  O  -  O  O
16 1-2   -  -  P  P  -  P
17 1-6   Q  -  -  -  Q  -
18 1-6   R  R  R  -  R   
19 1-6   -  S  -  -  -   
20 1-6   -  -  -  T      
21 2-5   U  -  -  U      
22 2-6   V  -  -         
23 3-4   -  X  X         
24 4-5   X  Y            
25 4-6   Y  Z            
26 5-6   -               
27 5-6                   
-------------------------------
26 LETTER CHECK

ITVUT UONWA MUESI SUCAU UOTSV V
-------------------------------



SECRET    SECRET    SECRET    SECRET    SECRET

SECRET    SECRET    SECRET    SECRET    SECRET



EFFECTIVE PERIOD:
05-FEB-2021 00:00 THROUGH 23:59 GMT

NET INDICATOR:      M209GROUP
KEY LIST INDICATOR: KD
-------------------------------
NR LUGS  1  2  3  4  5  6
-------------------------------
01 2-0   A  -  -  A  -  -
02 0-3   B  -  -  -  B  -
03 0-3   -  C  -  C  -  C
04 0-3   -  D  D  D  D  D
05 0-3   -  E  -  E  E  -
06 0-4   F  -  F  -  -  -
07 0-4   G  -  -  G  G  G
08 0-4   H  H  H  H  H  -
09 0-4   -  I  I  -  I  -
10 0-4   J  J  J  -  -  -
11 0-4   -  K  K  K  K  -
12 0-6   -  -  -  -  L  -
13 0-6   -  -  -  -  -  M
14 0-6   -  N  N  N  N  -
15 0-6   O  O  -  O  -  O
16 1-2   P  P  -  -  -  P
17 1-5   -  -  Q  Q  Q  Q
18 1-6   R  -  R  R  R   
19 2-3   -  -  -  -  -   
20 2-6   T  -  T  T      
21 2-6   -  U  U  -      
22 2-6   V  -  -         
23 3-4   -  -  X         
24 4-6   -  Y            
25 4-6   -  Z            
26 4-6   -               
27 4-6                   
-------------------------------
26 LETTER CHECK

MQUFZ TUPZA ONNZG VNIMA MPSXG S
-------------------------------



SECRET    SECRET    SECRET    SECRET    SECRET

SECRET    SECRET    SECRET    SECRET    SECRET



EFFECTIVE PERIOD:
06-FEB-2021 00:00 THROUGH 23:59 GMT

NET INDICATOR:      M209GROUP
KEY LIST INDICATOR: KE
-------------------------------
NR LUGS  1  2  3  4  5  6
-------------------------------
01 1-0   A  -  -  A  -  A
02 2-0   B  -  -  B  B  -
03 2-0   -  C  C  C  -  C
04 2-0   -  -  D  -  -  -
05 2-0   E  E  E  -  E  -
06 2-0   -  -  F  -  F  F
07 2-0   G  -  -  -  -  G
08 2-0   H  H  H  -  H  H
09 2-0   I  -  I  I  I  -
10 2-0   -  J  J  -  -  -
11 2-0   K  K  -  -  K  -
12 2-0   L  -  L  -  L  -
13 2-0   M  -  M  -  -  M
14 2-0   N  -  -  N  N  N
15 0-3   -  O  -  O  O  O
16 0-3   P  -  -  P  -  -
17 0-3   -  -  Q  Q  Q  -
18 0-3   -  R  -  R  -   
19 0-3   -  -  -  S  S   
20 0-3   -  -  T  -      
21 0-4   U  U  -  U      
22 0-4   -  -  -         
23 0-4   -  X  X         
24 0-4   -  -            
25 0-6   Y  Z            
26 4-5   Z               
27 5-6                   
-------------------------------
26 LETTER CHECK

PEGZG GXCRN SFJVH VBLVJ OWMFH R
-------------------------------



SECRET    SECRET    SECRET    SECRET    SECRET

SECRET    SECRET    SECRET    SECRET    SECRET



EFFECTIVE PERIOD:
07-FEB-2021 00:00 THROUGH 23:59 GMT

NET INDICATOR:      M209GROUP
KEY LIST INDICATOR: KF
-------------------------------
NR LUGS  1  2  3  4  5  6
-------------------------------
01 1-0   -  -  A  -  A  A
02 1-0   -  -  -  B  B  -
03 1-0   -  -  -  C  -  -
04 1-0   -  D  D  D  D  D
05 1-0   E  -  -  E  E  -
06 1-0   F  F  F  -  F  -
07 1-0   -  -  -  -  -  -
08 1-0   -  -  -  H  -  -
09 1-0   I  -  -  I  I  -
10 1-0   J  -  J  -  J  -
11 2-0   -  -  K  -  K  K
12 2-0   -  L  L  -  -  L
13 2-0   M  M  M  M  M  M
14 2-0   -  N  N  N  -  N
15 2-0   O  -  O  O  -  O
16 2-0   -  P  -  -  -  -
17 2-0   Q  -  -  Q  -  Q
18 2-0   R  R  R  -  -   
19 0-3   S  -  S  -  S   
20 0-4   -  T  T  -      
21 0-6   -  -  -  U      
22 1-2   V  -  V         
23 1-2   W  X  -         
24 1-2   X  -            
25 2-4   Y  Z            
26 4-5   -               
27 5-6                   
-------------------------------
26 LETTER CHECK

FARXF MPPZO QDDEL NYECP QFOAO P
-------------------------------



SECRET    SECRET    SECRET    SECRET    SECRET

SECRET    SECRET    SECRET    SECRET    SECRET



EFFECTIVE PERIOD:
08-FEB-2021 00:00 THROUGH 23:59 GMT

NET INDICATOR:      M209GROUP
KEY LIST INDICATOR: KG
-------------------------------
NR LUGS  1  2  3  4  5  6
-------------------------------
01 1-0   A  -  -  -  -  A
02 1-0   B  -  -  B  -  -
03 1-0   -  -  -  -  C  -
04 1-0   D  D  -  -  D  -
05 1-0   E  -  E  -  E  -
06 1-0   -  F  F  -  F  -
07 2-0   -  G  G  -  G  G
08 2-0   -  -  -  H  -  H
09 2-0   -  -  I  I  I  I
10 2-0   J  -  -  -  -  -
11 2-0   -  K  K  K  -  K
12 2-0   L  -  L  L  -  -
13 2-0   -  -  M  M  -  -
14 0-3   N  N  N  -  N  N
15 0-3   -  -  -  O  -  O
16 0-3   P  P  P  P  P  P
17 0-3   -  Q  Q  -  Q  -
18 0-4   R  -  R  -  R   
19 0-4   S  -  -  S  -   
20 1-3   T  -  -  -      
21 1-4   -  U  U  U      
22 2-3   V  V  V         
23 2-3   -  -  -         
24 2-3   X  Y            
25 2-3   -  Z            
26 2-5   -               
27 4-6                   
-------------------------------
26 LETTER CHECK

SLASR BWRSL PIIBY QUPID SUQNW J
-------------------------------



SECRET    SECRET    SECRET    SECRET    SECRET

SECRET    SECRET    SECRET    SECRET    SECRET



EFFECTIVE PERIOD:
09-FEB-2021 00:00 THROUGH 23:59 GMT

NET INDICATOR:      M209GROUP
KEY LIST INDICATOR: KH
-------------------------------
NR LUGS  1  2  3  4  5  6
-------------------------------
01 1-0   -  A  -  -  A  A
02 1-0   -  B  -  -  -  B
03 1-0   -  -  C  C  C  C
04 1-0   D  -  D  -  -  D
05 1-0   -  -  E  E  E  -
06 1-0   F  F  F  -  -  F
07 1-0   G  G  G  G  -  -
08 1-0   H  H  -  H  -  H
09 1-0   -  -  I  -  I  -
10 2-0   -  J  -  J  -  J
11 0-3   K  -  K  K  K  -
12 0-3   -  L  -  L  -  L
13 0-3   M  M  M  -  M  M
14 0-3   -  -  N  -  -  -
15 0-3   -  -  -  O  -  -
16 0-3   -  P  -  P  -  -
17 0-3   -  Q  -  Q  Q  -
18 0-6   R  -  -  -  R   
19 0-6   S  S  -  S  -   
20 0-6   -  T  T  -      
21 0-6   U  -  -  U      
22 1-3   V  V  -         
23 1-3   W  X  X         
24 1-3   -  -            
25 3-6   -  Z            
26 4-5   -               
27 5-6                   
-------------------------------
26 LETTER CHECK

KHTMB OVSHP HBRLY LAMAG NLLVG G
-------------------------------



SECRET    SECRET    SECRET    SECRET    SECRET

SECRET    SECRET    SECRET    SECRET    SECRET



EFFECTIVE PERIOD:
10-FEB-2021 00:00 THROUGH 23:59 GMT

NET INDICATOR:      M209GROUP
KEY LIST INDICATOR: KI
-------------------------------
NR LUGS  1  2  3  4  5  6
-------------------------------
01 1-0   A  -  A  A  A  A
02 1-0   -  -  -  B  -  -
03 1-0   -  -  -  -  C  C
04 1-0   -  D  D  D  D  -
05 1-0   -  -  E  -  E  E
06 1-0   F  -  F  -  -  F
07 1-0   -  G  G  G  -  -
08 1-0   H  -  H  H  -  -
09 1-0   I  I  -  I  -  -
10 0-3   -  -  J  -  -  J
11 0-3   -  -  K  K  K  -
12 0-3   L  L  -  L  L  L
13 0-3   M  -  -  M  M  -
14 0-3   N  -  -  -  N  -
15 0-4   -  O  O  -  -  O
16 0-6   P  -  -  -  P  -
17 0-6   Q  -  Q  Q  Q  -
18 0-6   R  R  -  -  -   
19 0-6   -  S  -  -  -   
20 0-6   -  T  T  -      
21 0-6   U  -  -  -      
22 0-6   -  V  -         
23 0-6   W  -  X         
24 0-6   -  Y            
25 0-6   -  -            
26 2-5   -               
27 3-5                   
-------------------------------
26 LETTER CHECK

LZKGM KFTBR HUMFG GZHUQ HMJKZ B
-------------------------------



SECRET    SECRET    SECRET    SECRET    SECRET

SECRET    SECRET    SECRET    SECRET    SECRET



EFFECTIVE PERIOD:
11-FEB-2021 00:00 THROUGH 23:59 GMT

NET INDICATOR:      M209GROUP
KEY LIST INDICATOR: KJ
-------------------------------
NR LUGS  1  2  3  4  5  6
-------------------------------
01 1-0   -  -  -  A  -  A
02 1-0   B  -  B  -  -  -
03 1-0   C  C  C  C  C  C
04 2-0   -  -  -  D  D  -
05 2-0   -  E  E  E  E  -
06 2-0   -  -  F  F  -  F
07 0-3   G  -  G  -  G  G
08 0-3   H  H  -  -  -  -
09 0-3   -  -  -  I  I  -
10 0-3   J  -  J  J  J  -
11 0-3   -  K  -  -  -  -
12 0-3   -  L  L  L  -  L
13 0-3   M  -  M  M  M  M
14 0-6   N  -  N  -  N  -
15 0-6   -  -  -  -  O  O
16 0-6   -  P  P  -  -  -
17 0-6   Q  Q  -  -  Q  Q
18 1-5   R  -  R  -  -   
19 1-6   -  -  -  -  S   
20 2-3   T  T  T  T      
21 2-3   U  U  -  U      
22 2-3   -  V  -         
23 2-3   W  X  -         
24 2-6   X  Y            
25 3-5   Y  Z            
26 3-5   Z               
27 4-5                   
-------------------------------
26 LETTER CHECK

NTADW PVTNR POXRO QOHRS HXSWM M
-------------------------------



SECRET    SECRET    SECRET    SECRET    SECRET

SECRET    SECRET    SECRET    SECRET    SECRET



EFFECTIVE PERIOD:
12-FEB-2021 00:00 THROUGH 23:59 GMT

NET INDICATOR:      M209GROUP
KEY LIST INDICATOR: KK
-------------------------------
NR LUGS  1  2  3  4  5  6
-------------------------------
01 1-0   -  -  A  A  -  -
02 1-0   -  B  B  -  B  -
03 1-0   C  -  -  -  C  C
04 1-0   -  -  D  -  D  -
05 2-0   -  -  E  E  E  E
06 0-3   -  -  -  F  -  F
07 0-4   G  G  G  G  -  -
08 0-5   -  -  -  H  -  -
09 0-5   I  I  I  I  I  -
10 0-5   J  J  -  -  J  J
11 0-5   K  -  -  -  -  K
12 0-5   L  L  L  L  L  L
13 0-5   M  -  -  -  M  -
14 0-6   -  N  N  N  -  -
15 0-6   O  -  -  -  -  -
16 0-6   -  P  -  -  -  P
17 0-6   -  Q  Q  -  -  Q
18 0-6   R  R  R  -  R   
19 0-6   -  S  -  -  S   
20 0-6   T  -  -  T      
21 0-6   U  U  -  -      
22 0-6   V  -  V         
23 0-6   W  X  -         
24 1-3   -  Y            
25 1-5   Y  Z            
26 3-4   -               
27 5-6                   
-------------------------------
26 LETTER CHECK

UUGDI QXODZ LUSID BVZNN PHTSA M
-------------------------------



SECRET    SECRET    SECRET    SECRET    SECRET

SECRET    SECRET    SECRET    SECRET    SECRET



EFFECTIVE PERIOD:
13-FEB-2021 00:00 THROUGH 23:59 GMT

NET INDICATOR:      M209GROUP
KEY LIST INDICATOR: KL
-------------------------------
NR LUGS  1  2  3  4  5  6
-------------------------------
01 2-0   A  -  A  A  -  -
02 2-0   -  B  B  -  B  -
03 2-0   -  C  -  -  -  C
04 0-3   D  D  -  D  D  -
05 0-3   E  E  -  -  E  E
06 0-3   -  -  F  F  -  F
07 0-3   -  -  -  -  -  G
08 0-4   -  -  H  -  H  H
09 0-5   I  -  -  -  I  I
10 0-5   -  -  -  J  -  -
11 0-5   K  K  -  K  -  -
12 0-5   -  L  -  L  -  L
13 0-5   -  M  M  -  -  -
14 0-5   N  N  -  N  N  N
15 0-5   -  O  O  -  O  O
16 0-5   P  -  -  -  -  -
17 0-5   -  Q  Q  -  Q  Q
18 0-6   -  R  -  R  R   
19 0-6   S  -  S  S  -   
20 1-6   -  -  T  -      
21 2-3   -  -  -  -      
22 2-6   -  V  -         
23 3-4   W  X  X         
24 4-5   X  Y            
25 4-5   Y  Z            
26 4-5   -               
27 4-5                   
-------------------------------
26 LETTER CHECK

FORZD TXFFA JWWHN ZMFJG JUXHX R
-------------------------------



SECRET    SECRET    SECRET    SECRET    SECRET

SECRET    SECRET    SECRET    SECRET    SECRET



EFFECTIVE PERIOD:
14-FEB-2021 00:00 THROUGH 23:59 GMT

NET INDICATOR:      M209GROUP
KEY LIST INDICATOR: KM
-------------------------------
NR LUGS  1  2  3  4  5  6
-------------------------------
01 1-0   -  A  -  -  -  -
02 1-0   -  B  -  B  -  -
03 1-0   C  -  C  C  -  C
04 1-0   -  D  D  D  D  -
05 2-0   -  E  E  -  E  -
06 2-0   -  -  -  F  -  F
07 2-0   -  G  -  -  -  -
08 2-0   H  H  -  H  H  -
09 2-0   I  -  I  -  -  -
10 2-0   -  J  J  -  J  -
11 2-0   -  K  -  K  K  K
12 0-3   L  L  L  -  -  -
13 0-4   -  -  -  -  M  -
14 0-4   -  N  -  N  N  N
15 0-4   O  O  -  O  -  O
16 0-4   P  -  -  P  -  P
17 0-5   Q  -  -  -  -  Q
18 0-5   R  -  R  R  R   
19 0-5   S  -  S  -  S   
20 0-5   -  T  -  -      
21 0-5   U  U  U  -      
22 1-4   V  -  -         
23 1-5   -  X  X         
24 2-5   -  -            
25 2-5   -  -            
26 3-4   Z               
27 3-6                   
-------------------------------
26 LETTER CHECK

PRRLC VUKIC KUWIQ OFPWM PRUGO T
-------------------------------



SECRET    SECRET    SECRET    SECRET    SECRET

SECRET    SECRET    SECRET    SECRET    SECRET



EFFECTIVE PERIOD:
15-FEB-2021 00:00 THROUGH 23:59 GMT

NET INDICATOR:      M209GROUP
KEY LIST INDICATOR: KN
-------------------------------
NR LUGS  1  2  3  4  5  6
-------------------------------
01 1-0   -  -  A  A  -  -
02 2-0   B  -  -  -  B  -
03 2-0   -  -  C  -  -  C
04 2-0   -  D  D  -  -  -
05 2-0   -  E  -  E  -  -
06 0-3   F  -  F  -  -  F
07 0-4   -  -  -  G  G  G
08 0-4   H  H  H  -  -  -
09 0-4   I  I  I  -  I  -
10 0-4   -  J  -  -  -  J
11 0-4   -  K  K  K  K  K
12 0-4   L  -  -  L  -  -
13 0-4   M  -  M  M  M  M
14 0-4   N  N  -  N  -  N
15 0-4   -  -  O  -  -  -
16 0-4   P  P  P  -  P  -
17 0-4   -  -  -  Q  Q  -
18 0-4   -  -  -  -  -   
19 0-5   -  S  -  S  S   
20 0-6   -  T  T  T      
21 0-6   -  -  U  U      
22 0-6   V  V  V         
23 0-6   -  -  -         
24 0-6   -  -            
25 0-6   Y  -            
26 1-2   Z               
27 1-5                   
-------------------------------
26 LETTER CHECK

UTGFS GPTMV DZJSG RJGIY ZQPDI M
-------------------------------



SECRET    SECRET    SECRET    SECRET    SECRET

SECRET    SECRET    SECRET    SECRET    SECRET



EFFECTIVE PERIOD:
16-FEB-2021 00:00 THROUGH 23:59 GMT

NET INDICATOR:      M209GROUP
KEY LIST INDICATOR: KO
-------------------------------
NR LUGS  1  2  3  4  5  6
-------------------------------
01 1-0   -  -  A  A  A  A
02 1-0   B  -  B  B  B  -
03 1-0   C  -  -  C  -  C
04 1-0   D  -  -  -  -  -
05 1-0   E  E  -  E  -  -
06 2-0   F  F  F  F  F  F
07 2-0   -  G  G  G  G  G
08 2-0   -  H  -  H  -  -
09 2-0   I  -  -  I  -  I
10 2-0   -  -  J  -  J  J
11 0-5   -  -  -  K  -  -
12 0-5   -  -  -  -  L  L
13 0-5   -  -  M  M  -  -
14 0-5   N  -  -  -  N  -
15 0-5   O  O  -  -  O  -
16 1-2   -  P  P  -  P  -
17 1-2   -  Q  -  -  Q  Q
18 1-2   R  R  R  -  -   
19 1-2   S  -  S  S  S   
20 1-4   T  T  -  -      
21 1-4   U  U  U  U      
22 1-6   V  V  V         
23 1-6   W  X  X         
24 2-5   -  Y            
25 3-6   -  -            
26 4-5   Z               
27 4-6                   
-------------------------------
26 LETTER CHECK

SNZYU ZVATV PEOVU VVSNV ZJHKV T
-------------------------------



SECRET    SECRET    SECRET    SECRET    SECRET

SECRET    SECRET    SECRET    SECRET    SECRET



EFFECTIVE PERIOD:
17-FEB-2021 00:00 THROUGH 23:59 GMT

NET INDICATOR:      M209GROUP
KEY LIST INDICATOR: KP
-------------------------------
NR LUGS  1  2  3  4  5  6
-------------------------------
01 2-0   -  -  A  -  -  A
02 0-3   -  -  -  -  B  -
03 0-3   C  -  C  -  C  C
04 0-3   D  D  D  D  D  D
05 0-3   E  -  E  -  -  -
06 0-4   -  F  -  F  F  F
07 0-4   G  G  G  -  -  G
08 0-4   H  H  -  H  H  -
09 0-4   -  I  -  I  I  -
10 0-5   J  -  -  J  -  J
11 0-5   K  K  K  K  -  -
12 0-6   L  -  -  -  L  L
13 0-6   -  -  M  M  -  -
14 0-6   -  N  N  -  N  N
15 0-6   O  -  O  -  -  -
16 0-6   P  P  -  -  P  P
17 0-6   -  -  -  Q  -  Q
18 0-6   -  R  -  R  R   
19 0-6   S  -  S  S  S   
20 1-2   T  T  -  -      
21 2-5   -  -  U  U      
22 3-4   -  V  -         
23 3-5   -  X  -         
24 4-6   X  -            
25 4-6   -  Z            
26 4-6   -               
27 4-6                   
-------------------------------
26 LETTER CHECK

RUDON YUWLP WDVVQ EALTO SOSUU N
-------------------------------



SECRET    SECRET    SECRET    SECRET    SECRET

SECRET    SECRET    SECRET    SECRET    SECRET



EFFECTIVE PERIOD:
18-FEB-2021 00:00 THROUGH 23:59 GMT

NET INDICATOR:      M209GROUP
KEY LIST INDICATOR: KQ
-------------------------------
NR LUGS  1  2  3  4  5  6
-------------------------------
01 2-0   -  A  A  A  -  -
02 2-0   -  B  -  -  B  B
03 2-0   -  C  C  -  C  -
04 2-0   D  -  -  D  D  D
05 0-3   -  -  E  -  -  -
06 0-3   -  -  -  -  -  -
07 0-3   G  -  -  -  G  -
08 0-3   H  -  -  H  H  H
09 0-3   I  -  -  I  -  I
10 0-3   -  J  J  -  -  -
11 0-3   -  -  K  -  -  K
12 0-3   L  L  -  L  -  -
13 0-4   -  -  M  -  M  M
14 0-4   N  -  N  N  -  N
15 0-4   -  O  -  -  O  -
16 0-5   -  -  -  -  -  -
17 0-6   Q  Q  Q  Q  Q  Q
18 0-6   R  -  R  R  -   
19 0-6   S  S  -  -  -   
20 1-3   -  -  T  -      
21 2-4   -  U  U  U      
22 2-6   V  -  V         
23 3-6   W  X  X         
24 3-6   X  Y            
25 3-6   -  Z            
26 3-6   Z               
27 4-5                   
-------------------------------
26 LETTER CHECK

VGNSW FVMZX XHWFS JENAQ AZXQC Q
-------------------------------



SECRET    SECRET    SECRET    SECRET    SECRET

SECRET    SECRET    SECRET    SECRET    SECRET



EFFECTIVE PERIOD:
19-FEB-2021 00:00 THROUGH 23:59 GMT

NET INDICATOR:      M209GROUP
KEY LIST INDICATOR: KR
-------------------------------
NR LUGS  1  2  3  4  5  6
-------------------------------
01 1-0   A  A  A  A  -  -
02 2-0   -  B  -  -  B  -
03 2-0   -  C  C  C  -  C
04 2-0   D  D  -  D  -  -
05 2-0   -  E  E  -  E  E
06 2-0   F  F  F  F  -  F
07 2-0   -  -  G  -  G  G
08 2-0   H  -  H  -  H  H
09 2-0   I  -  -  -  -  -
10 2-0   -  J  -  J  J  J
11 2-0   K  -  K  K  K  K
12 2-0   L  L  L  -  L  -
13 0-3   -  M  -  M  -  M
14 0-3   N  N  N  N  N  -
15 0-3   -  O  O  -  O  -
16 0-3   -  P  -  -  -  P
17 0-3   Q  Q  Q  Q  Q  -
18 0-4   R  -  -  R  -   
19 0-5   S  -  -  -  -   
20 0-5   -  -  T  T      
21 0-6   -  U  U  -      
22 0-6   -  -  -         
23 0-6   W  -  -         
24 2-3   -  Y            
25 3-6   -  -            
26 4-5   -               
27 5-6                   
-------------------------------
26 LETTER CHECK

ZUULB IRJZU GTZQA VWNFJ RMVRW N
-------------------------------



SECRET    SECRET    SECRET    SECRET    SECRET

SECRET    SECRET    SECRET    SECRET    SECRET



EFFECTIVE PERIOD:
20-FEB-2021 00:00 THROUGH 23:59 GMT

NET INDICATOR:      M209GROUP
KEY LIST INDICATOR: KS
-------------------------------
NR LUGS  1  2  3  4  5  6
-------------------------------
01 1-0   -  A  A  A  -  A
02 1-0   B  -  -  -  B  -
03 1-0   C  C  -  C  C  C
04 1-0   -  D  -  -  -  D
05 1-0   -  -  -  E  -  E
06 2-0   F  -  -  -  F  -
07 2-0   -  G  -  G  G  G
08 2-0   -  H  H  H  -  H
09 0-3   I  I  -  I  -  -
10 0-3   -  -  -  J  -  -
11 0-3   -  K  -  -  -  K
12 0-3   L  L  L  L  L  -
13 0-4   -  M  M  M  -  M
14 0-4   -  N  N  -  N  N
15 0-4   O  -  O  O  O  -
16 0-4   -  P  P  -  -  P
17 0-4   -  -  -  -  -  -
18 1-3   R  -  R  -  R   
19 1-3   S  S  -  -  -   
20 1-3   T  -  -  T      
21 1-3   -  -  U  -      
22 1-4   -  V  V         
23 2-4   W  X  X         
24 2-6   X  -            
25 3-6   Y  Z            
26 3-6   -               
27 5-6                   
-------------------------------
26 LETTER CHECK

SOXNU DAAUX PNJWH GPVKR KVVUP Q
-------------------------------



SECRET    SECRET    SECRET    SECRET    SECRET

SECRET    SECRET    SECRET    SECRET    SECRET



EFFECTIVE PERIOD:
21-FEB-2021 00:00 THROUGH 23:59 GMT

NET INDICATOR:      M209GROUP
KEY LIST INDICATOR: KT
-------------------------------
NR LUGS  1  2  3  4  5  6
-------------------------------
01 2-0   A  A  -  A  -  -
02 2-0   -  B  B  -  B  B
03 0-3   -  -  -  C  -  -
04 0-3   -  D  D  -  -  -
05 0-3   E  E  E  E  E  E
06 0-3   -  -  -  -  -  -
07 0-5   G  G  G  G  -  G
08 0-5   -  H  -  -  H  H
09 0-5   -  I  -  -  -  I
10 0-5   J  J  J  J  J  J
11 0-5   -  K  K  -  -  -
12 0-6   L  L  L  -  -  L
13 0-6   M  -  M  M  -  M
14 0-6   -  N  N  -  -  -
15 0-6   O  -  -  -  O  O
16 0-6   P  -  -  P  P  -
17 0-6   -  -  Q  -  Q  Q
18 0-6   R  R  -  -  R   
19 0-6   -  S  S  S  S   
20 1-6   T  -  T  -      
21 2-3   -  -  -  U      
22 2-4   -  -  -         
23 3-5   -  -  -         
24 5-6   -  Y            
25 5-6   Y  Z            
26 5-6   Z               
27 5-6                   
-------------------------------
26 LETTER CHECK

HMMRW OYJNO EVNTV WSOQV JVSXN S
-------------------------------



SECRET    SECRET    SECRET    SECRET    SECRET

SECRET    SECRET    SECRET    SECRET    SECRET



EFFECTIVE PERIOD:
22-FEB-2021 00:00 THROUGH 23:59 GMT

NET INDICATOR:      M209GROUP
KEY LIST INDICATOR: KU
-------------------------------
NR LUGS  1  2  3  4  5  6
-------------------------------
01 1-0   -  -  -  -  -  A
02 1-0   B  -  B  -  -  B
03 2-0   C  C  -  -  -  C
04 2-0   D  D  D  D  -  -
05 2-0   E  E  -  -  E  -
06 2-0   -  F  -  F  F  -
07 0-3   -  -  G  G  -  G
08 0-3   H  H  -  H  -  -
09 0-3   I  I  I  I  I  -
10 0-6   J  J  -  -  -  -
11 0-6   K  -  K  -  K  K
12 0-6   -  -  L  -  L  L
13 0-6   -  M  M  -  M  M
14 0-6   -  N  N  N  -  -
15 0-6   O  -  -  O  O  O
16 1-2   -  P  -  P  -  -
17 1-2   Q  -  -  Q  Q  Q
18 1-2   R  R  R  R  -   
19 1-2   -  -  -  S  -   
20 1-3   T  T  T  -      
21 1-4   -  U  -  -      
22 1-4   V  V  V         
23 1-4   -  -  X         
24 2-6   -  -            
25 3-4   -  -            
26 3-6   -               
27 4-5                   
-------------------------------
26 LETTER CHECK

NXTNW NAPMM ZFLAQ QSMAW UVJYU T
-------------------------------



SECRET    SECRET    SECRET    SECRET    SECRET

SECRET    SECRET    SECRET    SECRET    SECRET



EFFECTIVE PERIOD:
23-FEB-2021 00:00 THROUGH 23:59 GMT

NET INDICATOR:      M209GROUP
KEY LIST INDICATOR: KV
-------------------------------
NR LUGS  1  2  3  4  5  6
-------------------------------
01 1-0   -  -  A  A  A  -
02 1-0   -  -  B  -  -  -
03 1-0   -  C  -  -  C  -
04 1-0   -  -  -  -  D  -
05 1-0   E  -  E  -  E  -
06 2-0   F  -  F  F  -  F
07 2-0   G  G  -  -  G  -
08 0-3   H  -  H  -  H  H
09 0-3   -  -  -  I  I  I
10 0-3   J  -  -  -  J  J
11 0-3   K  -  K  K  -  -
12 0-3   -  -  -  L  -  -
13 0-3   -  -  -  M  M  -
14 0-5   N  N  N  N  -  N
15 0-5   O  O  -  -  -  O
16 0-5   P  P  -  -  P  P
17 0-5   Q  Q  Q  Q  Q  -
18 1-2   R  -  R  R  -   
19 1-2   -  -  -  -  -   
20 1-4   -  T  -  T      
21 1-5   U  U  U  -      
22 1-5   V  -  V         
23 1-5   -  X  -         
24 1-5   -  -            
25 2-3   Y  Z            
26 2-6   -               
27 3-5                   
-------------------------------
26 LETTER CHECK

WUPIR UPIUL UPJFR YRALA YMBPU P
-------------------------------



SECRET    SECRET    SECRET    SECRET    SECRET

SECRET    SECRET    SECRET    SECRET    SECRET



EFFECTIVE PERIOD:
24-FEB-2021 00:00 THROUGH 23:59 GMT

NET INDICATOR:      M209GROUP
KEY LIST INDICATOR: KW
-------------------------------
NR LUGS  1  2  3  4  5  6
-------------------------------
01 1-0   -  A  -  A  -  -
02 1-0   -  B  B  B  B  B
03 1-0   C  C  -  -  C  -
04 1-0   D  D  D  D  -  D
05 1-0   -  -  -  E  E  -
06 2-0   -  -  F  F  -  -
07 0-3   -  G  -  G  G  -
08 0-4   H  -  H  H  H  -
09 0-4   I  I  I  -  I  I
10 0-4   J  -  -  J  -  J
11 0-4   -  K  K  -  -  K
12 0-5   L  -  L  -  -  -
13 0-5   M  -  M  M  -  -
14 0-5   -  -  -  -  N  N
15 0-5   O  O  O  -  O  -
16 0-5   P  -  -  -  P  P
17 0-5   Q  -  -  -  -  Q
18 0-6   R  -  R  R  -   
19 0-6   -  S  -  -  S   
20 0-6   -  T  T  T      
21 0-6   -  U  -  U      
22 1-4   -  -  V         
23 1-6   W  X  -         
24 2-4   X  -            
25 5-6   Y  -            
26 5-6   Z               
27 5-6                   
-------------------------------
26 LETTER CHECK

THPNL OKUUU YCPNV UTKMI OQUTA P
-------------------------------



SECRET    SECRET    SECRET    SECRET    SECRET

SECRET    SECRET    SECRET    SECRET    SECRET



EFFECTIVE PERIOD:
25-FEB-2021 00:00 THROUGH 23:59 GMT

NET INDICATOR:      M209GROUP
KEY LIST INDICATOR: KX
-------------------------------
NR LUGS  1  2  3  4  5  6
-------------------------------
01 1-0   -  A  -  -  -  -
02 1-0   B  B  B  B  -  B
03 1-0   C  C  -  -  -  -
04 1-0   -  -  D  -  D  -
05 1-0   E  -  E  E  -  E
06 1-0   -  F  F  F  F  F
07 1-0   G  -  G  -  -  G
08 1-0   H  H  -  -  H  -
09 1-0   -  -  -  I  -  I
10 0-3   -  J  J  -  J  -
11 0-4   -  K  -  K  -  K
12 0-4   L  -  -  L  -  -
13 0-4   M  -  -  M  -  -
14 0-4   -  N  -  -  N  N
15 0-4   O  O  -  O  O  -
16 0-4   P  P  P  -  P  -
17 0-4   Q  Q  Q  -  Q  Q
18 0-5   -  -  -  R  R   
19 0-5   -  S  S  S  -   
20 0-5   T  -  T  -      
21 0-5   -  U  U  U      
22 0-5   -  -  V         
23 0-5   W  X  X         
24 1-4   X  -            
25 2-6   Y  -            
26 4-5   -               
27 5-6                   
-------------------------------
26 LETTER CHECK

TKRJS QRKUK IJLAJ TBZKJ KQRZI T
-------------------------------



SECRET    SECRET    SECRET    SECRET    SECRET

SECRET    SECRET    SECRET    SECRET    SECRET



EFFECTIVE PERIOD:
26-FEB-2021 00:00 THROUGH 23:59 GMT

NET INDICATOR:      M209GROUP
KEY LIST INDICATOR: KY
-------------------------------
NR LUGS  1  2  3  4  5  6
-------------------------------
01 1-0   -  A  -  A  A  -
02 1-0   -  B  -  B  -  B
03 1-0   C  -  C  -  C  -
04 1-0   D  -  D  D  -  D
05 2-0   E  -  E  E  -  -
06 2-0   F  F  -  -  F  -
07 2-0   -  G  G  -  G  G
08 2-0   H  -  H  H  -  H
09 2-0   I  I  -  I  -  -
10 2-0   -  J  J  J  J  -
11 2-0   K  -  -  K  K  -
12 2-0   -  -  -  -  L  L
13 2-0   -  -  M  -  M  M
14 0-3   -  -  N  N  -  -
15 0-4   -  O  O  -  -  -
16 0-4   P  P  -  -  P  P
17 0-4   -  Q  -  -  -  Q
18 0-4   R  R  R  R  R   
19 0-5   S  S  S  -  -   
20 0-5   T  -  T  -      
21 0-5   -  U  -  -      
22 1-4   -  -  -         
23 1-5   W  X  X         
24 2-4   X  Y            
25 2-4   Y  Z            
26 2-4   Z               
27 5-6                   
-------------------------------
26 LETTER CHECK

WWSRW JRFVW ZLRRK FWWQA QFJFA Q
-------------------------------



SECRET    SECRET    SECRET    SECRET    SECRET

SECRET    SECRET    SECRET    SECRET    SECRET



EFFECTIVE PERIOD:
27-FEB-2021 00:00 THROUGH 23:59 GMT

NET INDICATOR:      M209GROUP
KEY LIST INDICATOR: KZ
-------------------------------
NR LUGS  1  2  3  4  5  6
-------------------------------
01 1-0   -  -  A  A  -  A
02 1-0   B  B  B  B  B  B
03 1-0   -  C  -  -  -  -
04 1-0   -  D  -  -  -  -
05 1-0   E  -  -  E  E  E
06 1-0   -  F  -  -  -  -
07 1-0   G  -  G  -  G  -
08 1-0   -  H  -  H  H  H
09 1-0   I  -  -  -  I  I
10 1-0   J  J  J  -  J  J
11 2-0   -  -  -  -  K  K
12 2-0   -  -  L  -  L  -
13 2-0   -  -  M  M  -  M
14 2-0   -  -  -  -  -  -
15 2-0   O  O  -  O  -  O
16 0-3   P  -  P  P  P  P
17 0-3   Q  Q  Q  -  -  -
18 0-3   R  R  R  R  R   
19 0-3   -  S  -  S  -   
20 0-3   -  -  T  T      
21 0-3   -  -  U  -      
22 0-4   V  -  -         
23 0-6   -  X  X         
24 1-3   -  -            
25 2-3   Y  Z            
26 2-5   -               
27 4-5                   
-------------------------------
26 LETTER CHECK

UKAPP CUKHU PISII NQNHU RKICC Z
-------------------------------



SECRET    SECRET    SECRET    SECRET    SECRET

SECRET    SECRET    SECRET    SECRET    SECRET



EFFECTIVE PERIOD:
28-FEB-2021 00:00 THROUGH 23:59 GMT

NET INDICATOR:      M209GROUP
KEY LIST INDICATOR: LA
-------------------------------
NR LUGS  1  2  3  4  5  6
-------------------------------
01 1-0   A  -  A  -  A  A
02 1-0   -  B  -  B  -  -
03 1-0   C  -  C  -  C  C
04 1-0   -  D  D  -  D  D
05 1-0   -  -  -  E  E  E
06 1-0   F  -  F  F  F  F
07 2-0   G  -  -  G  G  G
08 2-0   -  H  H  -  -  -
09 2-0   I  -  -  -  -  I
10 0-4   J  J  J  J  J  J
11 0-4   -  -  -  K  -  -
12 0-4   -  L  -  -  L  L
13 0-5   M  -  M  -  M  -
14 0-6   N  N  N  N  -  -
15 0-6   O  -  -  -  -  -
16 0-6   -  P  P  -  P  P
17 0-6   Q  -  -  Q  -  -
18 0-6   R  -  -  R  -   
19 0-6   -  S  -  -  -   
20 1-2   T  T  -  T      
21 1-2   -  U  -  U      
22 1-2   -  V  V         
23 1-2   -  -  X         
24 2-6   X  -            
25 3-5   Y  -            
26 4-5   Z               
27 4-6                   
-------------------------------
26 LETTER CHECK

CAKZU SHSQS XURXO MRMSQ QZTMU P
-------------------------------



SECRET    SECRET    SECRET    SECRET    SECRET
