EFFECTIVE PERIOD:
02-AUG-2022 00:00 THROUGH 23:59 GMT

NET INDICATOR:      M209GROUP
KEY LIST INDICATOR: FA
-------------------------------
NR LUGS  1  2  3  4  5  6
-------------------------------
01 1-0   -  A  -  -  A  A
02 2-0   -  -  B  -  -  -
03 0-3   C  -  -  -  C  C
04 0-3   -  D  D  D  D  -
05 0-3   E  E  E  E  -  -
06 0-3   -  -  -  F  F  -
07 0-3   G  G  G  G  G  G
08 0-3   H  -  H  H  H  H
09 0-3   -  -  I  -  -  I
10 0-3   -  J  -  -  -  J
11 0-3   K  K  K  -  -  K
12 0-4   -  -  -  -  -  L
13 0-4   -  -  M  M  M  -
14 0-4   -  N  -  -  -  -
15 0-5   O  -  O  O  O  -
16 0-5   P  P  -  -  -  -
17 0-5   -  -  -  Q  Q  -
18 0-5   -  -  -  -  -   
19 0-5   -  -  S  S  S   
20 0-5   T  T  T  -      
21 0-5   U  -  -  U      
22 0-6   V  V  -         
23 0-6   -  -  X         
24 1-6   X  -            
25 3-5   Y  Z            
26 4-5   -               
27 4-6                   
-------------------------------
26 LETTER CHECK

IWEIG UQNOO JSEZZ RRPOZ SHREW G
-------------------------------
