EFFECTIVE PERIOD:
24-MAY-2031 00:00 THROUGH 23:59 GMT

NET INDICATOR:      M209GROUP
KEY LIST INDICATOR: YT
-------------------------------
NR LUGS  1  2  3  4  5  6
-------------------------------
01 1-0   A  -  A  -  -  A
02 1-0   -  -  -  -  B  -
03 1-0   -  -  -  C  -  -
04 1-0   D  D  -  D  -  D
05 1-0   E  E  -  -  E  -
06 1-0   F  F  -  F  -  F
07 0-3   G  -  G  G  -  -
08 0-3   H  -  -  -  -  H
09 0-3   -  -  I  -  -  I
10 0-3   -  -  -  J  -  -
11 0-3   K  -  -  -  K  -
12 0-3   L  L  -  -  L  -
13 0-3   M  -  M  M  -  M
14 0-3   N  N  N  -  N  -
15 0-3   -  -  O  O  -  -
16 0-3   -  P  P  P  P  P
17 0-3   -  -  Q  Q  Q  Q
18 0-4   -  -  -  R  R   
19 0-5   -  S  S  S  S   
20 0-5   T  T  T  -      
21 0-6   U  U  -  -      
22 0-6   V  -  V         
23 0-6   W  X  X         
24 1-3   -  -            
25 1-6   Y  Z            
26 2-5   -               
27 5-6                   
-------------------------------
26 LETTER CHECK

QMUMM AAOMW RIIZN NTHXH ZMXAA Q
-------------------------------
