EFFECTIVE PERIOD:
20-JUL-2029 00:00 THROUGH 23:59 GMT

NET INDICATOR:      M209GROUP
KEY LIST INDICATOR: YW
-------------------------------
NR LUGS  1  2  3  4  5  6
-------------------------------
01 1-0   -  -  A  -  -  -
02 1-0   B  B  -  B  -  B
03 1-0   -  -  -  -  C  -
04 1-0   D  D  -  D  -  D
05 1-0   E  -  E  -  -  -
06 1-0   F  F  F  F  F  -
07 1-0   G  -  G  -  -  -
08 1-0   H  H  -  H  H  -
09 1-0   I  -  I  -  I  -
10 1-0   -  J  J  J  -  -
11 0-3   K  K  -  K  K  K
12 0-3   L  L  -  L  L  L
13 0-3   -  -  M  M  -  -
14 0-3   N  N  N  N  -  N
15 0-3   -  O  -  -  O  O
16 0-3   -  -  P  P  -  P
17 0-4   -  -  Q  -  Q  -
18 0-4   R  R  -  R  R   
19 0-4   S  S  S  -  S   
20 0-4   T  T  -  T      
21 0-4   -  U  U  -      
22 0-4   -  -  V         
23 0-4   -  X  -         
24 0-4   X  Y            
25 0-6   Y  -            
26 2-3   -               
27 2-5                   
-------------------------------
26 LETTER CHECK

QIQAM QBPSL QZTAZ RZKAZ KUAGT I
-------------------------------
