SECRET    SECRET    SECRET    SECRET    SECRET

NET INDICATOR M209GROUP

KEY LIST FOR MONTH OF JUN 2026

    01 JUN 2026  00:00-23:59 GMT:  USE KEY GV
    02 JUN 2026  00:00-23:59 GMT:  USE KEY GW
    03 JUN 2026  00:00-23:59 GMT:  USE KEY GX
    04 JUN 2026  00:00-23:59 GMT:  USE KEY GY
    05 JUN 2026  00:00-23:59 GMT:  USE KEY GZ
    06 JUN 2026  00:00-23:59 GMT:  USE KEY HA
    07 JUN 2026  00:00-23:59 GMT:  USE KEY HB
    08 JUN 2026  00:00-23:59 GMT:  USE KEY HC
    09 JUN 2026  00:00-23:59 GMT:  USE KEY HD
    10 JUN 2026  00:00-23:59 GMT:  USE KEY HE
    11 JUN 2026  00:00-23:59 GMT:  USE KEY HF
    12 JUN 2026  00:00-23:59 GMT:  USE KEY HG
    13 JUN 2026  00:00-23:59 GMT:  USE KEY HH
    14 JUN 2026  00:00-23:59 GMT:  USE KEY HI
    15 JUN 2026  00:00-23:59 GMT:  USE KEY HJ
    16 JUN 2026  00:00-23:59 GMT:  USE KEY HK
    17 JUN 2026  00:00-23:59 GMT:  USE KEY HL
    18 JUN 2026  00:00-23:59 GMT:  USE KEY HM
    19 JUN 2026  00:00-23:59 GMT:  USE KEY HN
    20 JUN 2026  00:00-23:59 GMT:  USE KEY HO
    21 JUN 2026  00:00-23:59 GMT:  USE KEY HP
    22 JUN 2026  00:00-23:59 GMT:  USE KEY HQ
    23 JUN 2026  00:00-23:59 GMT:  USE KEY HR
    24 JUN 2026  00:00-23:59 GMT:  USE KEY HS
    25 JUN 2026  00:00-23:59 GMT:  USE KEY HT
    26 JUN 2026  00:00-23:59 GMT:  USE KEY HU
    27 JUN 2026  00:00-23:59 GMT:  USE KEY HV
    28 JUN 2026  00:00-23:59 GMT:  USE KEY HW
    29 JUN 2026  00:00-23:59 GMT:  USE KEY HX
    30 JUN 2026  00:00-23:59 GMT:  USE KEY HY

SECRET    SECRET    SECRET    SECRET    SECRET



SECRET    SECRET    SECRET    SECRET    SECRET



EFFECTIVE PERIOD:
01-JUN-2026 00:00 THROUGH 23:59 GMT

NET INDICATOR:      M209GROUP
KEY LIST INDICATOR: GV
-------------------------------
NR LUGS  1  2  3  4  5  6
-------------------------------
01 0-4   -  A  -  -  A  -
02 0-4   B  B  B  B  -  -
03 0-4   C  C  C  -  C  -
04 0-4   D  D  D  D  D  D
05 0-4   -  -  E  -  -  -
06 0-4   F  -  F  F  -  F
07 0-4   G  -  -  G  G  -
08 0-5   -  -  -  H  H  -
09 0-5   I  I  -  I  -  -
10 0-5   -  -  J  -  -  J
11 0-5   -  K  K  -  -  -
12 0-6   -  L  L  L  -  -
13 0-6   -  M  -  -  -  M
14 0-6   N  -  -  N  N  N
15 0-6   -  -  O  O  -  O
16 1-3   P  -  -  P  P  -
17 2-3   Q  Q  Q  -  Q  Q
18 2-5   R  R  -  R  R   
19 2-5   -  S  -  -  S   
20 2-6   T  -  T  T      
21 3-5   -  -  -  -      
22 4-5   V  -  V         
23 4-5   -  -  -         
24 4-5   X  -            
25 4-5   -  -            
26 4-6   -               
27 5-6                   
-------------------------------
26 LETTER CHECK

AOAWT TTTNZ YOWFW VSMZL UTPZV L
-------------------------------



SECRET    SECRET    SECRET    SECRET    SECRET

SECRET    SECRET    SECRET    SECRET    SECRET



EFFECTIVE PERIOD:
02-JUN-2026 00:00 THROUGH 23:59 GMT

NET INDICATOR:      M209GROUP
KEY LIST INDICATOR: GW
-------------------------------
NR LUGS  1  2  3  4  5  6
-------------------------------
01 1-0   -  -  -  -  -  A
02 1-0   -  -  -  -  B  -
03 2-0   C  C  C  -  -  C
04 2-0   -  D  D  D  -  -
05 0-3   -  -  -  -  E  -
06 0-3   -  -  -  F  F  -
07 0-3   -  -  G  G  -  -
08 0-3   H  H  -  H  H  -
09 0-3   -  I  -  -  I  I
10 0-3   -  J  -  J  -  -
11 0-4   K  K  -  K  K  K
12 0-6   L  L  -  -  L  -
13 0-6   -  -  M  -  -  M
14 0-6   N  -  N  -  N  N
15 0-6   O  O  -  -  -  -
16 0-6   P  -  -  -  -  -
17 0-6   Q  -  Q  -  Q  Q
18 0-6   -  R  R  R  -   
19 0-6   -  -  S  S  -   
20 0-6   T  T  T  -      
21 0-6   U  U  -  U      
22 1-2   -  V  V         
23 1-4   W  -  X         
24 2-3   X  Y            
25 3-6   -  Z            
26 3-6   -               
27 4-5                   
-------------------------------
26 LETTER CHECK

ZDMVM QYSOW DZLPG OLLIS PHOSQ G
-------------------------------



SECRET    SECRET    SECRET    SECRET    SECRET

SECRET    SECRET    SECRET    SECRET    SECRET



EFFECTIVE PERIOD:
03-JUN-2026 00:00 THROUGH 23:59 GMT

NET INDICATOR:      M209GROUP
KEY LIST INDICATOR: GX
-------------------------------
NR LUGS  1  2  3  4  5  6
-------------------------------
01 1-0   A  -  -  A  -  A
02 1-0   -  -  B  -  B  -
03 1-0   -  -  -  C  C  C
04 1-0   -  D  D  -  D  -
05 1-0   E  -  -  -  E  -
06 1-0   -  F  -  F  F  -
07 0-3   -  G  G  -  -  G
08 0-3   H  -  H  -  H  -
09 0-3   I  I  I  -  -  -
10 0-5   -  J  -  -  J  -
11 0-5   -  -  -  -  K  -
12 0-5   -  -  -  -  L  -
13 0-5   -  -  M  M  -  M
14 0-6   N  -  N  -  -  N
15 0-6   O  O  O  -  -  O
16 0-6   P  -  P  P  -  P
17 0-6   Q  -  -  Q  -  -
18 1-3   R  R  R  R  R   
19 1-5   -  S  S  S  S   
20 2-6   T  T  -  T      
21 3-6   U  U  -  -      
22 3-6   -  -  -         
23 3-6   -  X  -         
24 3-6   -  -            
25 4-5   Y  -            
26 4-6   Z               
27 5-6                   
-------------------------------
26 LETTER CHECK

WOVLW WIQAX NVGUC NIPUX KLOHW W
-------------------------------



SECRET    SECRET    SECRET    SECRET    SECRET

SECRET    SECRET    SECRET    SECRET    SECRET



EFFECTIVE PERIOD:
04-JUN-2026 00:00 THROUGH 23:59 GMT

NET INDICATOR:      M209GROUP
KEY LIST INDICATOR: GY
-------------------------------
NR LUGS  1  2  3  4  5  6
-------------------------------
01 1-0   A  -  -  -  -  A
02 1-0   -  B  -  -  -  -
03 1-0   C  -  C  -  C  C
04 1-0   D  -  -  -  D  D
05 1-0   E  -  E  E  E  E
06 1-0   F  -  -  F  -  -
07 1-0   -  G  G  G  G  -
08 1-0   -  -  -  -  H  -
09 1-0   I  -  -  -  -  I
10 2-0   J  -  J  -  -  J
11 0-5   -  K  K  -  K  -
12 0-5   -  L  L  L  L  -
13 0-5   -  M  -  -  -  M
14 0-5   -  -  N  N  -  N
15 0-5   O  O  O  -  O  -
16 0-5   P  P  P  P  P  -
17 0-6   -  -  -  -  -  -
18 0-6   R  -  -  R  R   
19 0-6   -  S  -  S  S   
20 0-6   -  -  T  -      
21 0-6   -  U  U  U      
22 1-6   -  -  V         
23 1-6   W  -  -         
24 1-6   X  -            
25 3-4   Y  Z            
26 4-5   -               
27 5-6                   
-------------------------------
26 LETTER CHECK

VCSQI BJZNR QYJNU ZSAHZ TBJJK V
-------------------------------



SECRET    SECRET    SECRET    SECRET    SECRET

SECRET    SECRET    SECRET    SECRET    SECRET



EFFECTIVE PERIOD:
05-JUN-2026 00:00 THROUGH 23:59 GMT

NET INDICATOR:      M209GROUP
KEY LIST INDICATOR: GZ
-------------------------------
NR LUGS  1  2  3  4  5  6
-------------------------------
01 0-4   -  -  -  -  A  A
02 0-4   -  B  -  -  -  B
03 0-4   -  C  C  C  -  -
04 0-4   D  -  D  D  D  D
05 0-4   E  E  -  -  E  -
06 0-4   F  -  F  -  -  F
07 0-5   -  G  -  -  -  G
08 0-5   -  H  H  -  -  -
09 0-5   -  I  -  -  I  -
10 0-6   J  J  J  -  -  J
11 0-6   K  K  -  K  K  -
12 0-6   L  L  -  L  L  -
13 0-6   M  -  -  M  M  M
14 0-6   N  -  -  N  -  N
15 0-6   -  O  -  -  -  O
16 1-5   -  P  P  P  -  -
17 2-3   -  -  -  -  -  -
18 2-5   -  -  -  R  -   
19 3-5   S  -  -  -  S   
20 3-6   T  -  T  -      
21 4-5   -  -  U  U      
22 4-5   V  V  V         
23 4-5   W  -  X         
24 4-5   X  -            
25 4-6   -  -            
26 5-6   Z               
27 5-6                   
-------------------------------
26 LETTER CHECK

TTLUK KDUAC KSAMA ETDMA AWNAU M
-------------------------------



SECRET    SECRET    SECRET    SECRET    SECRET

SECRET    SECRET    SECRET    SECRET    SECRET



EFFECTIVE PERIOD:
06-JUN-2026 00:00 THROUGH 23:59 GMT

NET INDICATOR:      M209GROUP
KEY LIST INDICATOR: HA
-------------------------------
NR LUGS  1  2  3  4  5  6
-------------------------------
01 1-0   -  A  -  A  A  -
02 1-0   B  -  -  -  -  B
03 1-0   C  -  C  -  C  C
04 1-0   D  -  -  -  D  -
05 2-0   E  -  -  -  -  -
06 0-3   F  -  F  F  -  -
07 0-4   G  G  G  -  G  -
08 0-4   -  H  -  -  -  -
09 0-4   I  -  I  -  -  -
10 0-4   J  -  J  J  J  J
11 0-4   -  K  -  -  -  K
12 0-5   -  -  L  -  L  -
13 0-5   M  M  M  M  -  -
14 0-6   -  N  N  N  N  N
15 0-6   -  -  O  -  -  -
16 0-6   P  -  -  P  -  P
17 0-6   Q  -  -  -  Q  Q
18 0-6   -  -  -  R  R   
19 0-6   -  S  S  S  -   
20 0-6   T  T  T  T      
21 0-6   -  U  -  U      
22 0-6   V  -  -         
23 0-6   W  -  X         
24 0-6   -  Y            
25 0-6   -  Z            
26 1-5   Z               
27 2-5                   
-------------------------------
26 LETTER CHECK

ZKDQG WAJUT IEFEM FRUHI QKRTK P
-------------------------------



SECRET    SECRET    SECRET    SECRET    SECRET

SECRET    SECRET    SECRET    SECRET    SECRET



EFFECTIVE PERIOD:
07-JUN-2026 00:00 THROUGH 23:59 GMT

NET INDICATOR:      M209GROUP
KEY LIST INDICATOR: HB
-------------------------------
NR LUGS  1  2  3  4  5  6
-------------------------------
01 1-0   -  -  -  -  A  A
02 1-0   -  -  -  -  B  -
03 1-0   C  -  -  -  C  -
04 1-0   -  D  D  -  -  -
05 1-0   E  -  -  -  -  E
06 1-0   -  F  F  F  -  -
07 1-0   -  G  -  -  G  -
08 0-3   H  H  H  -  H  H
09 0-3   -  -  I  I  -  -
10 0-3   -  J  J  -  -  J
11 0-4   K  -  -  K  -  K
12 0-4   L  L  -  L  L  L
13 0-4   -  -  M  M  -  -
14 0-6   N  -  N  N  -  N
15 0-6   -  O  -  -  -  O
16 0-6   P  P  -  -  P  -
17 0-6   -  Q  -  Q  -  -
18 1-4   R  R  R  -  R   
19 1-6   -  -  S  S  -   
20 2-3   T  T  -  -      
21 2-4   -  U  -  U      
22 3-4   -  V  V         
23 3-5   W  -  -         
24 3-6   X  Y            
25 3-6   -  -            
26 3-6   -               
27 3-6                   
-------------------------------
26 LETTER CHECK

APKKA KHSWC AIZSQ SKTXO PVWJQ H
-------------------------------



SECRET    SECRET    SECRET    SECRET    SECRET

SECRET    SECRET    SECRET    SECRET    SECRET



EFFECTIVE PERIOD:
08-JUN-2026 00:00 THROUGH 23:59 GMT

NET INDICATOR:      M209GROUP
KEY LIST INDICATOR: HC
-------------------------------
NR LUGS  1  2  3  4  5  6
-------------------------------
01 1-0   -  A  A  -  -  -
02 1-0   -  -  B  -  B  B
03 1-0   -  C  -  -  -  -
04 1-0   D  -  D  D  -  D
05 1-0   -  E  -  E  -  E
06 1-0   F  -  -  F  F  -
07 2-0   -  G  -  -  G  G
08 2-0   H  H  H  H  H  H
09 2-0   -  I  I  I  I  -
10 2-0   J  -  -  J  -  -
11 2-0   -  K  K  -  K  K
12 2-0   -  -  L  L  -  -
13 0-4   M  M  M  -  M  M
14 0-4   -  -  N  N  -  N
15 0-4   -  O  -  -  -  -
16 1-2   P  -  P  -  -  P
17 1-4   Q  Q  -  -  Q  Q
18 1-5   R  -  -  R  R   
19 2-4   -  -  S  S  -   
20 2-4   -  T  T  -      
21 2-4   -  -  U  U      
22 2-4   V  V  -         
23 3-4   W  -  -         
24 3-5   X  -            
25 4-5   -  -            
26 4-5   Z               
27 4-6                   
-------------------------------
26 LETTER CHECK

VUVAZ UUUTD LNLUU OUTAL UMMVD Q
-------------------------------



SECRET    SECRET    SECRET    SECRET    SECRET

SECRET    SECRET    SECRET    SECRET    SECRET



EFFECTIVE PERIOD:
09-JUN-2026 00:00 THROUGH 23:59 GMT

NET INDICATOR:      M209GROUP
KEY LIST INDICATOR: HD
-------------------------------
NR LUGS  1  2  3  4  5  6
-------------------------------
01 1-0   A  -  A  -  A  A
02 1-0   -  B  -  B  -  B
03 1-0   C  -  C  C  -  -
04 1-0   -  -  D  -  -  D
05 1-0   -  -  -  -  -  -
06 1-0   F  -  -  F  F  F
07 2-0   G  G  G  -  -  -
08 2-0   -  -  -  H  H  H
09 2-0   I  I  I  -  I  -
10 0-3   -  J  J  J  J  J
11 0-3   -  K  -  -  K  -
12 0-3   -  -  -  L  L  L
13 0-3   -  M  M  M  M  M
14 0-6   N  -  N  N  -  -
15 0-6   O  O  O  -  O  O
16 0-6   -  -  -  P  P  -
17 0-6   -  Q  -  -  -  -
18 1-2   R  R  R  -  -   
19 1-4   S  -  -  -  -   
20 1-5   T  T  T  T      
21 1-6   -  U  U  -      
22 1-6   V  V  -         
23 1-6   W  -  -         
24 1-6   -  Y            
25 2-3   -  -            
26 2-5   -               
27 3-6                   
-------------------------------
26 LETTER CHECK

MQWRX FWAKF OMSTJ BXRQA HPILW W
-------------------------------



SECRET    SECRET    SECRET    SECRET    SECRET

SECRET    SECRET    SECRET    SECRET    SECRET



EFFECTIVE PERIOD:
10-JUN-2026 00:00 THROUGH 23:59 GMT

NET INDICATOR:      M209GROUP
KEY LIST INDICATOR: HE
-------------------------------
NR LUGS  1  2  3  4  5  6
-------------------------------
01 2-0   A  -  -  -  -  -
02 2-0   B  B  B  B  -  B
03 2-0   C  C  -  -  -  C
04 2-0   -  D  -  D  D  -
05 0-3   -  -  -  -  -  -
06 0-3   F  F  F  F  -  -
07 0-4   G  -  G  G  -  G
08 0-4   -  H  H  -  H  -
09 0-4   I  I  -  -  I  -
10 0-5   J  -  J  -  J  J
11 0-5   -  -  K  -  K  K
12 0-5   -  -  -  -  -  -
13 0-5   -  -  M  M  M  M
14 0-5   N  -  N  -  N  -
15 0-5   -  O  -  O  -  -
16 1-4   P  -  -  P  P  P
17 2-4   Q  -  -  Q  -  -
18 2-4   R  -  R  R  -   
19 2-4   -  -  S  S  S   
20 2-4   -  T  T  -      
21 2-5   -  U  -  -      
22 3-4   -  V  V         
23 3-4   -  X  X         
24 3-4   -  Y            
25 3-5   Y  -            
26 3-6   -               
27 4-6                   
-------------------------------
26 LETTER CHECK

UIULW UUPQR LOQLQ WXPPR OTHWL R
-------------------------------



SECRET    SECRET    SECRET    SECRET    SECRET

SECRET    SECRET    SECRET    SECRET    SECRET



EFFECTIVE PERIOD:
11-JUN-2026 00:00 THROUGH 23:59 GMT

NET INDICATOR:      M209GROUP
KEY LIST INDICATOR: HF
-------------------------------
NR LUGS  1  2  3  4  5  6
-------------------------------
01 2-0   -  A  A  -  A  A
02 2-0   B  B  B  B  -  -
03 2-0   C  -  -  -  C  C
04 2-0   D  D  -  -  D  D
05 2-0   E  -  -  -  E  E
06 0-3   -  -  -  -  -  -
07 0-3   -  G  G  G  G  G
08 0-3   H  -  -  -  H  H
09 0-3   I  -  -  I  -  -
10 0-3   -  J  J  -  J  -
11 0-4   K  -  K  -  -  -
12 0-5   L  -  -  L  -  -
13 0-5   -  M  M  M  -  -
14 0-5   -  -  N  N  -  N
15 0-5   -  -  -  O  O  O
16 0-5   P  -  -  P  -  -
17 0-6   Q  Q  Q  Q  -  Q
18 0-6   R  -  -  -  R   
19 0-6   -  S  -  S  S   
20 1-3   T  -  T  -      
21 2-5   -  -  -  U      
22 2-6   V  V  -         
23 3-6   -  -  X         
24 3-6   -  Y            
25 3-6   Y  -            
26 3-6   Z               
27 4-5                   
-------------------------------
26 LETTER CHECK

LCJVQ ZVTHT VZNIU IJNAJ VKRVJ H
-------------------------------



SECRET    SECRET    SECRET    SECRET    SECRET

SECRET    SECRET    SECRET    SECRET    SECRET



EFFECTIVE PERIOD:
12-JUN-2026 00:00 THROUGH 23:59 GMT

NET INDICATOR:      M209GROUP
KEY LIST INDICATOR: HG
-------------------------------
NR LUGS  1  2  3  4  5  6
-------------------------------
01 1-0   -  A  -  A  A  A
02 1-0   -  B  -  -  B  B
03 1-0   C  C  -  C  C  -
04 1-0   -  D  D  D  D  -
05 1-0   -  E  E  -  -  -
06 1-0   F  -  -  -  F  -
07 2-0   -  G  G  -  G  G
08 2-0   H  -  H  H  -  H
09 0-3   I  I  I  I  I  I
10 0-4   J  -  J  J  -  J
11 0-4   -  K  K  K  -  K
12 0-4   -  -  L  L  L  -
13 0-4   M  -  -  -  -  M
14 0-4   -  -  -  -  -  -
15 0-4   -  O  O  O  O  O
16 0-5   -  -  P  P  -  -
17 0-5   Q  Q  -  -  Q  -
18 0-5   -  -  R  -  -   
19 0-5   S  S  -  -  S   
20 0-5   T  T  -  -      
21 0-6   -  U  -  -      
22 1-5   V  V  V         
23 1-5   W  -  -         
24 1-5   -  Y            
25 2-3   Y  -            
26 2-4   Z               
27 4-5                   
-------------------------------
26 LETTER CHECK

NKMVO MMTLY OSKUO EYMSA SFIQS F
-------------------------------



SECRET    SECRET    SECRET    SECRET    SECRET

SECRET    SECRET    SECRET    SECRET    SECRET



EFFECTIVE PERIOD:
13-JUN-2026 00:00 THROUGH 23:59 GMT

NET INDICATOR:      M209GROUP
KEY LIST INDICATOR: HH
-------------------------------
NR LUGS  1  2  3  4  5  6
-------------------------------
01 1-0   A  -  -  A  -  -
02 1-0   -  B  -  B  -  -
03 1-0   C  C  C  C  C  C
04 1-0   -  D  -  D  D  -
05 1-0   -  E  E  E  E  E
06 1-0   -  -  F  F  -  -
07 1-0   G  -  G  -  -  G
08 2-0   H  H  H  H  -  -
09 2-0   I  -  -  I  I  I
10 2-0   -  J  -  -  -  J
11 0-5   K  K  K  -  K  K
12 0-5   L  L  L  -  L  L
13 0-5   M  M  -  -  M  M
14 0-5   -  N  -  -  -  N
15 0-5   O  O  -  O  O  -
16 1-5   P  -  -  P  P  -
17 1-6   Q  -  Q  -  -  Q
18 2-3   -  R  R  R  -   
19 2-4   -  -  S  -  S   
20 2-5   -  T  -  T      
21 2-5   -  -  -  -      
22 2-5   -  V  V         
23 2-5   -  X  X         
24 2-6   X  -            
25 2-6   -  -            
26 2-6   -               
27 3-6                   
-------------------------------
26 LETTER CHECK

AVFTL MERVG KWSVM NQOAV TVZAL U
-------------------------------



SECRET    SECRET    SECRET    SECRET    SECRET

SECRET    SECRET    SECRET    SECRET    SECRET



EFFECTIVE PERIOD:
14-JUN-2026 00:00 THROUGH 23:59 GMT

NET INDICATOR:      M209GROUP
KEY LIST INDICATOR: HI
-------------------------------
NR LUGS  1  2  3  4  5  6
-------------------------------
01 1-0   -  A  A  -  A  A
02 1-0   -  -  B  -  B  B
03 1-0   -  C  -  -  C  -
04 1-0   -  D  -  -  -  -
05 1-0   E  -  E  E  -  -
06 0-3   -  -  F  -  -  F
07 0-3   -  -  G  G  -  -
08 0-3   -  H  -  H  H  H
09 0-3   I  I  -  I  -  I
10 0-4   -  J  J  J  -  J
11 0-4   -  K  -  K  K  K
12 0-4   -  L  -  -  L  -
13 0-4   -  M  -  M  M  -
14 0-4   -  -  N  N  -  N
15 0-6   O  -  -  O  O  -
16 1-3   P  -  P  -  -  -
17 1-4   Q  Q  Q  Q  -  -
18 1-4   -  -  -  R  R   
19 1-4   -  -  S  -  -   
20 1-4   T  T  -  T      
21 2-4   U  -  U  -      
22 2-5   -  -  -         
23 2-6   W  -  X         
24 3-6   X  -            
25 4-6   Y  -            
26 4-6   Z               
27 4-6                   
-------------------------------
26 LETTER CHECK

ATULS ZAZQP PIFOM AUPOZ HOOUF A
-------------------------------



SECRET    SECRET    SECRET    SECRET    SECRET

SECRET    SECRET    SECRET    SECRET    SECRET



EFFECTIVE PERIOD:
15-JUN-2026 00:00 THROUGH 23:59 GMT

NET INDICATOR:      M209GROUP
KEY LIST INDICATOR: HJ
-------------------------------
NR LUGS  1  2  3  4  5  6
-------------------------------
01 1-0   -  -  A  -  -  A
02 1-0   -  -  B  -  B  -
03 1-0   -  C  -  -  -  C
04 1-0   -  -  D  D  -  -
05 2-0   -  E  E  E  E  E
06 2-0   F  F  -  -  -  F
07 0-4   G  G  -  -  G  G
08 0-4   -  -  H  -  -  -
09 0-4   I  -  -  -  I  -
10 0-4   J  J  J  J  J  J
11 0-4   K  -  K  K  K  K
12 0-4   L  L  -  -  -  L
13 0-6   -  -  M  M  -  M
14 0-6   -  N  N  -  -  -
15 0-6   O  O  -  O  -  -
16 0-6   -  P  P  P  P  -
17 0-6   Q  -  Q  Q  Q  Q
18 1-2   R  -  -  -  -   
19 1-6   S  -  -  S  S   
20 2-3   -  T  -  T      
21 2-4   U  U  -  U      
22 3-4   -  -  V         
23 3-5   W  X  -         
24 4-6   X  Y            
25 4-6   Y  -            
26 4-6   -               
27 4-6                   
-------------------------------
26 LETTER CHECK

WSYTM KVXVT CMSWC ETUSY LRLTW V
-------------------------------



SECRET    SECRET    SECRET    SECRET    SECRET

SECRET    SECRET    SECRET    SECRET    SECRET



EFFECTIVE PERIOD:
16-JUN-2026 00:00 THROUGH 23:59 GMT

NET INDICATOR:      M209GROUP
KEY LIST INDICATOR: HK
-------------------------------
NR LUGS  1  2  3  4  5  6
-------------------------------
01 1-0   A  -  A  -  -  A
02 0-3   B  -  B  B  -  -
03 0-3   -  C  -  C  C  -
04 0-3   -  D  D  -  D  D
05 0-3   -  -  -  E  E  -
06 0-3   F  F  -  F  F  F
07 0-3   G  -  -  G  -  G
08 0-4   -  -  -  -  H  H
09 0-4   I  I  I  -  I  -
10 0-5   -  J  -  -  J  J
11 0-5   -  -  -  K  -  -
12 0-5   L  L  L  L  -  L
13 0-5   M  -  -  -  -  M
14 0-5   -  N  -  N  N  -
15 0-5   O  -  O  O  -  -
16 0-5   P  P  P  P  P  -
17 0-5   Q  -  -  Q  Q  Q
18 0-5   -  -  R  R  R   
19 0-6   -  -  S  -  -   
20 0-6   T  T  -  -      
21 0-6   -  U  -  -      
22 2-4   V  -  V         
23 3-5   -  -  -         
24 3-5   X  -            
25 3-5   Y  -            
26 3-6   Z               
27 4-6                   
-------------------------------
26 LETTER CHECK

ARZDX WSEKA AXRZH PSMNI DSEUZ X
-------------------------------



SECRET    SECRET    SECRET    SECRET    SECRET

SECRET    SECRET    SECRET    SECRET    SECRET



EFFECTIVE PERIOD:
17-JUN-2026 00:00 THROUGH 23:59 GMT

NET INDICATOR:      M209GROUP
KEY LIST INDICATOR: HL
-------------------------------
NR LUGS  1  2  3  4  5  6
-------------------------------
01 1-0   A  -  A  -  -  -
02 1-0   -  B  -  B  -  B
03 1-0   -  C  -  C  C  C
04 1-0   D  D  D  D  D  -
05 2-0   -  -  -  -  -  E
06 2-0   F  -  -  -  -  F
07 2-0   G  G  G  -  -  -
08 0-3   H  -  -  H  H  -
09 0-4   -  I  I  I  I  I
10 0-4   -  J  -  J  J  J
11 0-4   -  -  K  -  -  -
12 0-5   L  -  L  -  L  -
13 0-5   -  M  M  -  M  -
14 0-5   N  -  N  -  -  N
15 0-5   -  -  -  O  O  -
16 0-5   -  -  P  -  -  -
17 0-5   Q  -  -  Q  -  Q
18 0-5   -  R  R  R  -   
19 0-5   -  S  -  -  S   
20 0-5   -  -  -  -      
21 0-6   -  -  -  U      
22 1-2   V  -  V         
23 1-4   W  -  -         
24 2-6   -  Y            
25 4-5   Y  -            
26 4-5   Z               
27 4-5                   
-------------------------------
26 LETTER CHECK

MRHRM GHRJK VWMFJ NXYMQ SASNF J
-------------------------------



SECRET    SECRET    SECRET    SECRET    SECRET

SECRET    SECRET    SECRET    SECRET    SECRET



EFFECTIVE PERIOD:
18-JUN-2026 00:00 THROUGH 23:59 GMT

NET INDICATOR:      M209GROUP
KEY LIST INDICATOR: HM
-------------------------------
NR LUGS  1  2  3  4  5  6
-------------------------------
01 1-0   -  -  A  -  A  A
02 1-0   B  B  B  B  -  -
03 1-0   -  C  -  C  C  C
04 2-0   -  -  -  D  D  -
05 2-0   -  -  E  -  E  -
06 0-4   -  -  -  -  -  -
07 0-4   -  G  G  -  -  G
08 0-4   H  -  H  H  H  H
09 0-4   -  -  -  -  -  -
10 0-4   J  -  J  -  -  J
11 0-6   K  -  -  -  K  K
12 0-6   L  L  L  -  L  L
13 0-6   M  -  -  M  -  M
14 0-6   -  N  N  N  N  -
15 0-6   -  O  O  O  -  O
16 1-2   -  P  -  P  -  -
17 1-3   Q  Q  Q  Q  -  Q
18 1-6   -  R  R  -  R   
19 2-3   -  -  -  S  -   
20 2-3   T  T  -  T      
21 2-3   -  U  U  -      
22 2-4   -  -  V         
23 2-4   -  -  -         
24 2-4   X  -            
25 2-4   Y  Z            
26 3-5   Z               
27 4-6                   
-------------------------------
26 LETTER CHECK

XAWRY JWUJL VOVQL AUSML FYUYX Q
-------------------------------



SECRET    SECRET    SECRET    SECRET    SECRET

SECRET    SECRET    SECRET    SECRET    SECRET



EFFECTIVE PERIOD:
19-JUN-2026 00:00 THROUGH 23:59 GMT

NET INDICATOR:      M209GROUP
KEY LIST INDICATOR: HN
-------------------------------
NR LUGS  1  2  3  4  5  6
-------------------------------
01 1-0   A  A  A  A  A  A
02 1-0   -  B  B  B  B  -
03 1-0   -  -  -  C  -  C
04 1-0   D  -  -  -  -  D
05 1-0   E  E  -  E  E  -
06 2-0   -  -  -  F  F  -
07 2-0   G  G  -  G  G  G
08 0-3   -  H  H  H  -  H
09 0-4   -  -  -  I  I  -
10 0-4   J  -  J  J  -  J
11 0-4   -  -  K  -  -  -
12 0-4   L  L  L  -  L  -
13 0-4   -  M  M  M  -  -
14 0-4   N  -  N  N  -  -
15 0-5   -  O  -  -  O  -
16 0-5   -  -  -  -  P  P
17 0-5   Q  Q  Q  -  Q  Q
18 0-5   R  R  R  -  R   
19 0-5   -  -  -  S  -   
20 1-4   -  -  T  -      
21 1-4   U  -  -  -      
22 1-4   -  V  -         
23 1-4   W  -  -         
24 1-5   -  -            
25 2-3   Y  -            
26 2-5   Z               
27 4-6                   
-------------------------------
26 LETTER CHECK

VQNKI QTOGW SVJRW URVOI LMALQ J
-------------------------------



SECRET    SECRET    SECRET    SECRET    SECRET

SECRET    SECRET    SECRET    SECRET    SECRET



EFFECTIVE PERIOD:
20-JUN-2026 00:00 THROUGH 23:59 GMT

NET INDICATOR:      M209GROUP
KEY LIST INDICATOR: HO
-------------------------------
NR LUGS  1  2  3  4  5  6
-------------------------------
01 1-0   -  -  A  A  A  A
02 2-0   -  B  B  B  -  -
03 0-3   C  C  C  C  -  C
04 0-3   -  -  -  -  -  -
05 0-3   -  -  -  E  -  E
06 0-4   -  F  -  -  F  -
07 0-4   G  G  G  G  -  -
08 0-4   H  -  -  H  H  -
09 0-4   I  I  I  I  I  -
10 0-4   -  -  -  -  -  J
11 0-4   K  K  -  -  -  K
12 0-4   L  L  -  L  L  -
13 0-4   M  -  -  M  -  -
14 0-4   N  -  N  N  N  N
15 0-4   -  O  O  -  -  -
16 0-4   P  -  P  -  -  P
17 0-4   -  -  Q  -  Q  -
18 0-4   R  R  -  R  -   
19 0-5   -  S  S  -  S   
20 0-5   -  -  -  T      
21 0-6   -  U  U  -      
22 0-6   V  -  V         
23 0-6   W  X  X         
24 0-6   -  -            
25 0-6   -  Z            
26 1-5   -               
27 3-5                   
-------------------------------
26 LETTER CHECK

AQHJA YCZHV RVESZ QZUFF RSUFM E
-------------------------------



SECRET    SECRET    SECRET    SECRET    SECRET

SECRET    SECRET    SECRET    SECRET    SECRET



EFFECTIVE PERIOD:
21-JUN-2026 00:00 THROUGH 23:59 GMT

NET INDICATOR:      M209GROUP
KEY LIST INDICATOR: HP
-------------------------------
NR LUGS  1  2  3  4  5  6
-------------------------------
01 0-4   A  -  A  A  -  -
02 0-4   -  -  B  B  B  -
03 0-4   -  C  -  -  C  C
04 0-4   D  D  D  -  -  -
05 0-4   -  E  -  -  E  E
06 0-5   -  F  -  F  F  -
07 0-5   -  G  G  G  -  G
08 0-5   H  H  -  H  -  H
09 0-5   -  -  I  I  -  I
10 0-5   -  J  -  -  J  J
11 0-5   K  K  K  K  K  K
12 0-6   -  -  L  -  L  -
13 0-6   M  M  -  -  -  M
14 0-6   N  N  -  N  -  -
15 0-6   O  O  O  -  -  O
16 1-2   -  -  -  P  -  -
17 1-5   -  -  Q  -  Q  -
18 1-6   R  R  R  -  -   
19 1-6   S  -  -  S  S   
20 1-6   -  -  -  -      
21 2-6   -  U  U  U      
22 3-6   V  V  V         
23 4-5   W  -  X         
24 4-6   -  Y            
25 4-6   -  -            
26 4-6   Z               
27 4-6                   
-------------------------------
26 LETTER CHECK

VKOQM HPNKA VOHVU TTANZ COJFW F
-------------------------------



SECRET    SECRET    SECRET    SECRET    SECRET

SECRET    SECRET    SECRET    SECRET    SECRET



EFFECTIVE PERIOD:
22-JUN-2026 00:00 THROUGH 23:59 GMT

NET INDICATOR:      M209GROUP
KEY LIST INDICATOR: HQ
-------------------------------
NR LUGS  1  2  3  4  5  6
-------------------------------
01 1-0   -  A  A  A  -  -
02 2-0   B  B  -  -  B  -
03 2-0   -  -  -  -  -  -
04 2-0   D  D  D  D  D  D
05 2-0   E  -  -  E  E  E
06 2-0   F  F  F  F  -  F
07 2-0   G  -  -  G  -  G
08 2-0   -  -  -  -  H  H
09 2-0   I  I  I  -  I  I
10 2-0   -  -  J  J  J  -
11 2-0   K  K  K  -  -  K
12 0-3   L  -  -  L  -  -
13 0-3   -  M  M  -  -  -
14 0-3   -  N  -  -  N  N
15 0-3   -  O  -  O  O  O
16 0-3   -  -  P  -  -  -
17 0-3   Q  Q  Q  -  -  Q
18 0-4   R  -  R  R  -   
19 0-4   -  -  -  S  -   
20 0-4   T  T  -  T      
21 0-5   -  -  -  -      
22 0-6   -  -  -         
23 0-6   W  -  -         
24 0-6   -  Y            
25 0-6   Y  Z            
26 1-4   Z               
27 4-6                   
-------------------------------
26 LETTER CHECK

OBWLM OIFZQ WPUOT QMHKR ORISJ P
-------------------------------



SECRET    SECRET    SECRET    SECRET    SECRET

SECRET    SECRET    SECRET    SECRET    SECRET



EFFECTIVE PERIOD:
23-JUN-2026 00:00 THROUGH 23:59 GMT

NET INDICATOR:      M209GROUP
KEY LIST INDICATOR: HR
-------------------------------
NR LUGS  1  2  3  4  5  6
-------------------------------
01 1-0   A  -  A  -  A  -
02 1-0   B  B  B  B  B  B
03 1-0   -  C  -  -  -  -
04 1-0   D  D  -  -  D  -
05 1-0   -  -  -  -  E  -
06 1-0   F  -  F  F  F  F
07 0-3   G  G  -  -  -  G
08 0-3   H  -  H  -  H  H
09 0-3   I  I  I  I  I  I
10 0-3   -  J  J  -  -  J
11 0-3   K  K  K  -  K  K
12 0-4   -  -  -  L  -  -
13 0-5   M  -  -  M  -  M
14 0-5   N  -  -  -  -  -
15 0-5   -  -  -  -  O  -
16 1-3   -  P  P  P  -  P
17 1-4   -  -  Q  Q  Q  -
18 2-4   R  -  -  R  R   
19 3-5   -  -  -  -  -   
20 3-5   -  -  T  T      
21 3-5   U  -  U  -      
22 3-5   V  -  V         
23 4-5   -  X  X         
24 4-5   X  Y            
25 4-5   -  -            
26 4-5   -               
27 5-6                   
-------------------------------
26 LETTER CHECK

HARUG VYQZS QYUMO RTXYS QNLHV U
-------------------------------



SECRET    SECRET    SECRET    SECRET    SECRET

SECRET    SECRET    SECRET    SECRET    SECRET



EFFECTIVE PERIOD:
24-JUN-2026 00:00 THROUGH 23:59 GMT

NET INDICATOR:      M209GROUP
KEY LIST INDICATOR: HS
-------------------------------
NR LUGS  1  2  3  4  5  6
-------------------------------
01 1-0   -  -  -  A  -  A
02 1-0   B  B  -  B  -  -
03 0-3   C  -  -  -  -  -
04 0-3   -  -  D  D  -  -
05 0-3   -  -  E  -  E  E
06 0-3   -  F  F  F  -  -
07 0-3   -  G  -  G  -  -
08 0-3   H  -  -  H  -  -
09 0-3   -  -  -  -  I  I
10 0-3   -  J  J  J  J  -
11 0-3   K  K  K  -  K  K
12 0-4   L  -  L  L  -  -
13 0-4   M  -  M  M  M  -
14 0-4   N  N  -  N  N  -
15 0-4   -  -  -  -  O  O
16 0-4   -  -  P  -  -  P
17 0-5   Q  -  Q  -  -  Q
18 0-5   R  R  -  R  -   
19 0-5   S  -  S  -  S   
20 0-5   -  T  -  T      
21 0-5   U  U  U  -      
22 0-5   -  V  V         
23 0-6   W  X  -         
24 1-2   -  -            
25 1-4   -  -            
26 3-5   -               
27 4-5                   
-------------------------------
26 LETTER CHECK

HQUUA UBAKG GAQNQ ROJQJ XAAEE J
-------------------------------



SECRET    SECRET    SECRET    SECRET    SECRET

SECRET    SECRET    SECRET    SECRET    SECRET



EFFECTIVE PERIOD:
25-JUN-2026 00:00 THROUGH 23:59 GMT

NET INDICATOR:      M209GROUP
KEY LIST INDICATOR: HT
-------------------------------
NR LUGS  1  2  3  4  5  6
-------------------------------
01 1-0   A  A  -  -  -  -
02 1-0   -  B  B  B  B  B
03 1-0   -  -  -  C  C  C
04 1-0   D  -  -  -  D  -
05 1-0   -  -  E  E  E  -
06 1-0   F  F  -  F  F  -
07 1-0   G  -  -  -  -  G
08 2-0   H  -  -  -  H  H
09 2-0   -  -  I  -  I  I
10 2-0   -  -  J  -  J  -
11 2-0   -  -  K  -  -  K
12 0-4   -  L  L  -  L  -
13 0-4   M  M  M  M  -  M
14 0-6   N  -  N  N  -  N
15 0-6   O  -  -  O  -  O
16 0-6   -  P  P  P  -  -
17 0-6   Q  Q  -  -  Q  -
18 1-5   -  R  R  -  -   
19 1-5   -  S  -  -  S   
20 1-6   T  T  -  -      
21 1-6   U  -  -  U      
22 1-6   -  V  V         
23 1-6   W  X  X         
24 2-4   -  Y            
25 2-6   Y  Z            
26 3-5   -               
27 4-5                   
-------------------------------
26 LETTER CHECK

PVRQX UZURY LWJPW MUTNM JNJWR S
-------------------------------



SECRET    SECRET    SECRET    SECRET    SECRET

SECRET    SECRET    SECRET    SECRET    SECRET



EFFECTIVE PERIOD:
26-JUN-2026 00:00 THROUGH 23:59 GMT

NET INDICATOR:      M209GROUP
KEY LIST INDICATOR: HU
-------------------------------
NR LUGS  1  2  3  4  5  6
-------------------------------
01 1-0   -  -  A  -  -  A
02 1-0   -  B  B  B  -  -
03 1-0   -  C  -  -  -  C
04 0-3   D  -  D  D  -  -
05 0-3   -  E  E  E  E  E
06 0-3   -  -  -  F  -  F
07 0-3   G  -  -  G  G  -
08 0-3   H  H  H  -  H  H
09 0-4   I  I  -  -  I  -
10 0-4   -  -  -  -  J  J
11 0-4   -  K  K  K  -  K
12 0-4   L  L  L  L  -  -
13 0-4   M  M  -  -  -  -
14 0-4   N  N  -  -  -  -
15 0-4   -  O  O  O  -  -
16 0-4   -  -  -  P  P  -
17 0-4   -  Q  Q  Q  Q  Q
18 0-4   R  -  -  -  R   
19 0-4   -  -  S  -  S   
20 0-4   -  -  -  -      
21 0-5   U  U  -  U      
22 0-5   -  -  -         
23 0-6   -  -  -         
24 1-3   X  -            
25 1-5   -  -            
26 2-6   Z               
27 5-6                   
-------------------------------
26 LETTER CHECK

CFRRP MFFQC VIRSA QFOFR RGFVA Q
-------------------------------



SECRET    SECRET    SECRET    SECRET    SECRET

SECRET    SECRET    SECRET    SECRET    SECRET



EFFECTIVE PERIOD:
27-JUN-2026 00:00 THROUGH 23:59 GMT

NET INDICATOR:      M209GROUP
KEY LIST INDICATOR: HV
-------------------------------
NR LUGS  1  2  3  4  5  6
-------------------------------
01 2-0   -  A  -  -  -  -
02 2-0   B  -  -  -  -  -
03 2-0   C  C  C  C  C  -
04 2-0   -  -  D  -  D  D
05 2-0   E  -  -  -  -  -
06 2-0   -  F  -  -  F  F
07 2-0   G  G  -  G  -  -
08 2-0   -  -  H  -  H  -
09 2-0   I  -  -  -  I  I
10 2-0   J  J  -  -  J  J
11 0-3   -  -  -  K  -  -
12 0-4   L  -  L  L  -  -
13 0-5   -  M  -  -  -  -
14 0-5   N  -  N  -  -  N
15 0-5   O  O  O  -  -  O
16 0-5   -  -  -  -  P  P
17 0-5   -  Q  -  Q  -  -
18 0-6   R  R  -  R  R   
19 0-6   -  -  S  S  -   
20 0-6   -  -  T  T      
21 0-6   -  -  -  U      
22 0-6   -  V  V         
23 0-6   W  X  X         
24 0-6   -  Y            
25 0-6   -  Z            
26 1-3   -               
27 3-5                   
-------------------------------
26 LETTER CHECK

MCKRO LILNM XQKRZ PXRZB TKIRC R
-------------------------------



SECRET    SECRET    SECRET    SECRET    SECRET

SECRET    SECRET    SECRET    SECRET    SECRET



EFFECTIVE PERIOD:
28-JUN-2026 00:00 THROUGH 23:59 GMT

NET INDICATOR:      M209GROUP
KEY LIST INDICATOR: HW
-------------------------------
NR LUGS  1  2  3  4  5  6
-------------------------------
01 1-0   A  A  -  A  A  A
02 0-4   -  B  -  B  B  B
03 0-4   -  -  C  -  -  -
04 0-4   D  -  -  D  -  -
05 0-4   -  E  -  E  -  -
06 0-5   F  -  F  F  F  F
07 0-5   -  G  G  -  G  G
08 0-5   H  -  -  H  -  -
09 0-5   I  I  I  -  I  I
10 0-5   J  J  -  -  J  -
11 0-5   -  -  K  K  K  -
12 0-6   L  -  -  L  L  L
13 0-6   -  M  -  -  -  -
14 0-6   N  N  N  -  -  -
15 0-6   -  O  O  O  O  -
16 0-6   -  -  P  -  -  P
17 0-6   Q  Q  Q  -  -  -
18 1-3   R  -  -  -  R   
19 1-4   S  -  -  -  S   
20 1-6   -  -  -  T      
21 2-6   -  U  -  -      
22 3-6   -  V  -         
23 4-5   W  -  X         
24 5-6   X  Y            
25 5-6   -  Z            
26 5-6   Z               
27 5-6                   
-------------------------------
26 LETTER CHECK

NPKPZ MLAWS JETYS NTLWT KZWIP U
-------------------------------



SECRET    SECRET    SECRET    SECRET    SECRET

SECRET    SECRET    SECRET    SECRET    SECRET



EFFECTIVE PERIOD:
29-JUN-2026 00:00 THROUGH 23:59 GMT

NET INDICATOR:      M209GROUP
KEY LIST INDICATOR: HX
-------------------------------
NR LUGS  1  2  3  4  5  6
-------------------------------
01 1-0   A  A  A  A  -  -
02 1-0   -  -  -  B  B  B
03 0-4   C  C  C  -  C  -
04 0-5   -  D  -  -  D  D
05 0-5   -  E  -  E  E  -
06 0-5   F  F  -  -  -  -
07 0-5   -  G  -  G  -  G
08 0-5   -  -  H  H  H  H
09 0-5   -  I  -  -  -  I
10 0-5   J  J  J  J  -  J
11 0-6   -  K  K  K  -  K
12 0-6   -  -  L  -  -  -
13 0-6   -  M  M  -  M  -
14 0-6   N  -  N  N  -  -
15 0-6   O  -  -  O  O  -
16 1-2   -  -  P  P  P  P
17 1-4   -  -  -  Q  -  -
18 1-4   R  -  -  -  R   
19 1-4   -  S  -  -  -   
20 1-6   -  -  -  T      
21 1-6   -  -  -  -      
22 1-6   V  V  -         
23 1-6   W  X  X         
24 2-3   -  -            
25 2-4   Y  Z            
26 4-5   Z               
27 5-6                   
-------------------------------
26 LETTER CHECK

KNNNP JSNMV AUJTM YTMFH UCXPM A
-------------------------------



SECRET    SECRET    SECRET    SECRET    SECRET

SECRET    SECRET    SECRET    SECRET    SECRET



EFFECTIVE PERIOD:
30-JUN-2026 00:00 THROUGH 23:59 GMT

NET INDICATOR:      M209GROUP
KEY LIST INDICATOR: HY
-------------------------------
NR LUGS  1  2  3  4  5  6
-------------------------------
01 1-0   -  A  A  -  -  A
02 2-0   -  -  B  B  -  B
03 2-0   -  -  C  -  -  -
04 2-0   -  -  -  -  D  D
05 2-0   -  -  -  -  -  E
06 0-3   -  F  -  F  F  -
07 0-4   G  G  G  G  G  -
08 0-4   H  H  H  H  H  -
09 0-4   I  I  -  I  I  -
10 0-4   -  -  -  J  -  J
11 0-4   -  -  -  -  K  K
12 0-4   L  -  -  -  L  -
13 0-4   M  -  -  -  M  -
14 0-4   -  N  -  -  N  -
15 0-4   -  -  O  O  -  O
16 0-5   P  P  -  P  P  P
17 0-6   Q  -  Q  -  -  Q
18 0-6   R  R  R  R  R   
19 0-6   -  S  S  -  -   
20 0-6   T  T  -  T      
21 0-6   -  U  -  -      
22 1-2   -  V  V         
23 1-5   W  -  -         
24 2-6   -  Y            
25 4-6   -  -            
26 4-6   Z               
27 4-6                   
-------------------------------
26 LETTER CHECK

MJPSR XPYJF VQABN NZZUI BKLVX K
-------------------------------



SECRET    SECRET    SECRET    SECRET    SECRET
