EFFECTIVE PERIOD:
23-JUL-2037 00:00 THROUGH 23:59 GMT

NET INDICATOR:      M209GROUP
KEY LIST INDICATOR: HJ
-------------------------------
NR LUGS  1  2  3  4  5  6
-------------------------------
01 1-0   -  A  -  -  A  A
02 1-0   -  -  -  -  B  -
03 1-0   C  -  -  C  C  C
04 1-0   -  D  -  -  D  D
05 1-0   -  E  E  E  E  -
06 2-0   F  F  F  -  -  F
07 2-0   -  -  -  G  -  G
08 0-3   -  H  H  -  H  -
09 0-3   -  I  I  -  -  I
10 0-3   J  -  -  -  -  -
11 0-3   -  -  -  -  K  -
12 0-3   L  L  -  -  -  L
13 0-3   -  -  M  M  -  -
14 0-4   N  -  N  N  -  N
15 0-4   O  -  -  O  -  O
16 0-4   P  P  P  P  -  -
17 0-4   Q  Q  -  -  Q  -
18 1-3   -  -  R  -  -   
19 1-4   S  S  -  S  -   
20 1-4   -  -  T  T      
21 1-4   -  -  -  -      
22 1-4   V  V  -         
23 2-3   W  -  X         
24 2-4   -  Y            
25 2-4   Y  -            
26 2-5   -               
27 4-6                   
-------------------------------
26 LETTER CHECK

XUVQN AXUAW BOBQM VPHNF KKASR Q
-------------------------------
