EFFECTIVE PERIOD:
28-OCT-2014 00:00 THROUGH 23:59 GMT

NET INDICATOR:      M209GROUP
KEY LIST INDICATOR: ZZ
-------------------------------
NR LUGS  1  2  3  4  5  6
-------------------------------
01 1-0   A  -  -  -  A  -
02 0-4   B  B  -  -  B  B
03 0-4   C  C  -  C  -  C
04 0-4   -  -  -  -  D  -
05 0-4   E  -  E  -  E  E
06 0-4   -  -  F  -  -  F
07 0-4   -  G  G  G  -  -
08 0-4   -  H  -  H  -  -
09 0-4   I  I  I  I  I  -
10 0-5   J  -  -  J  -  -
11 0-5   K  -  K  -  K  -
12 0-5   L  -  L  -  L  -
13 0-5   M  -  -  -  -  M
14 0-6   -  N  -  N  -  N
15 0-6   O  -  O  O  -  O
16 0-6   -  P  P  -  P  -
17 0-6   Q  -  -  Q  -  Q
18 0-6   R  R  R  R  -   
19 0-6   -  -  -  S  -   
20 0-6   -  T  -  T      
21 0-6   U  -  -  U      
22 0-6   -  -  -         
23 0-6   W  X  X         
24 0-6   X  Y            
25 0-6   -  Z            
26 2-3   -               
27 2-5                   
-------------------------------
26 LETTER CHECK

EKVNZ KTIAR BZSCA JNJNS NNIZB V
-------------------------------
