EFFECTIVE PERIOD:
30-NOV-2035 00:00 THROUGH 23:59 GMT

NET INDICATOR:      M209GROUP
KEY LIST INDICATOR: KG
-------------------------------
NR LUGS  1  2  3  4  5  6
-------------------------------
01 2-0   -  -  -  A  -  -
02 2-0   B  B  B  B  B  B
03 2-0   C  C  C  -  C  -
04 2-0   -  D  -  D  D  -
05 2-0   E  -  -  E  -  -
06 2-0   -  -  F  F  -  F
07 2-0   -  G  -  -  G  -
08 0-3   -  -  H  -  -  -
09 0-3   -  -  -  I  -  -
10 0-3   J  J  J  -  J  -
11 0-3   K  K  K  K  -  K
12 0-3   L  -  L  L  -  L
13 0-4   -  M  -  M  M  M
14 0-5   N  -  -  N  N  N
15 0-6   O  -  O  O  -  O
16 0-6   -  -  P  -  P  -
17 0-6   Q  Q  Q  -  -  Q
18 0-6   -  R  R  -  -   
19 0-6   -  S  -  S  S   
20 1-2   T  -  -  -      
21 2-3   U  U  U  -      
22 2-3   V  V  V         
23 2-3   W  -  -         
24 2-3   X  Y            
25 3-6   Y  Z            
26 4-5   -               
27 4-6                   
-------------------------------
26 LETTER CHECK

ITAXZ AUTQP PLZOP KZAGR AADVK Q
-------------------------------
