EFFECTIVE PERIOD:
16-APR-2030 00:00 THROUGH 23:59 GMT

NET INDICATOR:      M209GROUP
KEY LIST INDICATOR: JG
-------------------------------
NR LUGS  1  2  3  4  5  6
-------------------------------
01 1-0   A  -  A  -  -  A
02 1-0   -  -  B  -  B  -
03 1-0   -  C  -  C  C  -
04 1-0   D  -  -  D  D  -
05 1-0   E  E  E  E  E  -
06 2-0   F  F  -  F  -  F
07 0-3   G  -  G  G  -  G
08 0-3   -  -  -  -  -  H
09 0-3   -  I  -  I  I  -
10 0-3   -  -  J  -  J  -
11 0-3   K  -  -  K  -  K
12 0-4   L  L  L  L  -  L
13 0-6   M  -  M  M  M  -
14 0-6   N  -  N  -  -  N
15 0-6   -  O  -  -  O  -
16 0-6   -  P  -  -  -  P
17 0-6   Q  Q  -  -  Q  -
18 0-6   -  R  R  R  -   
19 0-6   S  S  S  S  -   
20 0-6   -  -  -  -      
21 0-6   U  U  -  -      
22 1-3   -  V  V         
23 1-5   W  X  X         
24 3-6   -  -            
25 3-6   -  -            
26 3-6   -               
27 4-5                   
-------------------------------
26 LETTER CHECK

UUAUJ ZCTJK KQOOZ JQULL OQZOT A
-------------------------------
